<?xml version="1.0" encoding="utf-8"?>
<COLLADA xmlns="http://www.collada.org/2005/11/COLLADASchema" version="1.4.1">
  <asset>
    <contributor>
      <author>Blender User</author>
      <authoring_tool>Blender 2.78.0 commit date:2017-02-24, commit time:14:33, hash:e92f2352830</authoring_tool>
    </contributor>
    <created>2017-07-14T10:06:19</created>
    <modified>2017-07-14T10:06:19</modified>
    <unit name="meter" meter="1"/>
    <up_axis>Z_UP</up_axis>
  </asset>
  <library_images/>
  <library_effects>
    <effect id="Metall_Alu_002-effect">
      <profile_COMMON>
        <technique sid="common">
          <phong>
            <emission>
              <color sid="emission">0 0 0 1</color>
            </emission>
            <ambient>
              <color sid="ambient">0 0 0 1</color>
            </ambient>
            <diffuse>
              <color sid="diffuse">0.45 0.45 0.45 1</color>
            </diffuse>
            <specular>
              <color sid="specular">0.325 0.325 0.325 1</color>
            </specular>
            <shininess>
              <float sid="shininess">70</float>
            </shininess>
            <index_of_refraction>
              <float sid="index_of_refraction">1</float>
            </index_of_refraction>
          </phong>
        </technique>
      </profile_COMMON>
    </effect>
    <effect id="Gummi_002-effect">
      <profile_COMMON>
        <technique sid="common">
          <phong>
            <emission>
              <color sid="emission">0 0 0 1</color>
            </emission>
            <ambient>
              <color sid="ambient">0 0 0 1</color>
            </ambient>
            <diffuse>
              <color sid="diffuse">0.1 0.1 0.1 1</color>
            </diffuse>
            <specular>
              <color sid="specular">0.025 0.025 0.025 1</color>
            </specular>
            <shininess>
              <float sid="shininess">50</float>
            </shininess>
            <index_of_refraction>
              <float sid="index_of_refraction">1</float>
            </index_of_refraction>
          </phong>
        </technique>
      </profile_COMMON>
    </effect>
    <effect id="Kunststoff_druckteile_001-effect">
      <profile_COMMON>
        <technique sid="common">
          <phong>
            <emission>
              <color sid="emission">0 0 0 1</color>
            </emission>
            <ambient>
              <color sid="ambient">0 0 0 1</color>
            </ambient>
            <diffuse>
              <color sid="diffuse">0.5 0.5 0.5 1</color>
            </diffuse>
            <specular>
              <color sid="specular">0.5 0.5 0.5 1</color>
            </specular>
            <shininess>
              <float sid="shininess">50</float>
            </shininess>
            <index_of_refraction>
              <float sid="index_of_refraction">1</float>
            </index_of_refraction>
          </phong>
        </technique>
      </profile_COMMON>
    </effect>
  </library_effects>
  <library_materials>
    <material id="Metall_Alu_002-material" name="Metall_Alu_002">
      <instance_effect url="#Metall_Alu_002-effect"/>
    </material>
    <material id="Gummi_002-material" name="Gummi_002">
      <instance_effect url="#Gummi_002-effect"/>
    </material>
    <material id="Kunststoff_druckteile_001-material" name="Kunststoff_druckteile_001">
      <instance_effect url="#Kunststoff_druckteile_001-effect"/>
    </material>
  </library_materials>
  <library_geometries>
    <geometry id="Cylinder_004-mesh" name="Cylinder.004">
      <mesh>
        <source id="Cylinder_004-mesh-positions">
          <float_array id="Cylinder_004-mesh-positions-array" count="1524">0.01354968 0.006011247 0.01459437 0.01654964 0.00602287 0.01461935 0.01355135 0.008056581 0.01358354 0.01656246 0.008097827 0.01365137 0.01355439 0.01129865 0.01109021 0.01656204 0.01134657 0.01113891 0.01354426 0.013803 0.007856309 0.01656192 0.01383912 0.007878303 0.01354533 0.01536154 0.004074752 0.01507383 0.0153703 0.004075944 0.01351195 0.01506698 0.004984259 0.01655942 0.0150569 0.004984259 0.01955926 0.01477378 0.005000054 0.01555937 0.0150569 0.004984259 0.0195502 0.006649792 0.01429325 0.02621227 0.009236156 0.01320171 0.03482347 0.01157617 0.01118594 0.03927165 0.01178139 0.0104233 0.04294884 0.0121923 0.009019792 0.01955139 0.008054316 0.01356881 0.01957738 0.01131778 0.01110994 0.01957899 0.01380884 0.007861554 0.03857928 0.01313263 0.008945047 0.03406924 0.01303893 0.009681105 0.01957428 0.01481091 0.005702137 0.04255717 0.01336836 0.007869899 0.04248189 0.01450717 0.005478799 0.02415585 0.01442557 0.007790327 0.0287348 0.01416599 0.008499562 0.03331583 0.01411849 0.008185923 0.03789675 0.01422262 0.007346451 0.02705347 0.01141321 0.01166599 0.02789473 0.01299852 0.01006239 0.0241549 0.01321887 0.009586155 0.0135532 0.008095145 0.009512066 0.01355516 0.01135396 0.009512066 -0.01094573 0.009883344 0.009495198 0.01354449 0.01260429 0.00950694 0.01077634 0.01221895 0.009505569 -0.007953047 0.01255321 0.009476244 0.0107758 0.01260429 0.009505689 0.007704913 0.01222079 0.009504199 0.007704377 0.01335668 0.009504556 0.004906415 0.01222252 0.009503006 0.004905939 0.01458787 0.009503722 8.7945e-4 0.01222497 0.009501218 8.78921e-4 0.01527607 0.009502172 -0.003079295 0.01222735 0.00949943 -0.003079831 0.01488286 0.009500324 -0.01443636 0.007993221 0.005997717 -0.01269346 0.009353697 0.0077461 -0.01444309 0.009481847 0.003012418 -0.007987976 0.01372015 0.007683217 0.00772041 0.01451307 0.007704019 0.004886746 0.01564115 0.007655739 8.76556e-4 0.01636707 0.007672846 -0.003091156 0.01605218 0.007706046 -0.008036851 0.01460969 0.005764722 0.007743477 0.0153833 0.005775809 0.00489521 0.01647734 0.005723536 8.77518e-4 0.01716327 0.00572437 -0.00307691 0.01685494 0.005735933 -0.00795722 0.01546519 0.003042578 0.007866919 0.01588928 0.003052055 0.004980742 0.01713442 0.003048658 8.81598e-4 0.0178191 0.003042638 -0.003350913 0.01742386 0.003052115 0.01082301 0.01395386 0.007582962 0.01082944 0.01483738 0.005690753 0.01083767 0.01561117 0.003051519 -0.01097905 0.01341491 0.003039479 -0.01100683 0.01244753 0.005813956 0.0429427 0.01234805 0.008923411 0.0484879 0.01229745 0.008878767 0.0429421 0.01353752 0.006983637 0.04848784 0.01347452 0.006948888 0.04294222 0.01474189 0.003947615 0.04848772 0.01466238 0.003922522 0.05254256 0.01184904 0.008954823 0.05331432 0.01294058 0.007117033 0.05404257 0.01388567 0.004014849 0.05666285 0.009354531 0.00652498 0.05756044 0.0102182 0.006525635 0.05847799 0.01109981 0.004014849 0.05908584 0.004539847 0.0090245 0.06014388 0.007195413 0.006525814 0.06116181 0.00783503 0.004015803 0.06022995 0.004046142 0.008957386 0.06148767 0.003937423 0.007088124 0.06278574 0.004054605 0.004014551 0.0230866 0.01614886 0.002806782 0.02651089 0.01643192 0.00280106 0.03231114 0.01630604 0.00279653 0.03901171 0.01572388 0.002803623 0.02309483 0.01544278 0.005386412 0.0265097 0.0157237 0.005376935 0.03230959 0.01559865 0.005366981 0.03901404 0.01500445 0.005378603 0.02494049 0.01491028 0.007008552 0.02651017 0.0150386 0.006982922 0.03194385 0.01492989 0.00697726 0.03736436 0.01445764 0.006988763 0.0230773 0.01231366 0.002821266 0.03902161 0.012304 0.002821266 0.0230773 0.01231282 0.005404353 0.03899693 0.01233017 0.005400419 0.02494317 0.01233017 0.00699383 0.02650707 0.01233011 0.007012546 0.0319482 0.01233011 0.007014989 0.03736913 0.01230365 0.007011294 0.01354616 2.27693e-4 0.01460289 0.01656341 2.2768e-4 0.01462996 0.01354265 -0.005558729 0.01460051 0.01656317 -0.005567491 0.01462769 0.01354455 -0.007605314 0.01359027 0.01656228 -0.007640659 0.01364773 0.01354455 -0.0108506 0.01109755 0.01656323 -0.01060253 0.01146036 0.01354455 -0.01335179 0.007857501 0.01656144 -0.01340246 0.007890164 0.01354455 -0.01493692 0.004084765 0.01579159 -0.01492303 0.004080832 0.0135414 -0.01460152 0.004984259 0.01654142 -0.01460152 0.004984259 0.01957368 -0.01464378 0.004997909 0.01579141 -0.01460164 0.004984378 0.01957172 2.27686e-4 0.01428765 0.0195713 -0.006194353 0.01428329 0.02621239 2.27688e-4 0.01320207 0.02620273 -0.008523166 0.01281601 0.03482192 2.27693e-4 0.01117873 0.03480798 -0.01066607 0.01074701 0.03927141 2.28139e-4 0.009014308 0.03926151 -0.01105409 0.0101729 0.0429489 2.28038e-4 0.009015917 0.042934 -0.01130622 0.009735405 0.01957106 -0.007604122 0.01359063 0.01957082 -0.0108481 0.01109701 0.01957118 -0.01335322 0.0078606 0.0385704 -0.01226526 0.008666992 0.03404068 -0.01288121 0.007936298 0.01957041 -0.01458698 0.005173981 0.04270809 -0.01272648 0.007755696 0.04246908 -0.01408237 0.004847705 0.02412956 -0.01453018 0.004974067 0.02870756 -0.01438575 0.005043864 0.03328883 -0.01428484 0.004978597 0.03787016 -0.01425868 0.004682242 0.02703839 -0.01049703 0.01118999 0.02786332 -0.01298815 0.008063018 0.0241301 -0.01305264 0.00813955 0.01354843 2.27684e-4 0.009512066 0.0135436 -0.007640302 0.009514391 0.01354163 -0.01089859 0.009512007 -0.01095157 2.27685e-4 0.009492099 -0.01095253 -0.001367807 0.009491562 0.01354092 -0.01214891 0.009512007 0.0107758 -0.01089859 0.009498119 4.09027e-5 -0.01215374 0.009492933 0.0107758 2.27691e-4 0.009501695 0.0107758 -0.01214891 0.009497702 0.007704377 -0.01089859 0.009496748 0.007702827 -0.01246666 0.009231507 0.007704377 2.27689e-4 0.009500324 0.004905939 -0.01089859 0.009495496 0.004906535 -0.01285803 0.008645117 0.004905939 2.27689e-4 0.009499132 8.78925e-4 -0.01089859 0.009493708 8.72596e-4 -0.01304817 0.008368194 0.001526117 1.06066e-4 0.009511709 4.16643e-5 -0.01090049 0.00949335 1.02375e-4 -0.01264774 0.008977174 -0.00307995 2.2732e-4 0.009795546 -0.01404452 9.44634e-4 0.006396234 -0.01255249 -0.001366317 0.007890224 -0.01255249 -0.001366317 0.007890224 -0.01269477 2.27684e-4 0.007747352 -0.01255249 -0.001366317 0.007890224 -0.01255249 -0.001366317 0.007890224 -0.01444792 0.002577006 0.004421651 4.16343e-5 -0.0122736 0.007687151 0.00770092 -0.01357305 0.007461249 0.004897415 -0.01383531 0.006979525 0.001203835 -0.0135672 0.007493019 3.76873e-4 -0.01314592 0.007675707 9.78957e-5 -0.01257723 0.00749284 0.007703661 -0.01444309 0.00557959 0.005591332 -0.01457202 0.005229651 0.001203835 -0.0135672 0.007493019 3.74641e-4 -0.0131433 0.00749278 1.27998e-4 -0.01274001 0.00749278 0.007702529 -0.01517623 0.003002822 0.005591988 -0.01521807 0.002815783 0.005591988 -0.01523452 0.002711415 3.74641e-4 -0.0131433 0.00749278 1.27998e-4 -0.01274001 0.00749278 0.005592286 -0.01534742 0.001994371 0.005592286 -0.01534742 0.001994371 0.005592286 -0.01534742 0.001994371 0.01083797 -0.01350253 0.007583916 0.01083767 -0.01439106 0.005693316 0.01083785 -0.01515895 0.003051996 4.17187e-5 -0.01227355 0.007492899 4.17187e-5 -0.01227355 0.007492899 -0.01101934 -0.001367211 0.007890939 0.04294842 2.27695e-4 0.009015917 0.04294425 -0.01193422 0.0089432 0.04848796 2.27693e-4 0.009018361 0.04848814 -0.01188015 0.008905827 0.04294347 -0.01314026 0.00700587 0.04848814 -0.01306456 0.006972014 0.04294174 -0.01434385 0.003939926 0.04848819 -0.01426112 0.003935635 0.05255019 -0.01141762 0.008954048 0.0531792 -0.01212805 0.008266448 0.05406159 -0.01348167 0.004020869 0.05665463 -0.008890807 0.00897181 0.05767673 -0.009892046 0.007159948 0.05850595 -0.01067614 0.004026472 0.05907708 -0.006071686 0.0089612 0.06023406 -0.006791055 0.007134675 0.0611881 -0.007395267 0.004015147 0.06023001 -0.003590464 0.008957564 0.06161159 -0.00363177 0.007143557 0.06279861 -0.003594458 0.004014909 0.06024199 2.27693e-4 0.009023606 0.06209856 2.27254e-4 0.007317245 0.06280094 2.2767e-4 0.004014909 0.01354968 0.006011247 -0.01455545 0.01654964 0.00602287 -0.01458042 0.01355135 0.008056581 -0.01354461 0.01656246 0.008097827 -0.01361244 0.01355439 0.01129865 -0.01105129 0.01656204 0.01134657 -0.01109999 0.01354426 0.013803 -0.007817387 0.01656192 0.01383912 -0.007839381 0.01354533 0.01536154 -0.00403583 0.01507383 0.0153703 -0.004037022 0.01354622 0.01591986 1.94648e-5 0.01415956 0.0159195 1.94648e-5 0.01351195 0.01506698 -0.004945337 0.01655942 0.0150569 -0.004945337 0.01955926 0.01477378 -0.004961133 0.01956158 0.0150569 1.94639e-5 0.01555937 0.0150569 -0.004945337 0.01656156 0.0150569 1.94639e-5 0.01556158 0.0150569 1.94639e-5 0.0195502 0.006649792 -0.01425433 0.02621227 0.009236156 -0.01316279 0.03482347 0.01157617 -0.01114702 0.03927165 0.01178139 -0.01038438 0.04294884 0.0121923 -0.00898087 0.01955139 0.008054316 -0.01352989 0.01957738 0.01131778 -0.01107102 0.01957899 0.01380884 -0.007822632 0.03857928 0.01313263 -0.008906126 0.03406924 0.01303893 -0.009642183 0.01957428 0.01481091 -0.005663216 0.04255717 0.01336836 -0.007830977 0.01956146 0.01479762 1.94639e-5 0.04248189 0.01450717 -0.005439877 0.04256135 0.01454377 1.94601e-5 0.03789675 0.01380532 1.94611e-5 0.03331571 0.01380836 1.94611e-5 0.02873456 0.01381117 1.9462e-5 0.02415329 0.01381379 1.9463e-5 0.02415585 0.01442557 -0.007751405 0.0287348 0.01416599 -0.00846064 0.03331583 0.01411849 -0.008147001 0.03789675 0.01422262 -0.007307529 0.02705347 0.01141321 -0.01162707 0.02789473 0.01299852 -0.01002347 0.0241549 0.01321887 -0.009547233 0.01355314 0.008095145 -0.009473145 0.01355516 0.01135396 -0.009473145 -0.01094573 0.009883344 -0.009456276 0.01354449 0.01260429 -0.009468019 0.01077634 0.01221895 -0.009466648 -0.007953047 0.01255321 -0.009437322 0.0107758 0.01260429 -0.009466767 0.007704854 0.01222085 -0.009465277 0.007704377 0.01335668 -0.009465634 0.004906415 0.01222252 -0.009464025 0.004905939 0.01458787 -0.0094648 8.79448e-4 0.01222497 -0.009462296 8.78919e-4 0.01527607 -0.00946325 -0.003079295 0.01222735 -0.009460508 -0.003079831 0.01488286 -0.009461343 -0.01443636 0.007993221 -0.005958795 -0.01269346 0.009353697 -0.007707178 -0.01444149 0.009954392 1.94676e-5 -0.01444309 0.009481847 -0.002973496 -0.007987976 0.01372015 -0.007644236 0.00772041 0.01451307 -0.007665097 0.004886746 0.01564115 -0.007616758 8.76554e-4 0.01636707 -0.007633864 -0.003091156 0.01605218 -0.007667124 -0.008036851 0.01460969 -0.005725741 0.007743477 0.0153833 -0.005736887 0.00489521 0.01647734 -0.005684614 8.77516e-4 0.01716327 -0.005685448 -0.00307691 0.01685494 -0.005697011 -0.00795722 0.01546519 -0.003003656 0.007866919 0.01588928 -0.003013134 0.004980742 0.01713442 -0.003009736 8.81596e-4 0.0178191 -0.003003716 -0.003350913 0.01742386 -0.003013193 -0.007965862 0.0157662 1.94676e-5 0.007951855 0.01614499 1.94658e-5 0.005056858 0.01741403 1.94667e-5 8.76625e-4 0.01810848 1.94667e-5 -0.003398001 0.01770061 1.94667e-5 0.01082301 0.01395386 -0.00754404 0.01082944 0.01483738 -0.005651831 0.01083767 0.01561117 -0.003012597 0.01083803 0.01592195 1.94658e-5 -0.01102501 0.0137546 1.94676e-5 -0.01097905 0.01341491 -0.003000497 -0.01100683 0.01244753 -0.005775034 0.0429427 0.01234805 -0.008884489 0.0484879 0.01229745 -0.008839845 0.0429421 0.01353752 -0.006944715 0.04848784 0.01347452 -0.006909966 0.04294222 0.01474189 -0.003908693 0.04848772 0.01466238 -0.0038836 0.04294842 0.0151025 1.94601e-5 0.04856169 0.01507282 1.94592e-5 0.0525425 0.01184904 -0.008915901 0.05331432 0.01294058 -0.007078111 0.05404257 0.01388567 -0.003975927 0.05404913 0.0138852 1.94583e-5 0.05666285 0.009354531 -0.006486058 0.05756044 0.0102182 -0.006486713 0.05847799 0.01109981 -0.003975927 0.05848586 0.01110398 1.94583e-5 0.05908584 0.004539847 -0.008985579 0.06014388 0.007195413 -0.006486892 0.06116181 0.00783503 -0.003976941 0.06114995 0.00782752 1.94564e-5 0.06022995 0.004046142 -0.008918464 0.06148767 0.003937423 -0.007049202 0.06278574 0.004054605 -0.003975629 0.06278944 0.004049062 1.94555e-5 0.0230866 0.01614886 -0.00276786 0.02307868 0.01640808 1.94639e-5 0.02651089 0.01643192 -0.002762138 0.02650851 0.01669186 1.94639e-5 0.03231114 0.01630604 -0.002757608 0.03231251 0.01656568 1.9463e-5 0.03901171 0.01572388 -0.002764701 0.0390194 0.01598697 1.9462e-5 0.02309483 0.01544278 -0.00534743 0.02650964 0.0157237 -0.005337953 0.03230959 0.01559865 -0.005328059 0.03901404 0.01500445 -0.005339682 0.02494049 0.01491028 -0.00696963 0.02651017 0.0150386 -0.006944 0.03194385 0.01492989 -0.006938338 0.03736436 0.01445764 -0.006949841 0.0230773 0.01231366 -0.002782344 0.0230773 0.01231455 1.9463e-5 0.03902161 0.012304 -0.002782344 0.03902161 0.0123049 1.94601e-5 0.0230773 0.01231282 -0.005365431 0.03899693 0.01233017 -0.005361497 0.02494317 0.01233017 -0.006954908 0.02650707 0.01233017 -0.006973624 0.0319482 0.01233017 -0.006976068 0.03736913 0.01230365 -0.006972372 0.01354616 2.277e-4 -0.01456397 0.01656341 2.27685e-4 -0.01459103 0.01354265 -0.005558729 -0.01456159 0.01656317 -0.005567491 -0.01458877 0.01354455 -0.007605314 -0.01355135 0.01656228 -0.007640659 -0.01360881 0.01354455 -0.0108506 -0.01105862 0.01656323 -0.01060253 -0.01142144 0.01354455 -0.01335179 -0.007818579 0.01656144 -0.01340246 -0.007851243 0.01354455 -0.01493692 -0.004045844 0.01579159 -0.01492303 -0.00404191 0.01354503 -0.01402956 1.94592e-5 0.01416045 -0.01402992 1.94583e-5 0.0135414 -0.01460152 -0.004945337 0.01654142 -0.01460152 -0.004945337 0.01957368 -0.01464378 -0.004958987 0.01957297 -0.0145744 1.94583e-5 0.01579141 -0.01460164 -0.004945456 0.01654362 -0.01460152 1.94583e-5 0.01579362 -0.01460164 1.94583e-5 0.01957172 2.27693e-4 -0.01424872 0.0195713 -0.006194353 -0.01424437 0.02621239 2.27695e-4 -0.01316314 0.02620273 -0.008523166 -0.01277714 0.03482192 2.27698e-4 -0.01113981 0.03480798 -0.01066607 -0.01070809 0.03927141 2.28144e-4 -0.008975386 0.03926151 -0.01105409 -0.01013398 0.0429489 2.28043e-4 -0.008976995 0.042934 -0.01130622 -0.009696483 0.01957106 -0.007604062 -0.01355171 0.01957082 -0.0108481 -0.01105809 0.01957118 -0.01335322 -0.007821679 0.0385704 -0.01226526 -0.00862807 0.03404068 -0.01288121 -0.007897436 0.01957041 -0.01458698 -0.005135059 0.04270809 -0.01272648 -0.007716774 0.01957285 -0.01504755 1.94583e-5 0.04246908 -0.01408237 -0.004808783 0.04247832 -0.01505637 1.94545e-5 0.03789699 -0.01504939 1.94545e-5 0.03331583 -0.0150457 1.94564e-5 0.02873474 -0.0150429 1.94564e-5 0.02415376 -0.01504439 1.94564e-5 0.02412956 -0.01453018 -0.004935145 0.0287075 -0.01438575 -0.005005002 0.03328883 -0.01428484 -0.004939675 0.03787016 -0.01425868 -0.004643321 0.02703839 -0.01049703 -0.01115107 0.02786332 -0.01298815 -0.008024156 0.0241301 -0.01305264 -0.008100628 0.01354843 2.27686e-4 -0.009473145 0.0135436 -0.007640302 -0.009475469 0.01354163 -0.01089859 -0.009473145 -0.01095157 2.2769e-4 -0.009453177 -0.01095253 -0.001367807 -0.009452641 0.01354092 -0.01214891 -0.009473145 0.0107758 -0.01089859 -0.009459197 4.09027e-5 -0.01215374 -0.009454011 0.0107758 2.27694e-4 -0.009462773 0.0107758 -0.01214891 -0.00945878 0.007704377 -0.01089859 -0.009457826 0.007702827 -0.01246666 -0.009192645 0.007704377 2.27692e-4 -0.009461402 0.004905939 -0.01089859 -0.009456574 0.004906475 -0.01285803 -0.008606255 0.004905939 2.27692e-4 -0.00946021 8.78925e-4 -0.01089859 -0.009454786 8.72592e-4 -0.01304817 -0.008329272 0.001526117 1.0607e-4 -0.009472787 4.16605e-5 -0.01090049 -0.009454429 1.02375e-4 -0.01264774 -0.008938252 -0.00307995 2.27322e-4 -0.009756624 -0.01404452 9.44639e-4 -0.006357312 -0.01255249 -0.001366257 -0.007851302 -0.01255249 -0.001366257 -0.007851302 -0.01269477 2.27688e-4 -0.00770843 -0.01444536 0.003813624 1.94658e-5 -0.01255249 -0.001366257 -0.007851302 -0.01255249 -0.001366257 -0.007851302 -0.01444792 0.002577006 -0.004382729 4.16305e-5 -0.0122736 -0.007648229 0.00770092 -0.01357305 -0.007422327 0.004897415 -0.01383531 -0.006940603 0.001203835 -0.0135672 -0.007454097 3.76869e-4 -0.01314592 -0.007636785 9.78919e-5 -0.01257723 -0.007453918 0.007703661 -0.01444309 -0.005540668 0.005591332 -0.01457202 -0.00519073 0.001203835 -0.0135672 -0.007454097 3.74641e-4 -0.0131433 -0.007453858 1.27998e-4 -0.01274001 -0.007453858 0.007702529 -0.01517623 -0.0029639 0.005591988 -0.01521807 -0.002776861 0.005591988 -0.01523452 -0.002672493 3.74641e-4 -0.0131433 -0.007453858 1.27998e-4 -0.01274001 -0.007453858 0.00770539 -0.01402598 1.94592e-5 0.005592286 -0.01534742 -0.001955449 0.005592286 -0.01534742 -0.001955449 0.005592286 -0.01534742 -0.001955449 0.01083797 -0.01350253 -0.007544994 0.01083767 -0.01439106 -0.005654394 0.01083785 -0.01515895 -0.003013074 0.01083868 -0.01402789 1.94592e-5 4.17187e-5 -0.01227355 -0.007453978 4.17187e-5 -0.01227355 -0.007453978 -0.01101934 -0.001367211 -0.007851958 0.04294842 2.27698e-4 -0.008976995 0.04294425 -0.01193422 -0.008904278 0.04848796 2.27698e-4 -0.008979499 0.04848814 -0.01188015 -0.008866906 0.04294347 -0.01314026 -0.006966948 0.04848814 -0.01306456 -0.006933093 0.04294174 -0.01434385 -0.003901004 0.04848819 -0.01426112 -0.003896713 0.04294884 -0.01506417 1.94545e-5 0.04854369 -0.0146175 1.94545e-5 0.05255019 -0.01141762 -0.008915126 0.0531792 -0.01212805 -0.008227586 0.05406159 -0.01348167 -0.003981947 0.0540679 -0.01348042 1.94536e-5 0.05665463 -0.008890807 -0.008932888 0.05767673 -0.009892046 -0.007121026 0.05850595 -0.01067614 -0.00398755 0.05850046 -0.01066875 1.94526e-5 0.05907708 -0.006071686 -0.008922278 0.06023406 -0.006791055 -0.007095754 0.0611881 -0.007395267 -0.003976225 0.0611754 -0.007386147 1.94536e-5 0.06023001 -0.003590464 -0.008918642 0.06161159 -0.00363177 -0.007104635 0.06279861 -0.003594458 -0.003975987 0.06279367 -0.003593802 1.94536e-5 0.06024199 2.27698e-4 -0.008984684 0.06209856 2.27259e-4 -0.007278323 0.06280094 2.27671e-4 -0.003975987 0.06279367 2.28335e-4 1.94545e-5</float_array>
          <technique_common>
            <accessor source="#Cylinder_004-mesh-positions-array" count="508" stride="3">
              <param name="X" type="float"/>
              <param name="Y" type="float"/>
              <param name="Z" type="float"/>
            </accessor>
          </technique_common>
        </source>
        <source id="Cylinder_004-mesh-normals">
          <float_array id="Cylinder_004-mesh-normals-array" count="1536">-0.7101823 8.85057e-4 0.7040174 0.05182194 2.44155e-4 0.9986563 0.03146499 0.2053009 0.9781931 -0.6646489 0.1672762 0.7281901 0.003174006 0.5207226 0.8537201 -0.6949539 0.3812159 0.6096831 -0.002014219 0.7070901 0.7071206 -0.00125128 0.8650716 0.5016469 -0.002899289 0.8644852 0.5026502 0.05008119 0.9641472 0.2605993 0.2554493 0.9559662 0.1444799 -0.00427258 0.9729021 0.2311783 -3.05185e-5 1 0 0.2731487 0.9619718 0 0.02493381 0.9822773 0.1857677 0.01626664 0.9998678 0 -0.5209335 0.8535324 -0.0105291 0.0755341 0.2303866 0.9701632 0.1430416 -0.006714105 0.9896939 0.07654142 0.3254538 0.9424549 0.1943756 -0.02118021 0.9806985 0.117253 0.4196326 0.9000891 0.3005524 -0.01599198 0.9536313 0.2436043 0.3677564 0.8974476 0.244732 0.007873892 0.9695588 0.7373989 0.2873359 0.6112946 -0.03607338 0.8640226 0.5021592 -0.008331716 0.6903161 0.72346 0.01052892 0.523549 0.8519306 0.01669418 0.9798909 0.1988348 -0.7080827 4.27273e-4 0.7061294 -0.6906909 0.5022929 0.5202385 -0.14866 0.6456688 0.7490075 -0.7093756 -0.001831114 0.7048283 0.03866773 0.143379 0.9889122 -0.9088146 -0.387966 0.1534223 -0.9153528 0.1952292 0.3521574 -0.9191693 0.370683 0.1331236 -0.002075314 -3.05194e-4 0.9999979 -4.27272e-4 -3.05194e-4 0.9999999 -0.7085855 2.4415e-4 0.7056251 0.02862668 0.003143429 0.9995853 -2.44148e-4 3.05185e-5 1 -0.001556456 0.004303157 0.9999896 0.001190245 -3.05194e-4 0.9999993 -4.43047e-4 -3.23179e-4 0.9999999 -0.9723069 -0.2329825 0.01840299 -0.9214061 0.3886014 0 -0.1474385 0.503995 0.8510293 -0.3209401 0.448541 0.8341514 -0.3930571 -9.15577e-4 0.9195137 -0.466583 0.3108417 0.8280566 -0.7074119 1.83117e-4 0.7068015 -0.747361 0.3611675 0.5576825 0.006592035 0 0.9999783 -9.1557e-4 0.2849557 0.9585403 -0.2312447 0.8637877 0.4476571 -0.4789384 0.7571823 0.444177 -0.2327698 0.9261658 0.2967075 -0.4729307 0.8235696 0.3131609 -0.2458351 0.9554762 0.1631881 -0.4713692 0.8646093 0.1739595 -0.2451558 0.9694838 0 0.07187181 0.9824923 0.171882 0.09519004 0.9285533 0.3587863 9.46094e-4 0.936877 0.349658 0.05285835 0.9986021 0 0.08786308 0.8478686 0.5228757 -0.4728345 0.8811513 0 -0.6511514 0.7383744 0.1755142 -0.6507084 0.7593277 0 -0.6534547 0.678267 0.3360816 0.9418341 0.3354101 -0.02118057 -0.2499209 0.5036872 0.8269455 0.7878602 -0.6147843 0.0362876 0.01782298 0.01980668 0.999645 0.02450662 0.506461 0.8619146 0.05429291 0.8974355 0.437792 0.2382643 0.8811537 0.4084095 0.07199329 0.9692088 0.2354813 -0.1879348 0.9717186 0.1429806 0.08948177 0.9959886 0 0.3479517 0.9187865 0.186443 0.3073577 0.8290509 0.4671251 0.3771243 0.9261627 0 0.6616297 0.7498307 0 0.6521594 0.7254353 0.2200721 0.2653951 0.3958342 0.8791364 0.4607471 0.4839721 0.7439645 0.8298185 0.5160501 0.2123529 0.07446616 0.04242128 0.9963209 0.09827154 0.2915492 0.9514945 0.8546009 0.5192855 0 0.9792453 0.2026793 0 0.6766487 0.4886178 0.5508167 0.8426141 0.2793149 0.4604179 0.4655407 0.2544085 0.8476722 0.9606586 0.2190376 0.1707559 0.9999994 0.001098692 0 0.8766156 -0.009643852 0.4810948 0.3622062 0 0.932098 -0.6644932 -0.1672449 0.7283393 0.03250259 -0.2051479 0.9781912 -0.6934258 -0.3809707 0.6115735 0.002014219 -0.5194947 0.8544714 -0.6873968 -0.5118776 0.5152348 0.001098692 -0.6886985 0.725047 0.002777218 -0.8648563 0.5020121 0.05517816 -0.9563403 0.2869997 -0.002594113 -0.9315375 0.3636362 0.6503539 -0.7571999 0.06073224 0.007843255 -0.9960964 0.08792406 3.96753e-4 -1 0 0.02465951 -0.8509379 0.5246871 0.02523905 -0.9547212 0.2964296 0.01596146 -0.8386344 0.5444608 -0.1555876 -0.9876368 -0.01913559 5.79869e-4 -0.9999999 0 -0.7009305 -0.7132297 -2.13633e-4 0.688661 -0.7156398 0.1166436 0.1128593 -0.225444 0.9676972 0.09924912 -0.3766707 0.9210152 0.07892185 -0.4760643 0.875862 0.1020544 -0.4157861 0.9037183 0.6363856 -0.3398309 0.6924799 0.0162363 -0.8589084 0.5118719 0.0903685 -0.6864774 0.7215139 0.06039696 -0.5262991 0.8481518 -0.006348013 -0.9796707 0.200512 0.03717178 -0.9477894 0.3167232 -0.6874145 -0.7262654 -1.83115e-4 0.01117008 -0.9999377 0 0.01974612 -0.9592916 0.2817263 0.02569758 -0.847624 0.5299748 0.01950162 -0.8337795 0.5517532 0.01101714 -0.9999393 0 -0.009064137 -0.999959 0 0.06613534 -0.9435352 0.3246034 -0.008942008 -0.8673188 0.4976729 -1.22074e-4 -1 0 0.005066156 -0.9999873 0 0.1370591 -0.8443893 0.5179011 0.02325534 -0.952981 0.3021364 0.05481237 -0.680211 0.7309643 0.02493405 -0.9643117 0.2635934 -0.9999998 6.06609e-4 -4.42348e-4 -0.7083417 -1.52594e-4 0.7058697 -0.1510112 -0.6371285 0.7558194 -0.7093312 3.35713e-4 0.7048754 0.005157709 -0.1239692 0.9922727 -0.01773172 -0.0233168 0.9995709 -0.02752792 -0.1084333 0.9937226 -0.007751762 -0.2095728 0.9777624 -0.02023422 -0.6618092 0.7493994 0.004089534 -0.2443356 0.9696822 0.02652126 -0.7287713 0.6842436 0.07327634 -0.1171628 0.9904058 -0.9959831 -0.08954232 0 -0.07943987 -0.0507524 0.9955469 0.05826032 -0.5438449 0.8371611 -0.4334333 -0.2298399 0.8713835 0.2981163 -0.6980159 0.6510766 -0.06454795 0 0.9979147 -0.03628742 -0.292558 0.955559 -0.4312371 -0.554962 0.7113732 -0.6983652 -0.7110916 0.08145505 -0.06433361 -0.5164697 0.8538855 0.001831114 -0.8961343 0.4437792 -0.7676659 -0.5640375 0.3042219 -0.4921547 -0.4440563 0.7487307 -0.2553886 -0.637922 0.7265206 -0.02456825 -0.94913 0.3139249 0.04257422 -0.8558499 0.5154693 -0.2785513 -0.2877988 0.9162866 -0.603252 -0.5199333 0.604778 -0.9887996 -0.0961973 0.1141122 -6.10384e-4 -0.9938273 0.1109372 -3.66223e-4 -0.9368911 0.3496213 -1.83117e-4 -1.22078e-4 1 -0.02218759 -0.01355057 0.9996621 -0.05517858 -0.2151294 0.9750255 0.463524 -0.5997917 0.6522235 0.06985884 -0.9975569 0 -0.2365227 -0.1446298 0.9608014 0.04016304 -0.9991932 0 0.06460928 -0.9955996 -0.06787484 0.01498478 -0.9991897 -0.03735512 0.01239073 -0.9329392 0.3598205 4.57794e-4 -0.8241211 0.5664135 -0.1609566 -0.03235 0.9864313 -0.3936654 -0.132941 0.9095902 -0.1723741 -0.9849254 -0.01446622 -0.5721457 -0.4323977 0.6969086 0.0303058 -0.5049749 0.8626018 -0.06076371 -0.8938159 0.4442985 -0.05218726 -0.97108 0.232981 0.04562628 -0.8943365 0.4450624 0.02584922 -0.9996659 0 0.1019631 -0.9947882 0 0.3749293 -0.9270535 0 0.3508754 -0.9185263 0.1821976 0.06790465 -0.97212 0.2244363 0.2733318 -0.7438495 0.6098998 0.09677588 -0.4037365 0.9097424 0.6635414 -0.7481397 0 0.6519802 -0.7385325 0.1717311 0.5786456 -0.6619938 0.4763755 0.8556943 -0.5174818 0 0.8434447 -0.510016 0.1687744 0.7525519 -0.4617918 0.4694827 0.3079705 -0.3599755 0.8806657 0.9798666 -0.1996539 0 0.9658237 -0.1929755 0.1730462 0.8612983 -0.2303245 0.4528973 0.4082839 -0.2574282 0.8758053 0.9925367 -0.01651072 0.1208244 0.4654806 -0.142983 0.8734322 -0.7101823 8.85057e-4 -0.7040174 -0.6646489 0.1672762 -0.7281901 0.03146499 0.2053009 -0.9781931 -0.6949539 0.3812159 -0.6096831 0.003174006 0.5207226 -0.8537201 -0.6906909 0.5022929 -0.5202385 -0.002014219 0.7070901 -0.7071206 -0.002899289 0.8644852 -0.5026502 -0.00125128 0.8650716 -0.5016469 0.05008119 0.9641472 -0.2605993 9.15575e-4 0.936877 -0.349658 -0.00427258 0.9729021 -0.2311783 0.2554778 0.9559587 -0.1444787 0.6945605 0.7194339 8.85063e-4 -0.5896291 0.8076577 0.005157709 0.0755341 0.2303866 -0.9701632 0.05182194 2.44155e-4 -0.9986563 0.07654142 0.3254538 -0.9424549 0.1430416 -0.006714105 -0.9896939 0.117253 0.4196326 -0.9000891 0.1943756 -0.02118021 -0.9806985 0.2436043 0.3677564 -0.8974476 0.3005524 -0.01599198 -0.9536313 0.7373989 0.2873359 -0.6112946 0.244732 0.007873892 -0.9695588 -0.03607338 0.8640226 -0.5021592 -0.008331716 0.6903161 -0.72346 0.01052892 0.523549 -0.8519306 0.02493381 0.9822773 -0.1857677 0.01669365 0.9798611 -0.1989814 -0.9999998 6.05731e-4 4.42715e-4 -0.7093908 -0.001831114 -0.704813 -0.14866 0.6456688 -0.7490075 -0.7080827 4.27273e-4 -0.7061294 0.03866773 0.143379 -0.9889122 -0.908822 -0.3879866 -0.1533269 -0.9723069 -0.2329825 -0.01840299 -0.9191693 0.370683 -0.1331236 -4.4284e-4 -3.22713e-4 -1 -0.7085855 2.4415e-4 -0.7056251 -0.002075314 -3.05194e-4 -0.9999979 0.02862668 0.003143429 -0.9995853 0.006592035 0 -0.9999783 -0.001556456 0.004303157 -0.9999896 0.001190245 -3.05194e-4 -0.9999993 -2.44156e-4 3.05194e-5 -1 -4.41757e-4 -3.22512e-4 -0.9999999 -0.466583 0.3108417 -0.8280566 -0.3209401 0.448541 -0.8341514 -0.3930571 -9.15577e-4 -0.9195137 -0.7074577 1.83113e-4 -0.7067558 -0.747361 0.3611675 -0.5576825 -9.1557e-4 0.2849557 -0.9585403 -0.4789384 0.7571823 -0.444177 -0.2312447 0.8637877 -0.4476571 -0.4729307 0.8235696 -0.3131609 -0.2327698 0.9261658 -0.2967075 -0.4713692 0.8646093 -0.1739595 -0.2458351 0.9554762 -0.1631881 0.07187181 0.9824923 -0.171882 0.09519004 0.9285533 -0.3587863 0.08786308 0.8478686 -0.5228757 -0.6511514 0.7383744 -0.1755142 -0.6534547 0.678267 -0.3360816 -0.9153528 0.1952292 -0.3521574 -0.2499209 0.5036872 -0.8269455 0.9292184 0.368611 0.02606338 0.02450662 0.506461 -0.8619146 0.01782298 0.01980668 -0.999645 0.2382643 0.8811537 -0.4084095 0.05429291 0.8974355 -0.437792 -0.1879348 0.9717186 -0.1429806 0.07199329 0.9692088 -0.2354813 -0.4504944 0.8927792 0 0.3479517 0.9187865 -0.186443 0.3073577 0.8290509 -0.4671251 0.6521594 0.7254353 -0.2200721 0.4607471 0.4839721 -0.7439645 0.2653951 0.3958342 -0.8791364 0.8298054 0.5160724 -0.2123496 0.6766487 0.4886178 -0.5508167 0.09827154 0.2915492 -0.9514945 0.9606586 0.2190376 -0.1707559 0.8426141 0.2793149 -0.4604179 0.4655407 0.2544085 -0.8476722 0.9925367 -0.01651072 -0.1208244 0.8766156 -0.009643852 -0.4810948 0.3622062 0 -0.932098 0.07446616 0.04242128 -0.9963209 0.03250259 -0.2051479 -0.9781912 -0.6644932 -0.1672449 -0.7283393 0.002014219 -0.5194947 -0.8544714 -0.6934258 -0.3809707 -0.6115735 -0.6873968 -0.5118776 -0.5152348 0.001098692 -0.6886985 -0.725047 0.002777218 -0.8648563 -0.5020121 0.05346888 -0.9612804 -0.2703353 0.8430145 -0.529608 0.09403109 -0.002594113 -0.9315375 -0.3636362 0.007843255 -0.9960964 -0.08792406 0.02465951 -0.8509379 -0.5246871 0.01596146 -0.8386344 -0.5444608 0.02523905 -0.9547212 -0.2964296 -0.1159707 -0.9931976 -0.01046788 -0.006348013 -0.9796707 -0.200512 0.6969339 -0.7081649 -0.1130732 0.1128593 -0.225444 -0.9676972 0.09924912 -0.3766707 -0.9210152 0.07892185 -0.4760643 -0.875862 0.1020544 -0.4157861 -0.9037183 0.636329 -0.3398027 -0.6925457 0.0162363 -0.8589084 -0.5118719 0.0903685 -0.6864774 -0.7215139 0.06039696 -0.5262991 -0.8481518 0.03717249 -0.9478688 -0.3164853 0.01974612 -0.9592916 -0.2817263 0.02493405 -0.9643117 -0.2635934 0.01950162 -0.8337795 -0.5517532 0.02325534 -0.952981 -0.3021364 0.06613534 -0.9435352 -0.3246034 -0.008942008 -0.8673188 -0.4976729 0.1370627 -0.8443806 -0.5179144 0.05481237 -0.680211 -0.7309643 0.02569758 -0.847624 -0.5299748 -0.7093312 3.35713e-4 -0.7048754 -0.1510112 -0.6371285 -0.7558194 -0.7083417 -1.22075e-4 -0.7058697 0.005157709 -0.1239692 -0.9922727 -0.08438545 -0.005066156 0.9964203 -0.01919645 -0.02118021 0.9995915 -4.27272e-4 -3.05194e-4 -0.9999999 -0.02752792 -0.1084333 -0.9937226 0.05826032 -0.5438449 -0.8371611 -0.02023422 -0.6618092 -0.7493994 -0.007751762 -0.2095728 -0.9777624 0.02655178 -0.7287707 -0.684243 0.004089534 -0.2443356 -0.9696822 0.07327634 -0.1171628 -0.9904058 -0.07724481 -0.04935002 0.9957901 -0.03628742 -0.292558 -0.955559 -0.4312371 -0.554962 -0.7113732 0.2981163 -0.6980159 -0.6510766 -0.4334333 -0.2298399 -0.8713835 -0.6325717 -0.2136344 0.7444551 -0.07950216 -0.810739 0.5799843 0.001831114 -0.8961647 -0.4437181 -0.7676659 -0.5640375 -0.3042219 -0.6983669 -0.7110933 -0.08142477 -0.2654862 -0.6524083 0.7098454 0.04257422 -0.8558499 -0.5154693 -0.02456825 -0.94913 -0.3139249 -0.514685 -0.4643885 0.7207238 -0.3917999 -0.3376901 0.8558377 -5.79865e-4 -0.9938273 -0.1109372 -3.66223e-4 -0.9368911 -0.3496213 -0.723105 -0.4015181 0.5620521 -0.988667 -0.09610468 -0.1153317 -0.1308653 -0.4424641 0.8871865 0.5218561 -0.6752786 0.5212152 0.01498478 -0.9991897 0.03735512 -0.003448665 -0.002533078 0.9999909 -0.1787505 -0.1093195 0.9778025 0.06460928 -0.9955996 0.06787484 0.01239073 -0.9329392 -0.3598205 4.57794e-4 -0.8241211 -0.5664135 -0.01971518 -0.003936886 0.9997979 -0.1722498 -0.9844548 0.03433394 0.7646859 -0.6434031 -0.0358904 -0.5721457 -0.4323977 -0.6969086 0.0303058 -0.5049749 -0.8626018 -0.06076371 -0.8938159 -0.4442985 0.04562628 -0.8943365 -0.4450624 -0.05218726 -0.97108 -0.232981 0.06790465 -0.97212 -0.2244363 0.3508754 -0.9185263 -0.1821976 0.2733318 -0.7438495 -0.6098998 0.09677588 -0.4037365 -0.9097424 0.6519802 -0.7385325 -0.1717311 0.5786456 -0.6619938 -0.4763755 0.8434447 -0.510016 -0.1687744 0.3079705 -0.3599755 -0.8806657 0.7525519 -0.4617918 -0.4694827 0.9658237 -0.1929755 -0.1730462 0.4082839 -0.2574282 -0.8758053 0.8612983 -0.2303245 -0.4528973 0.4654806 -0.142983 -0.8734322 0.2317924 0.9727653 0 -0.9999998 6.05657e-4 -4.42348e-4 -4.43236e-4 -3.23179e-4 1 -4.41757e-4 -3.23055e-4 0.9999999 0 0 1 -4.4312e-4 -3.22713e-4 -0.9999999 -0.1474385 0.503995 -0.8510293 -0.9999998 6.06707e-4 4.42715e-4 0.1729817 0.4478055 0.8772386 0.1634019 0.5138278 0.8421881 0.01895248 0.5240782 0.8514593 0.04229891 0.8945344 0.4449935 0.2483009 0.8661232 0.4337941 0.04303181 0.9510343 0.3060754 0.2647818 0.8373161 0.4783225 0.2483059 0.9168944 0.3124881 0.03625643 0.9854244 0.1662058 0.2542266 0.9141173 0.3158453 0.2721413 0.9487257 0.1608066 0.03521907 0.9993796 0 0.2444264 0.9592721 0.1416079 0.2832798 0.9590373 0 0.2419539 0.9702878 0 -0.7163087 0.6977837 0 -0.7156226 0.6868122 0.127175 -0.03024476 0.9995426 0 -0.02945107 0.9833924 0.1790871 0.05340766 0.9823052 0.179511 0.05395716 0.9985433 0 0.7169246 0.6850016 0.1295841 0.7279788 0.5481281 0.4118285 0.05343854 0.9426059 0.3296038 -0.7181133 0.5468403 0.4304407 0.02826052 0.5648445 0.8247133 -0.02780294 0.9440494 0.3286304 -0.01455789 0.567819 0.8230247 -0.2834622 0.4643495 0.8390642 -0.350903 0.004181027 0.9364025 0.3100112 0.462209 0.8308165 0.3768158 0.008850455 0.9262461 7.62981e-4 0.01397776 0.999902 -0.9075947 0.006409108 0.4197984 0.9209803 2.13635e-4 0.3896091 0.7171064 0.6969637 0 0.9999832 0.002227842 0.005371272 -0.9999983 0.001770079 5.79868e-4 0.1634019 0.5138278 -0.8421881 0.01895248 0.5240782 -0.8514593 0.1729817 0.4478055 -0.8772386 0.04229891 0.8945344 -0.4449935 0.2483009 0.8661232 -0.4337941 0.04303181 0.9510343 -0.3060754 0.2483059 0.9168944 -0.3124881 0.2647818 0.8373161 -0.4783225 0.03625643 0.9854244 -0.1662058 0.2721413 0.9487257 -0.1608066 0.2542266 0.9141173 -0.3158453 0.2444264 0.9592721 -0.1416079 -0.7156226 0.6868122 -0.127175 0.05340766 0.9823052 -0.179511 0.7169246 0.6850016 -0.1295841 0.7279788 0.5481281 -0.4118285 0.05343854 0.9426059 -0.3296038 -0.02945107 0.9833924 -0.1790871 -0.02780294 0.9440494 -0.3286304 -0.7181133 0.5468403 -0.4304407 0.3100112 0.462209 -0.8308165 0.02826052 0.5648445 -0.8247133 -0.01455789 0.567819 -0.8230247 -0.2834622 0.4643495 -0.8390642 -0.3509029 0.004211544 -0.9364024 0.9209803 2.13635e-4 -0.3896091 0.3768158 0.008850455 -0.9262461 7.62981e-4 0.01397776 -0.999902 -0.006195306 0.01092576 -0.9999212 -0.9075947 0.006409108 -0.4197984 0.9999832 0.002227842 -0.005371272 0.9999999 5.79869e-4 0 -0.9999983 0.001770079 -5.79868e-4 -0.006195306 0.01092576 0.9999212 -1 3.35714e-4 0 0.04583996 0.7689949 0.6376093 0.1120965 0.8042996 0.5835552 0.02517855 0.9568167 0.2895995 0.7640547 0.6451509 8.54545e-4 -0.02182108 0.9576268 0.2871842 0.02240085 0.9487409 0.3152602 -0.08322644 0.7680518 0.6349566 -0.08331573 0.9965233 0 0.03372317 0.9617369 0.2718914 -0.5046602 0.8633181 0 0.1157291 0.9932809 0 5.79869e-4 0.9999999 0 0.001739561 0.9999986 0 0.3416044 0.7942081 0.5025335 0.2947568 0.9227555 0.2482756 0.003692805 0.6323905 0.774641 0.00250256 0.7561196 0.6544288 0.04583996 0.7689949 -0.6376093 0.02517855 0.9568167 -0.2895995 0.1120965 0.8042996 -0.5835552 -0.02182108 0.9576268 -0.2871842 0.02240085 0.9487409 -0.3152602 0.00250256 0.7561196 -0.6544288 -0.08322644 0.7680518 -0.6349566 0.03372317 0.9617369 -0.2718914 0.3416044 0.7942081 -0.5025335 0.2947568 0.9227555 -0.2482756 0.003692805 0.6323905 -0.774641</float_array>
          <technique_common>
            <accessor source="#Cylinder_004-mesh-normals-array" count="512" stride="3">
              <param name="X" type="float"/>
              <param name="Y" type="float"/>
              <param name="Z" type="float"/>
            </accessor>
          </technique_common>
        </source>
        <vertices id="Cylinder_004-mesh-vertices">
          <input semantic="POSITION" source="#Cylinder_004-mesh-positions"/>
        </vertices>
        <polylist material="Metall_Alu_002-material" count="746">
          <input semantic="VERTEX" source="#Cylinder_004-mesh-vertices" offset="0"/>
          <input semantic="NORMAL" source="#Cylinder_004-mesh-normals" offset="1"/>
          <vcount>3 3 3 3 3 3 3 3 3 3 3 3 3 3 3 3 3 3 3 3 3 3 3 3 3 3 3 3 3 3 3 3 3 3 3 3 3 3 3 3 3 3 3 3 3 3 3 3 3 3 3 3 3 3 3 3 3 3 3 3 3 3 3 3 3 3 3 3 3 3 3 3 3 3 3 3 3 3 3 3 3 3 3 3 3 3 3 3 3 3 3 3 3 3 3 3 3 3 3 3 3 3 3 3 3 3 3 3 3 3 3 3 3 3 3 3 3 3 3 3 3 3 3 3 3 3 3 3 3 3 3 3 3 3 3 3 3 3 3 3 3 3 3 3 3 3 3 3 3 3 3 3 3 3 3 3 3 3 3 3 3 3 3 3 3 3 3 3 3 3 3 3 3 3 3 3 3 3 3 3 3 3 3 3 3 3 3 3 3 3 3 3 3 3 3 3 3 3 3 3 3 3 3 3 3 3 3 3 3 3 3 3 3 3 3 3 3 3 3 3 3 3 3 3 3 3 3 3 3 3 3 3 3 3 3 3 3 3 3 3 3 3 3 3 3 3 3 3 3 3 3 3 3 3 3 3 3 3 3 3 3 3 3 3 3 3 3 3 3 3 3 3 3 3 3 3 3 3 3 3 3 3 3 3 3 3 3 3 3 3 3 3 3 3 3 3 3 3 3 3 3 3 3 3 3 3 3 3 3 3 3 3 3 3 3 3 3 3 3 3 3 3 3 3 3 3 3 3 3 3 3 3 3 3 3 3 3 3 3 3 3 3 3 3 3 3 3 3 3 3 3 3 3 3 3 3 3 3 3 3 3 3 3 3 3 3 3 3 3 3 3 3 3 3 3 3 3 3 3 3 3 3 3 3 3 3 3 3 3 3 3 3 3 3 3 3 3 3 3 3 3 3 3 3 3 3 3 3 3 3 3 3 3 3 3 3 3 3 3 3 3 3 3 3 3 3 3 3 3 3 3 3 3 3 3 3 3 3 3 3 3 3 3 3 3 3 3 3 3 3 3 3 3 3 3 3 3 3 3 3 3 3 3 3 3 3 3 3 3 3 3 3 3 3 3 3 3 3 3 3 3 3 3 3 3 3 3 3 3 3 3 3 3 3 3 3 3 3 3 3 3 3 3 3 3 3 3 3 3 3 3 3 3 3 3 3 3 3 3 3 3 3 3 3 3 3 3 3 3 3 3 3 3 3 3 3 3 3 3 3 3 3 3 3 3 3 3 3 3 3 3 3 3 3 3 3 3 3 3 3 3 3 3 3 3 3 3 3 3 3 3 3 3 3 3 3 3 3 3 3 3 3 3 3 3 3 3 3 3 3 3 3 3 3 3 3 3 3 3 3 3 3 3 3 3 3 3 3 3 3 3 3 3 3 3 3 3 3 3 3 3 3 3 3 3 3 3 3 3 3 3 3 3 3 3 3 3 3 3 3 3 3 3 3 3 3 3 3 3 3 3 3 3 3 3 3 3 3 3 3 3 3 3 3 3 3 3 3 3 3 3 3 3 3 3 3 3 3 3 3 3 3 3 3 3 3 3 3 3 3 3 3 3 3 3 3 3 3 3 3 3 3 3 3 3 3 3 3 3 3 3 3 3 3 3 3 3 3 3 3 3 3 3 3 3 3 3 3 3 3 3 3 3 3 3 3 3 3 3 3 3 3 3 3 3 3 </vcount>
          <p>110 0 111 1 1 2 0 3 1 2 3 4 2 5 3 4 5 6 5 6 7 7 6 8 13 9 9 10 8 11 8 11 9 10 238 12 13 9 246 13 9 10 13 9 11 14 245 15 245 15 11 14 12 16 1 2 111 1 14 17 14 17 126 18 15 19 15 19 128 20 16 21 16 21 130 22 17 23 17 23 132 24 18 25 7 7 5 6 21 26 5 6 3 4 20 27 3 4 1 2 19 28 11 14 24 29 12 16 11 14 7 7 21 26 6 8 7 7 11 14 110 0 0 3 34 30 4 31 37 32 35 33 34 30 35 33 38 34 173 35 49 36 51 37 159 38 38 34 41 39 151 40 34 30 38 34 169 41 45 42 47 43 166 44 43 39 45 42 163 45 41 45 43 45 179 46 51 37 290 47 47 43 48 48 39 49 0 3 2 5 34 30 154 50 36 51 176 52 176 52 50 53 173 35 2 5 4 31 35 33 172 54 47 43 154 50 35 33 37 32 40 55 39 49 48 48 56 56 52 57 56 56 61 58 57 59 61 58 66 60 62 61 66 60 311 62 69 63 68 64 10 65 315 66 69 63 8 11 68 64 67 67 10 65 6 8 67 67 37 32 62 61 307 68 70 69 51 37 70 69 316 70 39 49 52 57 50 53 62 61 70 69 71 71 52 57 71 71 50 53 70 69 51 37 49 36 50 53 71 71 49 36 57 59 71 71 52 57 18 25 134 72 72 73 72 73 205 74 207 75 72 73 73 76 75 77 74 78 75 77 77 79 76 80 77 79 326 81 326 81 77 79 80 82 77 79 75 77 80 82 75 77 73 76 79 83 330 84 80 82 334 85 80 82 79 83 83 86 79 83 78 87 82 88 334 85 83 86 86 89 83 86 82 88 86 89 82 88 81 90 84 91 338 92 86 89 342 93 86 89 85 94 88 95 85 94 84 91 87 96 342 93 89 97 507 98 89 97 88 95 226 99 88 95 87 96 226 99 225 100 87 96 207 75 87 96 84 91 207 75 84 91 81 90 207 75 81 90 78 87 207 75 78 87 73 76 207 75 110 0 112 101 113 102 112 101 114 103 115 104 114 103 116 105 115 104 117 106 116 105 119 107 125 108 122 109 121 110 120 111 381 112 121 110 140 113 146 114 139 115 125 108 121 110 389 116 125 108 389 116 388 117 388 117 386 118 124 119 113 102 127 120 111 1 127 120 129 121 126 18 129 121 131 122 128 20 131 122 133 123 130 22 133 123 135 124 132 24 119 107 138 125 117 106 117 106 137 126 115 104 115 104 136 127 113 102 123 128 124 119 141 129 407 130 413 131 141 129 386 118 407 130 141 129 145 132 149 133 150 134 123 128 141 129 138 125 410 135 409 136 143 137 119 107 118 138 123 128 413 131 412 139 145 132 412 139 411 140 145 132 411 140 410 135 146 114 131 122 140 113 133 123 135 124 133 123 139 115 142 141 139 115 147 142 129 121 127 120 148 143 149 133 145 132 146 114 129 121 148 143 140 113 148 143 149 133 140 113 144 144 150 134 141 129 138 125 150 134 137 126 137 126 150 134 136 127 148 143 150 134 149 133 110 145 151 145 152 145 116 105 153 146 156 147 152 148 157 149 153 146 173 35 179 46 178 150 159 38 163 39 157 149 161 151 164 152 165 153 151 40 159 38 157 149 164 152 167 154 168 155 169 41 172 54 167 154 166 44 169 41 167 154 163 39 166 44 161 151 167 154 170 156 168 155 179 46 447 157 177 158 157 149 161 151 162 159 170 156 155 160 158 161 112 101 152 148 114 103 154 50 176 52 155 160 176 52 173 35 174 162 114 103 152 148 153 146 172 54 154 50 170 156 153 146 157 149 160 163 171 164 184 165 183 166 168 155 183 166 182 167 165 153 182 167 162 159 158 161 180 168 171 164 184 165 189 169 183 166 183 166 188 170 182 167 182 167 187 171 181 172 180 168 185 173 189 169 189 169 194 174 188 170 188 170 193 175 192 176 187 171 192 176 186 177 185 173 190 178 189 169 194 174 198 179 197 180 193 175 197 180 196 181 192 176 196 181 467 182 190 178 195 183 194 174 467 182 474 184 201 185 191 186 201 185 200 187 186 177 200 187 199 188 201 185 120 111 122 109 474 184 381 112 120 111 200 187 122 109 199 188 181 172 199 188 157 149 118 138 156 147 199 188 190 178 203 189 195 183 178 150 177 158 203 189 158 161 155 160 175 190 190 178 185 173 203 189 180 168 175 190 204 191 203 189 204 191 178 150 175 190 174 162 204 191 185 173 180 168 204 191 135 124 206 192 205 74 206 192 208 193 207 75 206 192 209 194 208 193 209 194 211 195 210 196 211 195 486 197 487 198 143 137 409 136 486 197 135 124 142 141 209 194 142 141 143 137 209 194 487 198 491 199 215 200 212 201 215 200 214 202 210 196 214 202 213 203 491 199 495 204 215 200 215 200 218 205 214 202 214 202 217 206 213 203 495 204 499 207 218 205 218 205 221 208 217 206 217 206 220 209 216 210 499 207 503 211 221 208 221 208 224 212 220 209 220 209 223 213 219 214 503 211 507 98 224 212 224 212 227 215 223 213 223 213 226 99 222 216 225 100 207 75 222 216 222 216 207 75 219 214 219 214 207 75 216 210 216 210 207 75 213 203 213 203 207 75 208 193 369 217 228 218 229 219 228 218 230 220 231 221 230 220 232 222 233 223 233 223 234 224 235 225 244 226 240 227 236 228 236 228 238 12 237 229 244 226 237 229 246 13 244 226 246 13 245 15 245 15 243 230 242 231 229 219 247 232 370 233 247 232 248 234 390 235 248 234 249 236 392 237 249 236 250 238 394 239 250 238 251 240 396 241 235 225 254 242 233 223 233 223 253 243 231 221 231 221 252 244 229 219 241 245 242 231 257 246 241 245 257 246 254 242 235 225 234 224 241 245 369 247 421 247 273 247 232 222 274 248 276 249 273 250 277 251 274 248 443 252 450 253 291 254 429 255 433 255 280 255 421 256 429 257 277 251 439 258 442 259 286 260 436 261 439 258 284 262 433 263 436 263 282 263 450 253 447 157 290 47 286 260 275 264 278 265 228 218 273 250 230 220 424 266 446 267 275 264 446 267 443 252 289 268 230 220 273 250 274 248 442 259 424 266 286 260 274 248 277 251 279 269 278 265 292 270 296 271 292 270 297 272 301 273 297 272 302 274 306 275 302 274 307 68 311 62 314 276 236 228 240 227 315 66 238 12 236 228 313 277 240 227 312 278 234 224 276 249 312 278 302 274 317 279 307 68 291 254 290 47 316 70 278 265 275 264 289 268 302 274 297 272 318 280 292 270 289 268 318 280 317 279 318 280 288 281 289 268 288 281 318 280 297 272 292 270 318 280 251 240 319 282 398 283 319 282 320 284 480 285 319 282 321 286 322 287 321 286 323 288 324 289 323 288 325 290 326 81 326 81 330 84 329 291 324 289 329 291 322 287 322 287 328 292 320 284 330 84 334 85 329 291 329 291 333 293 328 292 328 292 332 294 327 295 334 85 338 92 337 296 333 293 337 296 332 294 332 294 336 297 335 298 338 92 342 93 337 296 337 296 341 299 340 300 336 297 340 300 339 301 342 93 507 98 341 299 341 299 506 302 505 303 340 300 505 303 339 301 504 304 480 285 339 301 339 301 480 285 335 298 335 298 480 285 331 305 331 305 480 285 327 295 327 295 480 285 320 284 369 217 370 233 372 306 371 307 372 306 374 308 373 309 374 308 375 310 375 310 376 311 378 312 387 313 380 314 383 315 379 316 380 314 381 112 404 317 403 318 416 319 387 313 389 116 382 320 387 313 384 321 388 117 388 117 384 321 385 322 372 306 370 233 391 323 391 323 390 235 393 324 393 324 392 237 395 325 395 325 394 239 397 326 397 326 396 241 399 327 378 312 376 311 402 328 376 311 374 308 401 329 374 308 372 306 400 330 384 321 405 331 385 322 407 130 405 331 413 131 386 118 385 322 407 130 415 332 414 333 420 334 384 321 378 312 402 328 410 135 417 335 408 336 377 337 378 312 384 321 413 131 414 333 415 332 412 139 415 332 411 140 411 140 416 319 410 135 395 325 397 326 404 317 399 327 406 338 403 318 406 338 408 336 417 335 393 324 418 339 391 323 419 340 404 317 416 319 393 324 395 325 404 317 418 339 404 317 419 340 414 333 405 331 420 334 402 328 401 329 420 334 401 329 400 330 420 334 418 339 419 340 420 334 369 217 371 307 422 341 375 310 426 342 423 343 422 341 423 343 427 344 443 252 444 345 449 346 429 257 427 344 433 347 431 348 432 349 435 350 421 256 422 341 427 344 434 351 435 350 438 352 439 258 437 353 442 259 436 261 434 351 437 353 433 347 431 348 436 261 437 353 438 352 440 354 450 253 449 346 448 355 427 344 430 356 432 349 440 354 441 357 428 358 371 307 373 309 422 341 424 266 425 359 446 267 446 267 445 360 444 345 373 309 375 310 423 343 442 259 440 354 424 266 423 343 426 342 430 356 441 357 438 352 454 361 438 352 435 350 453 362 435 350 432 349 453 362 428 358 441 357 451 363 455 364 454 361 459 365 454 361 453 362 459 365 453 362 452 366 458 367 451 363 455 364 460 368 460 368 459 365 465 369 459 365 458 367 463 370 458 367 457 371 463 370 456 372 460 368 465 369 465 369 464 373 470 374 464 373 463 370 468 375 463 370 462 376 467 182 461 377 465 369 466 378 467 182 462 376 473 379 462 376 457 371 472 380 457 371 452 366 471 381 473 379 472 380 383 315 474 184 473 379 379 316 472 380 471 381 383 315 452 366 432 349 427 344 377 337 471 381 426 342 461 377 466 378 476 382 449 346 476 382 448 355 428 358 451 363 445 360 461 377 476 382 456 372 451 363 477 383 445 360 476 382 449 346 444 345 445 360 477 383 444 345 456 372 477 383 451 363 399 327 398 283 478 384 479 385 478 384 480 285 479 385 481 386 482 387 482 387 483 388 484 389 484 389 485 390 487 198 408 336 484 389 486 197 399 327 479 385 482 387 406 338 482 387 408 336 487 198 485 390 490 391 485 390 483 388 489 392 483 388 481 386 488 393 491 199 490 391 495 204 490 391 489 392 494 394 489 392 488 393 493 395 495 204 494 394 499 207 494 394 493 395 498 396 493 395 492 397 497 398 499 207 498 396 503 211 498 396 497 398 502 399 497 398 496 400 501 401 503 211 502 399 507 98 502 399 501 401 506 302 501 401 500 402 505 303 504 304 500 402 480 285 500 402 496 400 480 285 496 400 492 397 480 285 492 397 488 393 480 285 488 393 481 386 480 285 0 3 110 0 1 2 2 5 0 3 3 4 4 31 2 5 5 6 4 31 5 6 37 32 5 6 6 8 37 32 10 65 13 9 8 11 9 10 239 403 238 12 246 13 239 403 9 10 246 13 13 9 245 15 243 230 245 15 12 16 111 1 126 18 14 17 126 18 128 20 15 19 128 20 130 22 16 21 130 22 132 24 17 23 132 24 134 72 18 25 5 6 20 27 21 26 3 4 19 28 20 27 1 2 14 17 19 28 24 29 11 14 21 26 10 65 6 8 13 9 6 8 11 14 13 9 151 404 110 404 34 404 179 46 173 35 51 37 163 405 159 405 41 405 159 38 151 40 38 34 172 54 169 41 47 43 169 41 166 44 45 42 166 406 163 406 43 406 447 157 179 46 290 47 36 51 47 43 39 49 36 51 50 53 176 52 50 53 49 36 173 35 34 30 2 5 35 33 47 43 36 51 154 50 38 34 35 33 40 55 52 57 39 49 56 56 57 59 52 57 61 58 62 61 57 59 66 60 307 68 62 61 311 62 8 11 69 63 10 65 238 12 315 66 8 11 67 67 6 8 10 65 67 67 40 55 37 32 307 68 316 70 70 69 290 47 51 37 316 70 36 51 39 49 50 53 57 59 62 61 71 71 71 71 70 69 49 36 134 72 205 74 72 73 73 76 72 73 207 75 74 78 72 73 75 77 76 80 74 78 77 79 325 290 76 80 326 81 330 84 326 81 80 82 75 77 79 83 80 82 73 76 78 87 79 83 80 82 83 86 334 85 79 83 82 88 83 86 78 87 81 90 82 88 338 92 334 85 86 89 82 88 85 94 86 89 85 94 82 88 84 91 86 89 89 97 342 93 89 97 86 89 88 95 88 95 85 94 87 96 89 97 227 215 507 98 227 215 89 97 226 99 87 96 225 100 226 99 111 1 110 0 113 102 113 102 112 101 115 104 116 105 117 106 115 104 116 105 156 147 119 107 156 147 118 138 119 107 122 109 120 111 121 110 381 112 382 320 121 110 146 114 147 142 139 115 121 110 382 320 389 116 123 128 125 108 388 117 123 128 388 117 124 119 127 120 126 18 111 1 129 121 128 20 126 18 131 122 130 22 128 20 133 123 132 24 130 22 135 124 134 72 132 24 138 125 137 126 117 106 137 126 136 127 115 104 136 127 127 120 113 102 413 131 144 144 141 129 124 119 386 118 141 129 144 144 145 132 150 134 119 107 123 128 138 125 147 142 410 135 143 137 118 138 122 109 125 108 123 128 118 138 125 108 144 144 413 131 145 132 411 140 146 114 145 132 410 135 147 142 146 114 140 113 139 115 133 123 142 141 135 124 139 115 143 137 142 141 147 142 127 120 136 127 148 143 140 113 149 133 146 114 131 122 129 121 140 113 150 134 138 125 141 129 150 134 148 143 136 127 112 101 110 0 152 148 174 162 173 35 178 150 163 39 161 151 157 149 162 159 161 151 165 153 152 148 151 40 157 149 165 153 164 152 168 155 172 54 170 156 167 154 164 152 166 44 167 154 166 44 164 152 161 151 170 156 171 164 168 155 178 150 179 46 177 158 160 163 157 149 162 159 171 164 170 156 158 161 176 52 175 190 155 160 175 190 176 52 174 162 116 105 114 103 153 146 154 50 155 160 170 156 156 147 153 146 160 163 168 155 171 164 183 166 165 153 168 155 182 167 182 167 181 172 162 159 180 168 184 165 171 164 189 169 188 170 183 166 188 170 187 171 182 167 187 171 186 177 181 172 184 165 180 168 189 169 194 174 193 175 188 170 187 171 188 170 192 176 192 176 191 186 186 177 190 178 194 174 189 169 193 175 194 174 197 180 192 176 193 175 196 181 191 186 192 176 467 182 195 183 198 179 194 174 191 186 467 182 201 185 186 177 191 186 200 187 181 172 186 177 199 188 200 187 201 185 122 109 201 185 474 184 120 111 122 109 118 138 199 188 162 159 181 172 157 149 156 147 160 163 199 188 203 189 202 407 195 183 177 158 202 407 203 189 180 168 158 161 175 190 185 173 204 191 203 189 204 191 174 162 178 150 134 72 135 124 205 74 205 74 206 192 207 75 209 194 210 196 208 193 211 195 212 201 210 196 212 201 211 195 487 198 211 195 143 137 486 197 206 192 135 124 209 194 143 137 211 195 209 194 212 201 487 198 215 200 210 196 212 201 214 202 208 193 210 196 213 203 495 204 218 205 215 200 218 205 217 206 214 202 217 206 216 210 213 203 499 207 221 208 218 205 221 208 220 209 217 206 220 209 219 214 216 210 503 211 224 212 221 208 224 212 223 213 220 209 223 213 222 216 219 214 507 98 227 215 224 212 227 215 226 99 223 213 226 99 225 100 222 216 370 233 369 217 229 219 229 219 228 218 231 221 231 221 230 220 233 223 232 222 276 249 233 223 276 249 234 224 233 223 237 229 244 226 236 228 238 12 239 403 237 229 237 229 239 403 246 13 241 245 244 226 245 15 241 245 245 15 242 231 247 232 390 235 370 233 248 234 392 237 390 235 249 236 394 239 392 237 250 238 396 241 394 239 251 240 398 283 396 241 254 242 253 243 233 223 253 243 252 244 231 221 252 244 247 232 229 219 235 225 241 245 254 242 234 224 240 227 244 226 241 245 234 224 244 226 228 218 369 217 273 250 288 281 443 252 291 254 277 251 429 257 280 347 273 250 421 256 277 251 284 262 439 258 286 260 282 347 436 261 284 262 280 408 433 408 282 408 291 254 450 253 290 47 287 409 286 260 278 265 446 267 289 268 275 264 443 252 288 281 289 268 232 222 230 220 274 248 424 266 275 264 286 260 276 249 274 248 279 269 287 409 278 265 296 271 296 271 292 270 301 273 301 273 297 272 306 275 306 275 302 274 311 62 313 277 314 276 240 227 314 276 315 66 236 228 240 227 234 224 312 278 276 249 279 269 312 278 317 279 316 70 307 68 317 279 291 254 316 70 292 270 278 265 289 268 317 279 302 274 318 280 291 254 317 279 288 281 319 282 478 384 398 283 478 384 319 282 480 285 320 284 319 282 322 287 322 287 321 286 324 289 324 289 323 288 326 81 324 289 326 81 329 291 329 291 328 292 322 287 328 292 327 295 320 284 334 85 333 293 329 291 333 293 332 294 328 292 332 294 331 305 327 295 333 293 334 85 337 296 337 296 336 297 332 294 331 305 332 294 335 298 342 93 341 299 337 296 336 297 337 296 340 300 335 298 336 297 339 301 507 98 506 302 341 299 340 300 341 299 505 303 505 303 504 304 339 301 371 307 369 217 372 306 373 309 371 307 374 308 374 308 376 311 375 310 426 342 375 310 378 312 377 337 426 342 378 312 380 314 379 316 383 315 380 314 382 320 381 112 403 318 417 335 416 319 380 314 387 313 382 320 389 116 387 313 388 117 386 118 388 117 385 322 370 233 390 235 391 323 390 235 392 237 393 324 392 237 394 239 395 325 394 239 396 241 397 326 396 241 398 283 399 327 376 311 401 329 402 328 374 308 400 330 401 329 372 306 391 323 400 330 405 331 414 333 413 131 385 322 405 331 407 130 419 340 415 332 420 334 405 331 384 321 402 328 409 136 410 135 408 336 383 315 377 337 387 313 377 337 384 321 387 313 412 139 413 131 415 332 415 332 416 319 411 140 416 319 417 335 410 135 397 326 403 318 404 317 397 326 399 327 403 318 403 318 406 338 417 335 418 339 400 330 391 323 415 332 419 340 416 319 418 339 393 324 404 317 405 331 402 328 420 334 400 330 418 339 420 334 421 410 369 410 422 410 450 253 443 252 449 346 427 344 431 348 433 347 434 351 431 348 435 350 429 257 421 256 427 344 437 353 434 351 438 352 437 353 440 354 442 259 439 258 436 261 437 353 431 348 434 351 436 261 438 352 441 357 440 354 447 157 450 253 448 355 431 348 427 344 432 349 425 359 440 354 428 358 425 359 445 360 446 267 443 252 446 267 444 345 422 341 373 309 423 343 440 354 425 359 424 266 427 344 423 343 430 356 455 364 441 357 454 361 454 361 438 352 453 362 432 349 452 366 453 362 441 357 455 364 451 363 460 368 455 364 459 365 453 362 458 367 459 365 452 366 457 371 458 367 456 372 451 363 460 368 459 365 464 373 465 369 464 373 459 365 463 370 457 371 462 376 463 370 461 377 456 372 465 369 464 373 469 407 470 374 469 407 464 373 468 375 468 375 463 370 467 182 465 369 470 374 466 378 474 184 467 182 473 379 473 379 462 376 472 380 472 380 457 371 471 381 379 316 473 379 383 315 381 112 474 184 379 316 471 381 377 337 383 315 471 381 452 366 427 344 471 381 430 356 426 342 466 378 475 407 476 382 476 382 475 407 448 355 425 359 428 358 445 360 476 382 477 383 456 372 477 383 476 382 444 345 479 385 399 327 478 384 481 386 479 385 480 285 481 386 483 388 482 387 483 388 485 390 484 389 486 197 484 389 487 198 409 136 408 336 486 197 406 338 399 327 482 387 482 387 484 389 408 336 491 199 487 198 490 391 490 391 485 390 489 392 489 392 483 388 488 393 490 391 494 394 495 204 489 392 493 395 494 394 488 393 492 397 493 395 494 394 498 396 499 207 493 395 497 398 498 396 492 397 496 400 497 398 498 396 502 399 503 211 497 398 501 401 502 399 496 400 500 402 501 401 502 399 506 302 507 98 501 401 505 303 506 302 500 402 504 304 505 303</p>
        </polylist>
        <polylist material="Gummi_002-material" count="152">
          <input semantic="VERTEX" source="#Cylinder_004-mesh-vertices" offset="0"/>
          <input semantic="NORMAL" source="#Cylinder_004-mesh-normals" offset="1"/>
          <vcount>3 3 3 3 3 3 3 3 3 3 3 3 3 3 3 3 3 3 3 3 3 3 3 3 3 3 3 3 3 3 3 3 3 3 3 3 3 3 3 3 3 3 3 3 3 3 3 3 3 3 3 3 3 3 3 3 3 3 3 3 3 3 3 3 3 3 3 3 3 3 3 3 3 3 3 3 3 3 3 3 3 3 3 3 3 3 3 3 3 3 3 3 3 3 3 3 3 3 3 3 3 3 3 3 3 3 3 3 3 3 3 3 3 3 3 3 3 3 3 3 3 3 3 3 3 3 3 3 3 3 3 3 3 3 3 3 3 3 3 3 3 3 3 3 3 3 3 3 3 3 3 3 </vcount>
          <p>41 39 42 411 44 412 43 39 44 412 46 413 45 42 46 413 47 43 38 34 40 55 42 411 48 48 46 413 55 414 46 413 44 412 55 414 44 412 42 411 54 415 56 56 55 414 60 416 55 414 54 415 60 416 54 415 53 417 59 418 61 58 60 416 66 60 60 416 59 418 65 419 59 418 58 420 64 421 66 60 65 419 310 422 65 419 64 421 310 422 64 421 63 423 309 424 308 425 63 423 315 66 63 423 58 420 69 63 58 420 53 417 67 67 53 417 42 411 38 34 344 426 90 427 346 428 346 428 91 429 92 430 348 431 92 430 93 432 93 432 92 430 97 433 92 430 91 429 96 434 91 429 90 427 94 435 97 433 96 434 100 436 96 434 95 437 99 438 95 437 94 435 99 438 98 439 94 435 106 440 97 433 101 441 109 442 101 441 100 436 109 442 100 436 99 438 108 443 99 438 98 439 106 440 94 435 90 427 104 444 93 432 97 433 105 445 350 446 93 432 103 447 90 427 344 426 102 448 280 347 282 347 283 449 282 347 284 262 285 450 284 262 286 260 285 450 277 251 280 347 281 451 287 409 296 271 295 452 285 450 295 452 283 449 283 449 294 453 281 451 296 271 301 273 300 454 295 452 300 454 294 453 294 453 299 455 293 456 301 273 306 275 300 454 300 454 305 457 299 455 299 455 304 458 298 459 306 275 311 62 310 422 305 457 310 422 304 458 304 458 309 424 303 460 308 425 315 66 303 460 303 460 314 276 298 459 298 459 313 277 312 278 293 456 312 278 277 251 344 426 346 428 343 461 346 428 348 431 347 462 348 431 350 446 349 463 349 463 354 464 347 462 347 462 353 465 345 466 345 466 352 467 351 468 354 464 358 469 357 470 353 465 357 470 356 471 352 467 356 471 351 468 355 472 365 473 351 468 354 464 364 474 368 475 358 469 368 475 357 470 357 470 367 476 356 471 356 471 366 477 365 473 351 468 363 478 343 461 349 463 361 479 364 474 350 446 362 480 361 479 343 461 359 481 344 426 43 39 41 39 44 412 45 42 43 39 46 413 46 413 48 48 47 43 41 39 38 34 42 411 56 56 48 48 55 414 44 412 54 415 55 414 42 411 53 417 54 415 61 58 56 56 60 416 54 415 59 418 60 416 53 417 58 420 59 418 60 416 65 419 66 60 59 418 64 421 65 419 58 420 63 423 64 421 311 62 66 60 310 422 64 421 309 424 310 422 63 423 308 425 309 424 63 423 69 63 315 66 58 420 68 64 69 63 68 64 58 420 67 67 67 67 53 417 38 34 90 427 91 429 346 428 348 431 346 428 92 430 350 446 348 431 93 432 92 430 96 434 97 433 91 429 95 437 96 434 95 437 91 429 94 435 101 441 97 433 100 436 100 436 96 434 99 438 94 435 98 439 99 438 94 435 104 444 106 440 105 445 97 433 109 442 100 436 108 443 109 442 99 438 107 482 108 443 107 482 99 438 106 440 90 427 102 448 104 444 103 447 93 432 105 445 362 480 350 446 103 447 344 426 360 483 102 448 281 451 280 347 283 449 283 449 282 347 285 450 286 260 287 409 285 450 279 269 277 251 281 451 285 450 287 409 295 452 295 452 294 453 283 449 294 453 293 456 281 451 295 452 296 271 300 454 300 454 299 455 294 453 299 455 298 459 293 456 306 275 305 457 300 454 305 457 304 458 299 455 304 458 303 460 298 459 305 457 306 275 310 422 310 422 309 424 304 458 309 424 308 425 303 460 315 66 314 276 303 460 314 276 313 277 298 459 293 456 298 459 312 278 281 451 293 456 277 251 346 428 345 466 343 461 345 466 346 428 347 462 347 462 348 431 349 463 354 464 353 465 347 462 353 465 352 467 345 466 343 461 345 466 351 468 353 465 354 464 357 470 352 467 353 465 356 471 356 471 355 472 351 468 365 473 363 478 351 468 358 469 354 464 368 475 368 475 367 476 357 470 367 476 366 477 356 471 355 472 356 471 365 473 363 478 359 481 343 461 354 464 349 463 364 474 349 463 350 446 361 479 359 481 360 483 344 426</p>
        </polylist>
        <polylist material="Kunststoff_druckteile_001-material" count="82">
          <input semantic="VERTEX" source="#Cylinder_004-mesh-vertices" offset="0"/>
          <input semantic="NORMAL" source="#Cylinder_004-mesh-normals" offset="1"/>
          <vcount>3 3 3 3 3 3 3 3 3 3 3 3 3 3 3 3 3 3 3 3 3 3 3 3 3 3 3 3 3 3 3 3 3 3 3 3 3 3 3 3 3 3 3 3 3 3 3 3 3 3 3 3 3 3 3 3 3 3 3 3 3 3 3 3 3 3 3 3 3 3 3 3 3 3 3 3 3 3 3 3 3 3 </vcount>
          <p>23 484 22 485 29 486 259 487 24 29 27 488 243 230 12 16 259 487 28 489 27 488 33 490 262 491 30 492 261 493 265 494 27 488 28 489 264 495 28 489 263 496 263 496 29 486 262 491 16 21 17 23 23 484 18 25 25 497 22 485 25 497 26 498 22 485 15 19 31 499 14 17 32 500 23 484 29 486 15 19 16 21 23 484 31 499 23 484 32 500 27 488 24 29 33 490 21 26 20 27 33 490 20 27 19 28 33 490 31 499 32 500 33 490 26 498 76 80 261 493 18 25 72 73 25 497 25 497 74 78 76 80 256 501 268 502 255 503 259 487 265 494 266 504 243 230 259 487 257 246 267 505 271 506 272 507 262 491 261 493 269 508 265 494 264 495 267 505 264 495 263 496 267 505 263 496 262 491 268 502 249 236 256 501 250 238 251 240 250 238 255 503 258 509 255 503 260 510 248 234 247 232 270 511 271 506 267 505 268 502 248 234 270 511 256 501 270 511 271 506 256 501 266 504 272 507 257 246 254 242 272 507 253 243 253 243 272 507 252 244 270 511 272 507 271 506 260 510 261 493 323 288 251 240 258 509 319 282 258 509 260 510 323 288 22 485 30 492 29 486 265 494 259 487 27 488 12 16 24 29 259 487 32 500 28 489 33 490 30 492 26 498 261 493 264 495 265 494 28 489 28 489 29 486 263 496 29 486 30 492 262 491 17 23 22 485 23 484 17 23 18 25 22 485 26 498 30 492 22 485 31 499 19 28 14 17 28 489 32 500 29 486 31 499 15 19 23 484 24 29 21 26 33 490 19 28 31 499 33 490 76 80 325 290 261 493 72 73 74 78 25 497 26 498 25 497 76 80 268 502 269 508 255 503 257 246 259 487 266 504 242 231 243 230 257 246 266 504 267 505 272 507 261 493 260 510 269 508 266 504 265 494 267 505 263 496 268 502 267 505 262 491 269 508 268 502 256 501 255 503 250 238 258 509 251 240 255 503 255 503 269 508 260 510 247 232 252 244 270 511 256 501 271 506 268 502 249 236 248 234 256 501 272 507 254 242 257 246 272 507 270 511 252 244 261 493 325 290 323 288 258 509 321 286 319 282 321 286 258 509 323 288</p>
        </polylist>
      </mesh>
    </geometry>
  </library_geometries>
  <library_controllers/>
  <library_visual_scenes>
    <visual_scene id="Scene" name="Scene">
      <node id="VIS_hollie_left_hand_a" name="VIS_hollie_left_hand_a" type="NODE">
        <instance_geometry url="#Cylinder_004-mesh" name="VIS_hollie_left_hand_a">
          <bind_material>
            <technique_common>
              <instance_material symbol="Metall_Alu_002-material" target="#Metall_Alu_002-material"/>
              <instance_material symbol="Gummi_002-material" target="#Gummi_002-material"/>
              <instance_material symbol="Kunststoff_druckteile_001-material" target="#Kunststoff_druckteile_001-material"/>
            </technique_common>
          </bind_material>
        </instance_geometry>
      </node>
    </visual_scene>
  </library_visual_scenes>
  <scene>
    <instance_visual_scene url="#Scene"/>
  </scene>
</COLLADA>