<?xml version="1.0" encoding="utf-8"?>
<COLLADA xmlns="http://www.collada.org/2005/11/COLLADASchema" version="1.4.1">
  <asset>
    <contributor>
      <author>Blender User</author>
      <authoring_tool>Blender 2.78.0 commit date:2017-02-24, commit time:14:33, hash:e92f2352830</authoring_tool>
    </contributor>
    <created>2017-07-14T10:06:19</created>
    <modified>2017-07-14T10:06:19</modified>
    <unit name="meter" meter="1"/>
    <up_axis>Z_UP</up_axis>
  </asset>
  <library_images/>
  <library_effects>
    <effect id="Metall_Alu_006-effect">
      <profile_COMMON>
        <technique sid="common">
          <phong>
            <emission>
              <color sid="emission">0 0 0 1</color>
            </emission>
            <ambient>
              <color sid="ambient">0 0 0 1</color>
            </ambient>
            <diffuse>
              <color sid="diffuse">0.45 0.45 0.45 1</color>
            </diffuse>
            <specular>
              <color sid="specular">0.325 0.325 0.325 1</color>
            </specular>
            <shininess>
              <float sid="shininess">70</float>
            </shininess>
            <index_of_refraction>
              <float sid="index_of_refraction">1</float>
            </index_of_refraction>
          </phong>
        </technique>
      </profile_COMMON>
    </effect>
    <effect id="Gummi_006-effect">
      <profile_COMMON>
        <technique sid="common">
          <phong>
            <emission>
              <color sid="emission">0 0 0 1</color>
            </emission>
            <ambient>
              <color sid="ambient">0 0 0 1</color>
            </ambient>
            <diffuse>
              <color sid="diffuse">0.1 0.1 0.1 1</color>
            </diffuse>
            <specular>
              <color sid="specular">0.025 0.025 0.025 1</color>
            </specular>
            <shininess>
              <float sid="shininess">50</float>
            </shininess>
            <index_of_refraction>
              <float sid="index_of_refraction">1</float>
            </index_of_refraction>
          </phong>
        </technique>
      </profile_COMMON>
    </effect>
  </library_effects>
  <library_materials>
    <material id="Metall_Alu_006-material" name="Metall_Alu_006">
      <instance_effect url="#Metall_Alu_006-effect"/>
    </material>
    <material id="Gummi_006-material" name="Gummi_006">
      <instance_effect url="#Gummi_006-effect"/>
    </material>
  </library_materials>
  <library_geometries>
    <geometry id="Circle_004-mesh" name="Circle.004">
      <mesh>
        <source id="Circle_004-mesh-positions">
          <float_array id="Circle_004-mesh-positions-array" count="1215">0.002770245 1.80482e-5 0.009046554 0.002495467 0.001221835 0.009044945 0.001725554 0.002187192 0.009043753 6.08897e-4 0.004526078 0.007040739 -8.1875e-4 0.004432022 0.007041037 -0.002953588 0.00339961 0.007042586 -0.004125714 0.001784563 0.007044851 -0.00448215 -1.74092e-4 0.007047533 -0.003960967 -0.002077817 0.007049977 -0.002676308 -0.00357002 0.007051885 -8.77305e-4 -0.004366934 0.007052779 0.001089513 -0.004316329 0.007052481 0.00284326 -0.003428041 0.007051169 0.003992974 -0.002052545 0.007049202 0.002770006 1.53722e-5 0.009846508 0.002495288 0.001219153 0.009844958 0.001725435 0.00218451 0.009843766 6.12975e-4 0.002720236 0.009843111 -6.21774e-4 0.002720236 0.00984323 -0.001734197 0.00218451 0.009844064 -0.00250405 0.001219153 0.009845435 -0.002778828 1.53732e-5 0.009847044 -0.00250405 -0.001188397 0.009848654 -0.001734197 -0.002153754 0.009849846 -6.21772e-4 -0.00268948 0.009850442 6.12976e-4 -0.00268948 0.009850323 0.001725435 -0.002153754 0.009849548 0.002495288 -0.001188397 0.009848177 0.004431724 1.53722e-5 0.009846389 0.004431724 0.00192964 0.009843826 0.004431843 0.003464877 0.009841799 0.001110851 0.004906594 0.009830474 -0.001119434 0.004904389 0.009826779 -0.003130853 0.003935456 0.009824275 -0.00452435 0.002190947 0.009827852 -0.005023777 1.66568e-5 0.009833693 -0.004523217 -0.002159595 0.009826838 -0.003130674 -0.003904521 0.009823679 -0.001119375 -0.004873335 0.009825587 0.001110732 -0.0048756 0.009829878 0.004428923 -0.003428876 0.009842514 0.004431724 -0.001898944 0.009848952 0.005361497 1.53865e-5 0.009781897 0.00536102 0.0019297 0.009779036 0.005357563 0.003205955 0.009761512 0.005356073 -0.003192663 0.00975275 0.005362033 -0.001898884 0.009784817 0.01739442 1.61018e-5 0.007668375 0.01739418 0.001513242 0.00766617 0.01739394 0.002715885 0.007664382 0.0173949 -0.002684414 0.007672309 0.01739466 -0.001482903 0.007670581 0.02103674 0.002716839 0.007642149 0.02104073 -0.002684414 0.007649183 0.001336455 0.005903661 0.009240806 -0.001339554 0.005861282 0.009257435 -0.003754734 0.004708111 0.009257376 -0.005393624 0.002608716 0.00925672 -0.00600326 1.85279e-5 0.009258031 -0.005393326 -0.002575814 0.009257435 -0.003740549 -0.004661619 0.009257197 -0.001333892 -0.005822122 0.009257435 0.00133413 -0.005847215 0.009257018 0.00133723 0.005900621 0.007038831 -0.001337409 0.005844235 0.007039189 -0.003739416 0.004689931 0.007040917 -0.005414485 0.002613484 0.007043898 -0.005982577 1.9699e-5 0.007047414 -0.005380034 -0.002571403 0.007050812 -0.00372523 -0.004652857 0.007053434 -0.00133419 -0.005824983 0.007054746 0.001334547 -0.005850076 0.007054507 0.00750786 0.005087792 0.008488118 0.007508516 0.005096077 0.00706017 0.009078979 0.00516498 0.00811541 0.009089291 0.00519967 0.007040023 0.01055741 0.005885362 0.007270872 0.01053285 0.005912959 0.004962801 0.01277506 0.008226096 0.003541946 0.01286435 0.008521735 0.002702713 0.01171869 0.007180154 0.003809034 0.01171159 0.007174193 0.005679905 0.003439784 -0.005628645 0.008966922 0.003439068 -0.005610525 0.00705403 0.00497049 -0.005997478 0.008395314 0.004983484 -0.006001353 0.00511372 0.006912529 -0.007925987 0.006013214 0.006910383 -0.007927358 0.002110362 0.006025433 -0.00670737 0.007522881 0.006145775 -0.006824076 0.002124905 0.03025281 6.10977e-5 0.00853604 0.02980995 0.001968741 0.008522152 0.02858287 0.003488302 0.008499324 0.02682536 0.004303216 0.00849086 0.02487677 0.004287719 0.008458554 0.02399909 0.005289673 0.007711529 0.02670466 0.005504786 0.007782876 0.02921026 0.004480242 0.007791042 0.03090208 0.002500236 0.007786512 0.03149569 6.8975e-5 0.007789731 0.02487832 -0.004190504 0.008463919 0.02682185 -0.004199683 0.008483409 0.02858865 -0.00337255 0.008515536 0.02981352 -0.001848042 0.008529245 0.02398526 -0.005311191 0.007597863 0.02670913 -0.005293309 0.007738769 0.02921736 -0.004337728 0.007808148 0.03091233 -0.002353847 0.007793009 0.01737308 -0.00449109 0.006767272 0.02108979 -0.004513323 0.006772577 0.0173676 -0.006380915 0.004999577 0.02111083 -0.006412863 0.004998445 0.01737642 -0.007605969 0.002740681 0.02104043 -0.00759685 0.002714574 0.01735621 -0.007819831 0.002055644 0.02104067 -0.007956504 0.001185774 0.009812891 -0.007337212 0.005932927 0.01359659 -0.007614314 0.004337549 0.01040667 -0.007964909 0.004861354 0.01390075 -0.007962286 0.003455638 0.004554748 -0.00453794 0.009351789 0.005467474 -0.004504144 0.009187579 0.006818473 -1.02766e-5 0.007046222 0.008241176 -3.61815e-4 0.004998743 0.009451627 -0.001191079 0.002047598 0.01735621 -0.006527066 0.002053916 0.01109331 -0.001832664 0.002048254 0.01790541 1.10909e-4 0.002045035 0.01808822 0.002217888 0.002139925 0.01593571 0.007996857 0.0025478 0.01752728 0.004521012 0.006789684 0.01744478 0.005462229 0.006053686 0.01587092 0.007863163 0.002992212 0.01729977 0.006775975 0.004535853 0.02232468 0.004966974 0.007277786 0.02110093 0.004740655 0.006695747 0.01862657 0.005455911 0.00606358 0.02222657 0.003938257 0.00783652 0.02399945 0.005287647 0.006107985 0.02670252 0.005486369 0.00617963 0.02922314 0.00449562 0.00618714 0.03089797 0.00249809 0.006183028 0.03149533 6.89387e-5 0.006186187 0.02585977 -0.00603789 0.006085932 0.02670913 -0.005293309 0.006101369 0.0292471 -0.004371941 0.006204545 0.03091299 -0.002354204 0.006189465 0.01815819 0.005855739 9.73428e-4 0.01803034 0.002327859 0.002934098 0.01815825 0.005935132 0.00293225 0.02223634 0.004974424 0.006088078 0.02101743 0.004761993 0.006088495 0.01859676 0.005469858 0.00453782 0.01863753 0.002021908 0.00454241 0.02210861 -0.004081547 0.007641255 0.02216809 -0.005810916 0.006453692 0.02500396 -0.006413042 0.004998445 0.02500522 -0.007585287 0.002710103 0.02500551 -0.007951498 0.001185774 0.02116829 -0.005859315 0.002052664 0.02586799 -0.005615353 0.006080031 0.02509248 -0.005959153 0.005509674 0.02500486 -0.007297873 0.002785027 0.02500504 -0.007537066 0.001185774 0.02292609 0.001603186 0.004592537 0.02258569 1.1162e-4 0.004594564 0.02292609 -0.001379907 0.004596531 0.02388 -0.002576112 0.004598021 0.02525848 -0.003239929 0.004598796 0.02678841 -0.003239929 0.004598617 0.02816683 -0.002576112 0.004597604 0.02912074 -0.001379907 0.004595935 0.02946114 1.11625e-4 0.004593908 0.02388 0.002799332 0.004590868 0.02526086 0.003449857 0.004589855 0.02678495 0.003453016 0.004589676 0.0281586 0.002786874 0.004590451 0.02910721 0.001596093 0.004591941 0.0228821 0.001620531 0.006092488 0.0225048 1.21692e-4 0.006094515 0.02285009 -0.001420021 0.006096541 0.0238195 -0.002668559 0.006098151 0.02522194 -0.003347516 0.006098926 0.02680391 -0.003326058 0.006098747 0.02820456 -0.002622425 0.006097674 0.02915525 -0.001393854 0.006095945 0.02949452 1.12364e-4 0.006093859 0.0238744 0.002806067 0.006090819 0.02525842 0.003463029 0.006089806 0.02678841 0.003463029 0.006089687 0.02816683 0.002799212 0.006090402 0.02912074 0.001603066 0.006091952 0.02219617 -0.004591822 0.005228638 0.02112692 0.002281546 0.006091773 0.02064234 1.58646e-4 0.006094694 0.02112692 -0.001964271 0.006097435 0.002770245 1.80482e-5 -0.009046554 0.002495467 0.001221835 -0.009044945 0.001725554 0.002187192 -0.009043753 6.08897e-4 0.004526078 -0.007040739 -8.1875e-4 0.004432022 -0.007041037 -0.002953588 0.00339961 -0.007042586 -0.004125714 0.001784563 -0.007044851 -0.00448215 -1.74092e-4 -0.007047533 -0.003960967 -0.002077817 -0.007049977 -0.002676308 -0.00357002 -0.007051885 -8.77305e-4 -0.004366934 -0.007052779 0.001089513 -0.004316329 -0.007052481 0.00284326 -0.003428041 -0.007051169 0.003992974 -0.002052545 -0.007049202 0.002770006 1.53722e-5 -0.009846508 0.002495288 0.001219153 -0.009844958 0.001725435 0.00218451 -0.009843766 6.12975e-4 0.002720236 -0.009843111 -6.21774e-4 0.002720236 -0.00984323 -0.001734197 0.00218451 -0.009844064 -0.00250405 0.001219153 -0.009845435 -0.002778828 1.53732e-5 -0.009847044 -0.00250405 -0.001188397 -0.009848654 -0.001734197 -0.002153754 -0.009849846 -6.21772e-4 -0.00268948 -0.009850442 6.12976e-4 -0.00268948 -0.009850323 0.001725435 -0.002153754 -0.009849548 0.002495288 -0.001188397 -0.009848177 0.004431724 1.53722e-5 -0.009846389 0.004431724 0.00192964 -0.009843826 0.004431843 0.003464877 -0.009841799 0.001110851 0.004906594 -0.009830474 -0.001119434 0.004904389 -0.009826779 -0.003130853 0.003935456 -0.009824275 -0.00452435 0.002190947 -0.009827852 -0.005023777 1.66568e-5 -0.009833693 -0.004523217 -0.002159595 -0.009826838 -0.003130674 -0.003904521 -0.009823679 -0.001119375 -0.004873335 -0.009825587 0.001110732 -0.0048756 -0.009829878 0.004428923 -0.003428876 -0.009842514 0.004431724 -0.001898944 -0.009848952 0.005361497 1.53865e-5 -0.009781897 0.00536102 0.0019297 -0.009779036 0.005357563 0.003205955 -0.009761512 0.005356073 -0.003192663 -0.00975275 0.005362033 -0.001898884 -0.009784817 0.01739442 1.61018e-5 -0.007668375 0.01739418 0.001513242 -0.00766617 0.01739394 0.002715885 -0.007664382 0.0173949 -0.002684414 -0.007672309 0.01739466 -0.001482903 -0.007670581 0.02103674 0.002716839 -0.007642149 0.02104073 -0.002684414 -0.007649183 0.001336455 0.005903661 -0.009240806 -0.001339554 0.005861282 -0.009257435 -0.003754734 0.004708111 -0.009257376 -0.005393624 0.002608716 -0.00925672 -0.00600326 1.85279e-5 -0.009258031 -0.005393326 -0.002575814 -0.009257435 -0.003740549 -0.004661619 -0.009257197 -0.001333892 -0.005822122 -0.009257435 0.00133413 -0.005847215 -0.009257018 0.00133723 0.005900621 -0.007038831 -0.001337409 0.005844235 -0.007039189 -0.003739416 0.004689931 -0.007040917 -0.005414485 0.002613484 -0.007043898 -0.005982577 1.9699e-5 -0.007047414 -0.005380034 -0.002571403 -0.007050812 -0.00372523 -0.004652857 -0.007053434 -0.00133419 -0.005824983 -0.007054746 0.001334547 -0.005850076 -0.007054507 0.00750786 0.005087792 -0.008488118 0.007508516 0.005096077 -0.00706017 0.009078979 0.00516498 -0.00811541 0.009089291 0.00519967 -0.007040023 0.01055741 0.005885362 -0.007270872 0.01053285 0.005912959 -0.004962801 0.01277506 0.008226096 -0.003541946 0.01286435 0.008521735 -0.002702713 0.01171869 0.007180154 -0.003809034 0.01171159 0.007174193 -0.005679905 0.003439784 -0.005628645 -0.008966922 0.003439068 -0.005610525 -0.00705403 0.00497049 -0.005997478 -0.008395314 0.004983484 -0.006001353 -0.00511372 0.006912529 -0.007925987 -0.006013214 0.006910383 -0.007927358 -0.002110362 0.006025433 -0.00670737 -0.007522881 0.006145775 -0.006824076 -0.002124905 0.03025281 6.10977e-5 -0.00853604 0.02980995 0.001968741 -0.008522152 0.02858287 0.003488302 -0.008499324 0.02682536 0.004303216 -0.00849086 0.02487677 0.004287719 -0.008458554 0.02399909 0.005289673 -0.007711529 0.02670466 0.005504786 -0.007782876 0.02921026 0.004480242 -0.007791042 0.03090208 0.002500236 -0.007786512 0.03149569 6.8975e-5 -0.007789731 0.02487832 -0.004190504 -0.008463919 0.02682185 -0.004199683 -0.008483409 0.02858865 -0.00337255 -0.008515536 0.02981352 -0.001848042 -0.008529245 0.02398526 -0.005311191 -0.007597863 0.02670913 -0.005293309 -0.007738769 0.02921736 -0.004337728 -0.007808148 0.03091233 -0.002353847 -0.007793009 0.01737308 -0.00449109 -0.006767272 0.02108979 -0.004513323 -0.006772577 0.0173676 -0.006380915 -0.004999577 0.02111083 -0.006412863 -0.004998445 0.01737642 -0.007605969 -0.002740681 0.02104043 -0.00759685 -0.002714574 0.01735621 -0.007819831 -0.002055644 0.02104067 -0.007956504 -0.001185774 0.01850551 -0.007961273 0 0.02104067 -0.007958114 0 0.009812891 -0.007337212 -0.005932927 0.01359659 -0.007614314 -0.004337549 0.01040667 -0.007964909 -0.004861354 0.01390075 -0.007962286 -0.003455638 0.004554748 -0.00453794 -0.009351789 0.005467474 -0.004504144 -0.009187579 0.006818473 -1.02766e-5 -0.007046222 0.008241176 -3.61815e-4 -0.004998743 0.009451627 -0.001191079 -0.002047598 0.01735621 -0.006527066 -0.002053916 0.01850575 -0.00666964 0 0.009452879 -0.001187562 0 0.01109331 -0.001832664 -0.002048254 0.01108151 -0.001692235 0 0.01790541 1.10909e-4 -0.002045035 0.01767724 1.89766e-4 0 0.01808822 0.002217888 -0.002139925 0.01801419 0.002258658 0 0.01300364 0.008903026 0 0.01593571 0.007996857 -0.0025478 0.01544493 0.008477091 0 0.01752728 0.004521012 -0.006789684 0.01744478 0.005462229 -0.006053686 0.01587092 0.007863163 -0.002992212 0.01729977 0.006775975 -0.004535853 0.02232468 0.004966974 -0.007277786 0.02110093 0.004740655 -0.006695747 0.01862657 0.005455911 -0.00606358 0.02222657 0.003938257 -0.00783652 0.02399945 0.005287647 -0.006107985 0.02670252 0.005486369 -0.00617963 0.02922314 0.00449562 -0.00618714 0.03089797 0.00249809 -0.006183028 0.03149533 6.89387e-5 -0.006186187 0.02585977 -0.00603789 -0.006085932 0.02670913 -0.005293309 -0.006101369 0.0292471 -0.004371941 -0.006204545 0.03091299 -0.002354204 -0.006189465 0.01815819 0.005855739 -9.73428e-4 0.01803034 0.002327859 -0.002934098 0.01815825 0.005935132 -0.00293225 0.02223634 0.004974424 -0.006088078 0.02101743 0.004761993 -0.006088495 0.01859676 0.005469858 -0.00453782 0.01815801 0.005900979 0 0.01863753 0.002021908 -0.00454241 0.02210861 -0.004081547 -0.007641255 0.02216809 -0.005810916 -0.006453692 0.02500396 -0.006413042 -0.004998445 0.02500522 -0.007585287 -0.002710103 0.02500551 -0.007951498 -0.001185774 0.0250054 -0.007953107 0 0.02116829 -0.005859315 -0.002052664 0.02121061 -0.006041586 0 0.02586799 -0.005615353 -0.006080031 0.02509248 -0.005959153 -0.005509674 0.02500486 -0.007297873 -0.002785027 0.02500504 -0.007537066 -0.001185774 0.02500492 -0.007538676 0 0.02292609 0.001603186 -0.004592537 0.02258569 1.1162e-4 -0.004594564 0.02292609 -0.001379907 -0.004596531 0.02388 -0.002576112 -0.004598021 0.02525848 -0.003239929 -0.004598796 0.02678841 -0.003239929 -0.004598617 0.02816683 -0.002576112 -0.004597604 0.02912074 -0.001379907 -0.004595935 0.02946114 1.11625e-4 -0.004593908 0.02388 0.002799332 -0.004590868 0.02526086 0.003449857 -0.004589855 0.02678495 0.003453016 -0.004589676 0.0281586 0.002786874 -0.004590451 0.02910721 0.001596093 -0.004591941 0.0228821 0.001620531 -0.006092488 0.0225048 1.21692e-4 -0.006094515 0.02285009 -0.001420021 -0.006096541 0.0238195 -0.002668559 -0.006098151 0.02522194 -0.003347516 -0.006098926 0.02680391 -0.003326058 -0.006098747 0.02820456 -0.002622425 -0.006097674 0.02915525 -0.001393854 -0.006095945 0.02949452 1.12364e-4 -0.006093859 0.0238744 0.002806067 -0.006090819 0.02525842 0.003463029 -0.006089806 0.02678841 0.003463029 -0.006089687 0.02816683 0.002799212 -0.006090402 0.02912074 0.001603066 -0.006091952 0.02219617 -0.004591822 -0.005228638 0.02112692 0.002281546 -0.006091773 0.02064234 1.58646e-4 -0.006094694 0.02112692 -0.001964271 -0.006097435</float_array>
          <technique_common>
            <accessor source="#Circle_004-mesh-positions-array" count="405" stride="3">
              <param name="X" type="float"/>
              <param name="Y" type="float"/>
              <param name="Z" type="float"/>
            </accessor>
          </technique_common>
        </source>
        <source id="Circle_004-mesh-normals">
          <float_array id="Circle_004-mesh-normals-array" count="1215">-0.3635129 0.09869873 -0.9263461 -0.7552276 0.3575627 0.5493452 -0.7033487 -0.1151494 0.7014565 -0.2738481 0.3424857 -0.8987274 -0.5144574 0.6562788 0.5519347 -0.106267 0.4197273 -0.9014081 -0.1852508 0.8087865 0.5581637 0.08438616 0.4242503 -0.9016045 0.184486 0.8077408 0.5599282 0.2581589 0.3463279 -0.901893 0.5172371 0.6469126 0.56033 0.3813643 0.2014858 -0.9022 0.7475904 0.3582916 0.5592279 0.4301085 0.017457 -0.9026084 0.8299834 0 0.5577881 0.3952259 -0.1702371 -0.9026716 0.7476595 -0.3595162 0.5583488 0.2752866 -0.3260406 -0.9043865 0.5171763 -0.6488052 0.558194 0.1049848 -0.4257075 -0.8987499 0.192423 -0.8100689 0.5538609 0.1176812 -0.410877 -0.9040637 -0.1953255 -0.8107841 0.5517946 -0.824903 -0.5538622 -0.1130125 -0.5228561 -0.4784505 0.7054833 -0.9258031 -0.3757842 -0.04092633 -0.5856007 -0.2806232 0.7604752 -0.929602 -0.3593891 -0.08172929 0.03381472 -0.001770079 0.9994266 0.1028799 -0.1884859 0.9766723 0.04690825 -0.2844406 0.9575454 -0.06866836 -0.2914288 0.9541247 -0.1872065 -0.2343896 0.9539473 -0.270914 -0.1332138 0.9533414 -0.2996996 -1.52597e-4 0.9540336 -0.2704004 0.1310496 0.9537871 -0.1825953 0.2299608 0.9559169 -0.06671535 0.2885607 0.9551345 0.04806792 0.2837381 0.9576963 0.1049864 0.2016716 0.9738103 0.03479123 0.001342773 0.9993937 0.0346083 0.001342773 0.9994001 0.1242442 -0.008606433 0.9922143 0.1233265 0.005737483 0.9923497 0.1212508 0.001495361 0.9926208 0.08984768 0.001464903 0.9959545 0.1604063 -0.1931834 0.9679619 0.08930009 9.76624e-4 0.9960044 0.1578142 0.196604 0.9676992 0.08954221 0.001678526 0.9959816 -0.327986 -0.3284438 0.8857483 -0.3629688 0.2777888 0.8894308 -0.1193283 0.1621156 0.9795302 0.08096742 -0.8571318 0.508694 -0.5536721 -0.6892977 0.4672428 -0.7963972 -0.3858535 0.4656916 -0.8849611 -0.002197325 0.4656598 -0.550872 0.6903754 0.4689584 0.08508712 0.8597218 0.5036255 -0.2003918 -0.8592494 0.4706736 0.03735566 -0.7203481 -0.6926061 -0.1716706 -0.7312708 -0.6601306 -0.4689275 -0.5835576 -0.662999 -0.6734351 -0.3267378 -0.6631196 -0.7947502 0.3812457 0.4722539 -0.679023 0.3245418 -0.6584835 -0.2012154 0.8594918 0.4698791 -0.1731346 0.7256214 -0.6659566 0.04446601 0.6875299 -0.7247934 0.01736503 0.6891091 -0.7244496 0.1474086 0.8086719 0.5694916 -0.494321 0.801223 -0.3371772 0.0180366 0.8053297 0.5925527 -0.7928578 0.5340551 -0.2935335 -0.8103404 0.5359136 -0.2369495 -0.3092842 0.8624189 0.4007205 -0.2338665 0.9101352 0.341995 -0.1580287 0.8456581 0.5097936 -0.2943274 -0.705513 -0.6446882 0.08945107 -0.8336257 0.5450383 -0.8751197 -0.3092248 -0.3722173 -0.2093036 -0.8483542 0.4862998 -0.715923 -0.1455467 -0.6828399 -0.3688284 -0.6960892 -0.6159754 -0.05227929 -0.8423594 0.5363743 -0.4640804 0.58506 -0.6650822 -0.7475698 -0.005493462 -0.6641606 0.2669211 -0.137367 0.9538782 0.7918329 -0.4008454 0.4607861 0.8864941 0.002411007 0.4627336 0.1762803 -0.2544102 0.9508947 0.5044186 -0.7240031 0.4705119 0.07217788 -0.3387631 0.9380992 0.1467956 -0.8802247 0.4512822 -0.1325449 -0.2959144 0.9459739 -0.1930357 -0.6658436 0.720687 0.06192404 0.3062023 0.9499503 0.1230832 0.8759571 0.4664223 -0.203194 0.8258993 0.5259302 0.1816504 0.2459543 0.952108 0.5179424 0.7164092 0.467433 0.2641384 0.1396836 0.9543162 0.7903605 0.4039546 0.4605985 0.2923135 0.001739561 0.956321 -0.05368292 -0.1578139 0.9860086 0.09012418 -0.22734 0.9696362 -0.2491931 -0.5491712 0.7976929 0.07901424 -0.5730286 0.8157174 -0.06167936 -0.8330535 0.5497432 0.08691829 -0.7830586 0.6158445 0.08359163 -0.9250629 0.3705012 0.003112912 -0.9379153 0.3468504 -0.008239984 -0.9939627 0.1094094 -0.2680804 -0.9074572 -0.3235033 -0.01156675 -0.9999331 0 0.09958446 -0.9772892 0.1870528 0.1519225 -0.872105 0.4651369 -0.3042475 -0.8939425 0.3290902 0.110265 -0.942761 0.3147115 0.1462488 -0.7689049 0.622412 0.1897998 -0.4476578 0.8738299 0.1713643 -0.4299825 0.886425 -0.7791497 0.3629928 -0.5110404 -0.4338622 0.2137265 -0.8752627 -0.432701 0.8932965 0.1216189 -0.8285075 0.04144519 -0.5584422 -0.5356466 -0.8444423 0 -0.2691773 0.1804892 -0.9460271 -0.9009045 -0.4340175 0 -0.01248222 -0.9999222 0 -0.02005124 -0.6014457 -0.798662 0.7498877 -0.6615651 0 0.7961256 -0.1560755 -0.5846576 0.99502 -0.09967595 0 0.9978604 -0.006988883 -0.06500619 -0.465637 0.8849758 0 0.08163851 0.6923865 0.7168934 0.09296 0.2191244 0.9712585 0.07919734 0.5275247 0.8458402 0.4477087 0.8378593 0.3123279 0.189614 0.8488838 0.4933994 -0.3315248 0.7985528 0.5023991 -0.1163083 0.2854453 0.9513114 -0.1251593 0.7001413 -0.7029491 0.8224345 0.5003031 -0.2707368 -0.1454541 0.8310964 0.5367701 0.2604835 0.7074103 -0.6570532 0.896166 0.4370351 -0.07672524 0.9142009 0.3823133 -0.1344368 0.9281539 0.3719696 0.0130012 0.818367 0.1266233 -0.560573 0.5028421 0.8378871 0.2123559 0.922392 0.3862553 0 0.7662711 0.00112915 -0.6425165 0.6824138 -0.3474023 -0.6431353 0.6807966 0.3474635 -0.6448141 0.4539198 0.6240674 -0.6360006 -0.08252489 0.7175762 -0.6915736 0.2374104 -0.699993 -0.6735327 0.3869855 0.8697713 0.3061702 -0.254651 -0.7587951 0.5994856 0.6828777 -0.7254526 0.08600443 0.5624118 -0.7815412 0.2699747 0.6615676 -0.7488833 0.03875952 0.3391573 0.8203804 -0.4603786 0.1007123 0.9949156 0 0.3119007 0.07269543 -0.9473297 0.7076712 -0.706542 0 0.8444116 0.5336933 -0.04626744 0.6829562 -0.6849399 0.2538272 0.8603376 0.4860495 -0.1535423 0.8266113 0.5627732 0 -0.660281 -0.3148657 -0.6818275 -0.5664176 -0.1768014 -0.8049301 -0.6279426 0.003479242 -0.778252 -0.1642863 0.7288663 -0.6646533 -0.1407245 0.634405 -0.7600835 0.154702 0.6467636 -0.7468361 -0.160714 -0.7083197 -0.687353 -0.05652099 -0.5464107 -0.835608 -0.4536406 -0.5677833 -0.6869006 -0.6639409 0.3238676 -0.6740121 -0.5717462 0.2859341 -0.7689916 -0.4604721 0.5890185 -0.6640955 0.4614577 -0.5744416 -0.6760722 0.4220811 -0.5025299 -0.7545273 0.1479862 -0.6101344 -0.7783547 0.669233 -0.3201502 -0.6705453 0.5985343 -0.2846792 -0.7488088 0.744265 0.003326535 -0.6678761 0.6596082 0.005066156 -0.7515926 0.4671604 0.5831646 -0.6645903 0.4170765 0.5207201 -0.7449147 0.5993694 0.2964038 -0.7435733 -0.733159 -0.001464903 -0.6800559 0.1652317 -0.7120771 -0.6823817 -0.3972665 0.5129032 -0.7609926 0.1662993 0.7297761 -0.6631526 0.6696823 0.3279896 -0.6662946 -0.2748265 -0.3835669 -0.8816727 0.1227488 0.7534008 -0.6460032 0.4605265 -0.6362529 -0.6189489 0.3600416 0.5799975 -0.7307347 0.4448201 0.293627 -0.8461196 0.4458834 0.100896 -0.8893863 0.4906593 0.520141 -0.6990758 -9.15582e-5 -0.001312315 -0.9999992 -0.3635129 0.09869873 0.9263461 -0.929602 -0.3593891 0.08172929 -0.7033487 -0.1151494 -0.7014565 -0.2738481 0.3424857 0.8987274 -0.5144574 0.6562788 -0.5519347 -0.106267 0.4197273 0.9014081 -0.1852508 0.8087865 -0.5581637 0.08438616 0.4242503 0.9016045 0.184486 0.8077408 -0.5599282 0.2581589 0.3463279 0.901893 0.5172371 0.6469126 -0.56033 0.3813643 0.2014858 0.9022 0.7476032 0.3582977 -0.5592069 0.4301085 0.017457 0.9026084 0.8299834 0 -0.5577881 0.3952259 -0.1702371 0.9026716 0.7476595 -0.3595162 -0.5583488 0.2752866 -0.3260406 0.9043865 0.5171763 -0.6488052 -0.558194 0.1049848 -0.4257075 0.8987499 0.1176812 -0.410877 0.9040637 -0.1953255 -0.8107841 -0.5517946 -0.824903 -0.5538622 0.1130125 -0.5228561 -0.4784505 -0.7054833 -0.9258031 -0.3757842 0.04092633 -0.5856007 -0.2806232 -0.7604752 -0.7552276 0.3575627 -0.5493452 0.03381472 -0.001770079 -0.9994266 0.1028799 -0.1884859 -0.9766723 0.04690825 -0.2844406 -0.9575454 -0.06866836 -0.2914288 -0.9541247 -0.270914 -0.1332138 -0.9533414 -0.2996996 -1.52597e-4 -0.9540336 -0.2704004 0.1310496 -0.9537871 0.192423 -0.8100689 -0.5538609 -0.06671535 0.2885607 -0.9551345 0.04806792 0.2837381 -0.9576963 0.1049864 0.2016716 -0.9738103 0.03479123 0.001342773 -0.9993937 0.0346083 0.001342773 -0.9994001 0.1212508 0.001495361 -0.9926208 0.1242442 -0.008606433 -0.9922143 0.1578142 0.196604 -0.9676992 0.1233265 0.005737483 -0.9923497 0.08984768 0.001464903 -0.9959545 0.08930009 9.76624e-4 -0.9960044 0.1604063 -0.1931834 -0.9679619 0.09296 0.2191244 -0.9712585 0.08954221 0.001678526 -0.9959816 -0.327986 -0.3284438 -0.8857483 -0.05368292 -0.1578139 -0.9860086 -0.1193283 0.1621156 -0.9795302 0.08096742 -0.8571318 -0.508694 -0.2003918 -0.8592494 -0.4706736 -0.5536721 -0.6892977 -0.4672428 -0.1872065 -0.2343896 -0.9539473 -0.7963972 -0.3858535 -0.4656916 -0.8849611 -0.002197325 -0.4656598 -0.7947502 0.3812457 -0.4722539 -0.550872 0.6903754 -0.4689584 -0.1825953 0.2299608 -0.9559169 -0.2012154 0.8594918 -0.4698791 0.08508712 0.8597218 -0.5036255 0.03735566 -0.7203481 0.6926061 -0.1716706 -0.7312708 0.6601306 -0.4689275 -0.5835576 0.662999 -0.6734351 -0.3267378 0.6631196 -0.7475698 -0.005493462 0.6641606 -0.679023 0.3245418 0.6584835 -0.4640804 0.58506 0.6650822 -0.1731346 0.7256214 0.6659566 0.04446601 0.6875299 0.7247934 0.01736503 0.6891091 0.7244496 -0.494321 0.801223 0.3371772 0.1474086 0.8086719 -0.5694916 -0.7928578 0.5340551 0.2935335 0.0180366 0.8053297 -0.5925527 -0.8103404 0.5359136 0.2369495 -0.432701 0.8932965 -0.1216189 -0.2338665 0.9101352 -0.341995 -0.1580287 0.8456581 -0.5097936 0.08945107 -0.8336257 -0.5450383 -0.2943274 -0.705513 0.6446882 -0.05227929 -0.8423594 -0.5363743 -0.8751197 -0.3092248 0.3722173 -0.2093036 -0.8483542 -0.4862998 -0.3042475 -0.8939425 -0.3290902 -0.3688284 -0.6960892 0.6159754 -0.715923 -0.1455467 0.6828399 0.2669211 -0.137367 -0.9538782 0.2923135 0.001739561 -0.956321 0.8864941 0.002411007 -0.4627336 0.1762803 -0.2544102 -0.9508947 0.5044186 -0.7240031 -0.4705119 0.07217788 -0.3387631 -0.9380992 0.1467956 -0.8802247 -0.4512822 -0.1325449 -0.2959144 -0.9459739 -0.1930357 -0.6658436 -0.720687 0.06192404 0.3062023 -0.9499503 -0.1163083 0.2854453 -0.9513114 -0.203194 0.8258993 -0.5259302 0.1816504 0.2459543 -0.952108 0.1230832 0.8759571 -0.4664223 0.2641384 0.1396836 -0.9543162 0.5179424 0.7164092 -0.467433 -0.2491931 -0.5491712 -0.7976929 0.09012418 -0.22734 -0.9696362 -0.06167936 -0.8330535 -0.5497432 0.07901424 -0.5730286 -0.8157174 0.003112912 -0.9379153 -0.3468504 0.08359163 -0.9250629 -0.3705012 -0.008239984 -0.9939627 -0.1094094 -0.2680804 -0.9074572 0.3235033 0.09958446 -0.9772892 -0.1870528 0.1519225 -0.872105 -0.4651369 0.110265 -0.942761 -0.3147115 0.1462488 -0.7689049 -0.622412 0.1897998 -0.4476578 -0.8738299 0.1713643 -0.4299825 -0.886425 0.08691829 -0.7830586 -0.6158445 -0.8285075 0.04144519 0.5584422 -0.7791497 0.3629928 0.5110404 -0.4338622 0.2137265 0.8752627 -0.6918385 0.7220524 0 -0.2691773 0.1804892 0.9460271 -0.02005124 -0.6014457 0.798662 0.7961256 -0.1560755 0.5846576 0.9978604 -0.006988883 0.06500619 0.08163851 0.6923865 -0.7168934 0.07919734 0.5275247 -0.8458402 0.4477087 0.8378593 -0.3123279 0.189614 0.8488838 -0.4933994 -0.3315248 0.7985528 -0.5023991 -0.1251593 0.7001413 0.7029491 0.896166 0.4370351 0.07672524 0.8224345 0.5003031 0.2707368 -0.1454541 0.8310964 -0.5367701 0.2604835 0.7074103 0.6570532 0.9281539 0.3719696 -0.0130012 0.9142009 0.3823133 0.1344368 0.818367 0.1266233 0.560573 0.5028421 0.8378871 -0.2123559 0.408708 0.9126653 0 0.7662711 0.00112915 0.6425165 0.7918329 -0.4008454 -0.4607861 0.6824138 -0.3474023 0.6431353 0.7903605 0.4039546 -0.4605985 0.6807966 0.3474635 0.6448141 0.4539198 0.6240674 0.6360006 0.1227488 0.7534008 0.6460032 -0.08252489 0.7175762 0.6915736 0.2374104 -0.699993 0.6735327 0.4605265 -0.6362529 0.6189489 0.3869855 0.8697713 -0.3061702 -0.254651 -0.7587951 -0.5994856 -0.3629688 0.2777888 -0.8894308 0.6828777 -0.7254526 -0.08600443 0.6829562 -0.6849399 -0.2538272 0.5624118 -0.7815412 -0.2699747 0.6615676 -0.7488833 -0.03875952 0.3391573 0.8203804 0.4603786 0.3119007 0.07269543 0.9473297 0.8444116 0.5336933 0.04626744 0.8603376 0.4860495 0.1535423 0.3600416 0.5799975 0.7307347 -0.660281 -0.3148657 0.6818275 -0.733159 -0.001464903 0.6800559 -0.6279426 0.003479242 0.778252 -0.1642863 0.7288663 0.6646533 0.1662993 0.7297761 0.6631526 0.154702 0.6467636 0.7468361 -0.160714 -0.7083197 0.687353 -0.4536406 -0.5677833 0.6869006 -0.05652099 -0.5464107 0.835608 -0.6639409 0.3238676 0.6740121 -0.4604721 0.5890185 0.6640955 -0.5717462 0.2859341 0.7689916 0.4614577 -0.5744416 0.6760722 0.1652317 -0.7120771 0.6823817 0.1479862 -0.6101344 0.7783547 0.669233 -0.3201502 0.6705453 0.4220811 -0.5025299 0.7545273 0.744265 0.003326535 0.6678761 0.5985343 -0.2846792 0.7488088 0.4671604 0.5831646 0.6645903 0.6696823 0.3279896 0.6662946 0.5993694 0.2964038 0.7435733 -0.3972665 0.5129032 0.7609926 0.4170765 0.5207201 0.7449147 0.6596082 0.005066156 0.7515926 -0.2748265 -0.3835669 0.8816727 -0.1407245 0.634405 0.7600835 -0.5664176 -0.1768014 0.8049301 0.4458834 0.100896 0.8893863 0.4906593 0.520141 0.6990758 -9.15582e-5 -0.001312315 0.9999992 0.4448201 0.293627 0.8461196 -0.3092842 0.8624189 -0.4007205</float_array>
          <technique_common>
            <accessor source="#Circle_004-mesh-normals-array" count="405" stride="3">
              <param name="X" type="float"/>
              <param name="Y" type="float"/>
              <param name="Z" type="float"/>
            </accessor>
          </technique_common>
        </source>
        <vertices id="Circle_004-mesh-vertices">
          <input semantic="POSITION" source="#Circle_004-mesh-positions"/>
        </vertices>
        <polylist material="Metall_Alu_006-material" count="802">
          <input semantic="VERTEX" source="#Circle_004-mesh-vertices" offset="0"/>
          <input semantic="NORMAL" source="#Circle_004-mesh-normals" offset="1"/>
          <vcount>3 3 3 3 3 3 3 3 3 3 3 3 3 3 3 3 3 3 3 3 3 3 3 3 3 3 3 3 3 3 3 3 3 3 3 3 3 3 3 3 3 3 3 3 3 3 3 3 3 3 3 3 3 3 3 3 3 3 3 3 3 3 3 3 3 3 3 3 3 3 3 3 3 3 3 3 3 3 3 3 3 3 3 3 3 3 3 3 3 3 3 3 3 3 3 3 3 3 3 3 3 3 3 3 3 3 3 3 3 3 3 3 3 3 3 3 3 3 3 3 3 3 3 3 3 3 3 3 3 3 3 3 3 3 3 3 3 3 3 3 3 3 3 3 3 3 3 3 3 3 3 3 3 3 3 3 3 3 3 3 3 3 3 3 3 3 3 3 3 3 3 3 3 3 3 3 3 3 3 3 3 3 3 3 3 3 3 3 3 3 3 3 3 3 3 3 3 3 3 3 3 3 3 3 3 3 3 3 3 3 3 3 3 3 3 3 3 3 3 3 3 3 3 3 3 3 3 3 3 3 3 3 3 3 3 3 3 3 3 3 3 3 3 3 3 3 3 3 3 3 3 3 3 3 3 3 3 3 3 3 3 3 3 3 3 3 3 3 3 3 3 3 3 3 3 3 3 3 3 3 3 3 3 3 3 3 3 3 3 3 3 3 3 3 3 3 3 3 3 3 3 3 3 3 3 3 3 3 3 3 3 3 3 3 3 3 3 3 3 3 3 3 3 3 3 3 3 3 3 3 3 3 3 3 3 3 3 3 3 3 3 3 3 3 3 3 3 3 3 3 3 3 3 3 3 3 3 3 3 3 3 3 3 3 3 3 3 3 3 3 3 3 3 3 3 3 3 3 3 3 3 3 3 3 3 3 3 3 3 3 3 3 3 3 3 3 3 3 3 3 3 3 3 3 3 3 3 3 3 3 3 3 3 3 3 3 3 3 3 3 3 3 3 3 3 3 3 3 3 3 3 3 3 3 3 3 3 3 3 3 3 3 3 3 3 3 3 3 3 3 3 3 3 3 3 3 3 3 3 3 3 3 3 3 3 3 3 3 3 3 3 3 3 3 3 3 3 3 3 3 3 3 3 3 3 3 3 3 3 3 3 3 3 3 3 3 3 3 3 3 3 3 3 3 3 3 3 3 3 3 3 3 3 3 3 3 3 3 3 3 3 3 3 3 3 3 3 3 3 3 3 3 3 3 3 3 3 3 3 3 3 3 3 3 3 3 3 3 3 3 3 3 3 3 3 3 3 3 3 3 3 3 3 3 3 3 3 3 3 3 3 3 3 3 3 3 3 3 3 3 3 3 3 3 3 3 3 3 3 3 3 3 3 3 3 3 3 3 3 3 3 3 3 3 3 3 3 3 3 3 3 3 3 3 3 3 3 3 3 3 3 3 3 3 3 3 3 3 3 3 3 3 3 3 3 3 3 3 3 3 3 3 3 3 3 3 3 3 3 3 3 3 3 3 3 3 3 3 3 3 3 3 3 3 3 3 3 3 3 3 3 3 3 3 3 3 3 3 3 3 3 3 3 3 3 3 3 3 3 3 3 3 3 3 3 3 3 3 3 3 3 3 3 3 3 3 3 3 3 3 3 3 3 3 3 3 3 3 3 3 3 3 3 3 3 3 3 3 3 3 3 3 3 3 3 3 3 3 3 3 3 3 3 3 3 3 3 3 3 3 3 3 3 3 3 3 3 3 3 3 3 3 3 3 3 3 3 3 3 3 3 3 3 3 3 3 3 3 3 3 3 3 3 3 3 3 3 3 3 3 3 3 3 3 3 3 3 3 3 3 3 3 </vcount>
          <p>13 0 27 1 14 2 12 3 26 4 13 0 11 5 25 6 12 3 10 7 24 8 11 5 9 9 23 10 10 7 8 11 22 12 9 9 7 13 21 14 8 11 6 15 20 16 7 13 5 17 19 18 6 15 4 19 18 20 19 18 3 21 17 22 4 19 2 23 16 24 3 21 1 25 15 26 2 23 0 27 14 2 1 25 27 1 41 28 14 2 26 4 40 29 27 1 25 6 39 30 40 29 24 8 38 31 39 30 23 10 37 32 38 31 22 12 36 33 23 10 21 14 35 34 22 12 20 16 34 35 35 34 19 18 33 36 34 35 18 20 32 37 19 18 17 22 31 38 18 20 16 24 30 39 17 22 15 26 29 40 30 39 14 2 28 41 29 40 28 41 41 28 46 42 41 28 40 29 46 42 30 39 29 40 43 43 29 40 28 41 42 44 42 44 46 42 47 45 46 42 45 46 51 47 44 48 43 43 48 49 43 43 42 44 47 45 154 50 137 51 52 52 39 30 38 31 62 53 38 31 37 32 60 54 37 32 36 33 59 55 36 33 35 34 58 56 35 34 34 35 58 56 34 35 33 36 56 57 33 36 32 37 56 57 32 37 31 38 54 58 62 53 61 59 71 60 61 59 60 54 70 61 60 54 59 55 69 62 59 55 58 56 68 63 58 56 57 64 66 65 57 64 56 57 66 65 56 57 55 66 64 67 55 66 54 58 63 68 63 68 54 58 73 69 73 69 72 70 75 71 75 71 74 72 77 73 80 74 81 75 78 76 77 73 76 77 80 74 62 53 71 60 83 78 82 79 83 78 85 80 88 81 89 82 87 83 84 84 85 80 89 82 3 21 4 19 63 68 4 19 5 17 65 85 5 17 6 15 65 85 6 15 7 13 66 65 7 13 8 11 67 86 8 11 9 9 68 63 9 9 10 7 69 62 10 7 11 5 70 61 12 3 83 78 71 60 103 87 107 88 99 89 102 90 106 91 103 87 101 92 105 93 102 90 100 94 104 95 101 92 93 96 96 97 95 98 92 99 97 100 96 97 91 101 98 102 97 100 90 103 99 89 91 101 53 104 50 105 109 106 109 106 108 107 111 108 111 108 110 109 112 110 113 111 112 110 115 112 115 112 114 113 313 114 119 115 114 113 117 116 86 117 118 118 88 81 118 118 119 115 116 119 45 46 40 29 121 120 84 84 121 120 82 79 39 30 62 53 120 121 39 30 120 121 40 29 45 46 121 120 108 107 108 107 121 120 110 109 112 110 110 109 117 116 116 119 117 116 110 109 88 81 116 119 84 84 114 113 119 115 87 83 118 118 87 83 119 115 87 83 118 118 86 117 89 82 85 80 123 122 85 80 83 78 123 122 77 73 123 122 122 123 80 74 79 124 124 125 77 73 80 74 123 122 13 0 122 123 83 78 75 71 122 123 13 0 0 27 63 68 13 0 1 25 2 23 3 21 0 27 1 25 63 68 312 126 114 113 125 127 325 128 327 129 126 130 327 129 329 131 127 132 329 131 331 133 128 134 87 83 89 82 124 125 125 127 126 130 127 132 114 113 87 83 125 127 124 125 79 124 332 135 76 77 74 72 131 136 49 137 130 138 44 48 44 48 74 72 30 39 30 39 72 70 31 38 133 139 131 136 136 140 131 136 130 138 136 140 95 98 134 141 94 142 134 141 95 98 150 143 133 139 136 140 152 144 135 145 134 141 151 146 136 140 135 145 152 144 149 147 148 148 147 149 149 147 152 144 153 150 129 151 147 149 358 152 99 89 107 88 142 153 107 88 106 91 146 154 98 102 99 89 141 155 97 100 98 102 141 155 96 97 97 100 140 156 95 98 96 97 138 157 105 93 104 95 144 158 106 91 105 93 144 158 331 133 358 152 128 134 129 151 132 159 147 149 132 159 133 139 147 149 104 95 100 94 155 160 109 106 154 50 53 104 155 160 109 106 111 108 155 160 154 50 109 106 137 51 154 50 94 142 49 137 48 49 52 52 48 49 47 45 52 52 135 145 52 52 134 141 130 138 49 137 135 145 47 45 51 47 52 52 51 47 50 105 53 104 94 142 100 94 93 96 93 96 101 92 92 99 92 99 102 90 91 101 90 103 91 101 103 87 115 112 313 114 158 161 113 111 115 112 158 161 111 108 113 111 156 162 143 163 104 95 155 160 111 108 156 162 155 160 127 132 159 164 125 127 159 164 367 165 125 127 143 163 156 162 160 166 158 161 365 167 163 168 157 169 158 161 162 170 156 162 157 169 162 170 163 168 372 171 367 165 159 164 162 170 367 165 166 172 180 173 179 174 174 175 188 176 189 177 168 178 182 179 167 180 164 181 178 182 173 183 170 184 184 185 183 186 171 187 185 188 184 185 172 189 186 190 185 188 176 191 190 192 191 193 165 194 179 174 164 181 169 195 183 186 182 179 173 183 187 196 174 175 175 197 189 177 190 192 177 198 191 193 186 190 167 180 181 199 166 172 140 156 141 155 191 193 139 200 140 156 190 192 138 157 139 200 189 177 141 155 142 153 191 193 142 153 146 154 186 190 146 154 145 201 185 188 145 201 144 158 184 185 143 163 160 166 144 158 150 143 138 157 188 176 182 179 183 186 160 166 162 170 159 164 161 202 160 166 161 202 182 179 182 179 161 202 181 199 180 173 195 203 194 204 179 174 194 204 178 182 159 164 127 132 192 205 178 182 193 206 150 143 181 199 192 205 180 173 127 132 128 134 153 150 151 146 150 143 193 206 193 206 194 204 151 146 195 203 127 132 194 204 127 132 153 150 194 204 153 150 152 144 194 204 171 187 177 198 172 189 209 207 196 208 210 209 208 210 209 207 222 211 207 212 208 210 221 213 206 214 207 212 220 215 205 216 206 214 219 217 204 218 205 216 218 219 203 220 204 218 217 221 202 222 203 220 216 223 201 224 202 222 215 225 200 226 201 224 215 225 199 227 200 226 213 228 198 229 199 227 212 230 197 231 198 229 211 232 196 208 197 231 210 209 223 233 210 209 237 234 222 211 223 233 236 235 221 213 222 211 236 235 220 215 221 213 235 236 219 217 220 215 234 237 218 219 219 217 232 238 217 221 218 219 231 239 216 223 217 221 231 239 215 225 216 223 230 240 214 241 215 225 228 242 213 228 214 241 227 243 212 230 213 228 226 244 211 232 212 230 226 244 210 209 211 232 225 245 224 246 238 247 242 248 237 234 242 248 236 235 226 244 240 249 239 250 225 245 239 250 238 247 238 247 243 251 242 248 242 248 247 252 241 253 240 249 245 254 244 255 239 250 244 255 243 251 360 256 249 257 248 258 235 236 258 259 234 237 234 237 257 260 256 261 233 262 256 261 255 263 232 238 255 263 254 264 231 239 254 264 230 240 230 240 253 265 252 266 229 267 252 266 228 242 228 242 251 268 250 269 258 259 267 270 257 260 257 260 266 271 256 261 256 261 265 272 255 263 255 263 264 273 254 264 254 264 263 274 262 275 253 265 262 275 252 266 252 266 261 276 260 277 251 268 260 277 259 278 259 278 269 279 250 269 269 279 271 280 268 281 271 280 273 282 270 283 276 284 275 285 274 286 273 282 276 284 272 287 258 259 278 288 279 289 278 288 280 290 281 291 284 292 282 293 283 294 280 290 284 292 285 295 199 227 259 278 200 226 200 226 260 277 261 276 201 224 261 276 202 222 202 222 262 275 203 220 203 220 263 274 204 218 204 218 264 273 205 216 205 216 265 272 206 214 206 214 266 271 207 212 208 210 207 212 267 270 299 296 286 297 295 298 298 299 299 296 302 300 297 301 298 299 301 302 296 303 297 301 300 304 289 305 290 306 291 307 288 308 289 305 292 309 287 310 288 308 293 311 286 297 287 310 295 298 249 257 305 312 246 313 305 312 307 314 304 315 307 314 309 316 308 317 309 316 311 318 308 317 311 318 313 114 310 319 317 320 315 321 310 319 282 293 284 292 316 322 316 322 314 323 317 320 241 253 319 324 236 235 280 290 278 288 319 324 235 236 318 325 258 259 235 236 236 235 318 325 241 253 246 313 304 315 304 315 306 326 319 324 308 317 315 321 306 326 314 323 280 290 306 326 284 292 280 290 314 323 310 319 283 294 317 320 316 322 317 320 283 294 283 294 282 293 316 322 285 295 322 327 321 328 281 291 321 328 279 289 273 282 271 280 320 329 276 284 322 327 275 285 273 282 321 328 276 284 209 207 208 210 279 289 271 280 269 279 209 207 196 208 209 207 259 278 197 231 259 278 199 227 196 208 259 278 197 231 312 126 324 330 323 331 325 128 322 327 326 332 327 129 326 332 328 333 329 131 328 333 330 334 283 294 326 332 322 327 323 331 328 333 326 332 310 319 323 331 283 294 322 327 325 128 332 135 272 287 336 335 270 283 245 254 240 249 335 336 240 249 226 244 270 283 226 244 227 243 268 281 338 337 341 338 336 335 336 335 341 338 335 336 291 307 290 306 339 339 339 339 355 340 291 307 338 337 354 341 357 342 340 343 356 344 339 339 341 338 357 342 340 343 354 341 352 345 353 346 354 341 353 346 359 347 333 348 334 349 358 152 295 298 347 350 303 351 303 351 351 352 302 300 294 353 346 354 295 298 293 311 345 355 346 354 292 309 344 356 345 355 291 307 343 357 292 309 301 302 349 358 300 304 302 300 350 359 349 358 331 133 330 334 358 152 333 348 352 345 337 360 337 360 352 345 338 337 300 304 361 361 296 303 305 312 249 257 360 256 361 361 307 314 305 312 361 361 305 312 360 256 342 362 290 306 360 256 245 254 248 258 244 255 244 255 248 258 243 251 340 343 339 339 248 258 335 336 340 343 245 254 243 251 248 258 247 252 247 252 249 257 246 313 290 306 289 305 296 303 289 305 288 308 297 301 288 308 287 310 298 299 286 297 299 296 287 310 311 318 364 363 313 114 309 316 363 364 364 363 307 314 362 365 309 316 348 366 362 365 361 361 307 314 361 361 362 365 328 333 323 331 366 367 366 367 323 331 367 165 348 366 368 368 362 365 364 363 371 369 365 167 363 364 370 370 364 363 362 365 369 371 370 370 371 369 367 165 372 171 366 367 367 165 370 370 375 372 374 373 388 374 383 375 384 376 398 377 377 378 376 379 391 380 373 381 382 382 387 383 379 384 378 385 392 386 380 387 379 384 393 388 381 389 380 387 394 390 385 391 386 392 400 393 374 373 373 381 388 374 378 385 377 378 391 380 382 382 383 375 396 394 384 376 385 391 399 395 386 392 381 389 395 396 376 379 375 372 390 397 345 355 399 395 400 393 344 356 398 377 399 395 343 357 397 398 398 377 346 354 400 393 347 350 347 350 395 396 351 352 351 352 394 390 350 359 350 359 393 388 349 358 348 366 349 358 368 368 355 340 396 394 397 398 391 380 368 368 392 386 370 370 369 371 366 367 368 368 391 380 369 371 391 380 390 397 369 371 389 399 388 374 403 400 388 374 387 383 403 400 366 367 401 401 328 333 387 383 396 394 355 340 390 397 389 399 401 401 328 333 359 347 330 334 356 344 402 402 355 340 402 402 356 344 403 400 404 403 403 400 328 333 328 333 403 400 359 347 359 347 403 400 357 342 386 392 380 387 381 389 0 27 13 0 14 2 26 4 27 1 13 0 25 6 26 4 12 3 24 8 25 6 11 5 23 10 24 8 10 7 22 12 23 10 9 9 21 14 22 12 8 11 20 16 21 14 7 13 19 18 20 16 6 15 5 17 4 19 19 18 17 22 18 20 4 19 16 24 17 22 3 21 15 26 16 24 2 23 14 2 15 26 1 25 41 28 28 41 14 2 40 29 41 28 27 1 26 4 25 6 40 29 25 6 24 8 39 30 24 8 23 10 38 31 36 33 37 32 23 10 35 34 36 33 22 12 21 14 20 16 35 34 20 16 19 18 34 35 32 37 33 36 19 18 31 38 32 37 18 20 30 39 31 38 17 22 16 24 15 26 30 39 15 26 14 2 29 40 42 44 28 41 46 42 40 29 45 46 46 42 44 48 30 39 43 43 43 43 29 40 42 44 46 42 51 47 47 45 45 46 50 105 51 47 49 137 44 48 48 49 48 49 43 43 47 45 53 104 154 50 52 52 38 31 61 59 62 53 61 59 38 31 60 54 60 54 37 32 59 55 59 55 36 33 58 56 34 35 57 64 58 56 57 64 34 35 56 57 32 37 55 66 56 57 55 66 32 37 54 58 61 59 70 61 71 60 60 54 69 62 70 61 59 55 68 63 69 62 58 56 67 86 68 63 67 86 58 56 66 65 56 57 65 85 66 65 65 85 56 57 64 67 64 67 55 66 63 68 54 58 72 70 73 69 72 70 74 72 75 71 74 72 76 77 77 73 79 124 80 74 78 76 76 77 81 75 80 74 82 79 62 53 83 78 84 84 82 79 85 80 86 117 88 81 87 83 88 81 84 84 89 82 4 19 64 67 63 68 64 67 4 19 65 85 6 15 66 65 65 85 7 13 67 86 66 65 8 11 68 63 67 86 9 9 69 62 68 63 10 7 70 61 69 62 11 5 71 60 70 61 11 5 12 3 71 60 90 103 103 87 99 89 106 91 107 88 103 87 105 93 106 91 102 90 104 95 105 93 101 92 94 142 93 96 95 98 93 96 92 99 96 97 92 99 91 101 97 100 99 89 98 102 91 101 50 105 108 107 109 106 108 107 110 109 111 108 113 111 111 108 112 110 112 110 114 113 115 112 114 113 312 126 313 114 114 113 112 110 117 116 118 118 116 119 88 81 119 115 117 116 116 119 40 29 120 121 121 120 121 120 120 121 82 79 62 53 82 79 120 121 50 105 45 46 108 107 121 120 84 84 110 109 84 84 116 119 110 109 124 125 89 82 123 122 83 78 122 123 123 122 75 71 77 73 122 123 80 74 124 125 123 122 12 3 13 0 83 78 73 69 75 71 13 0 63 68 73 69 13 0 63 68 1 25 3 21 324 330 312 126 125 127 124 125 325 128 126 130 126 130 327 129 127 132 127 132 329 131 128 134 126 130 87 83 124 125 87 83 126 130 125 127 325 128 124 125 332 135 74 72 130 138 131 136 130 138 74 72 44 48 74 72 72 70 30 39 72 70 54 58 31 38 130 138 135 145 136 140 134 141 137 51 94 142 95 98 138 157 150 143 149 147 133 139 152 144 134 141 150 143 151 146 135 145 151 146 152 144 148 148 128 134 147 149 148 148 149 147 153 150 334 349 129 151 358 152 107 88 146 154 142 153 106 91 145 201 146 154 99 89 142 153 141 155 140 156 97 100 141 155 139 200 96 97 140 156 96 97 139 200 138 157 104 95 143 163 144 158 145 201 106 91 144 158 358 152 147 149 128 134 133 139 149 147 147 149 100 94 154 50 155 160 154 50 100 94 94 142 52 52 137 51 134 141 49 137 52 52 135 145 51 47 53 104 52 52 100 94 101 92 93 96 101 92 102 90 92 99 102 90 103 87 91 101 313 114 365 167 158 161 157 169 113 111 158 161 113 111 157 169 156 162 156 162 143 163 155 160 367 165 324 330 125 127 156 162 161 202 160 166 365 167 372 171 163 168 158 161 163 168 162 170 161 202 156 162 162 170 162 170 163 168 367 165 165 194 166 172 179 174 175 197 174 175 189 177 182 179 181 199 167 180 178 182 187 196 173 183 169 195 170 184 183 186 170 184 171 187 184 185 171 187 172 189 185 188 177 198 176 191 191 193 179 174 178 182 164 181 168 178 169 195 182 179 187 196 188 176 174 175 176 191 175 197 190 192 172 189 177 198 186 190 181 199 180 173 166 172 190 192 140 156 191 193 189 177 139 200 190 192 188 176 138 157 189 177 142 153 186 190 191 193 146 154 185 188 186 190 145 201 184 185 185 188 144 158 183 186 184 185 187 196 150 143 188 176 183 186 144 158 160 166 159 164 192 205 161 202 161 202 192 205 181 199 179 174 180 173 194 204 194 204 193 206 178 182 127 132 195 203 192 205 187 196 178 182 150 143 192 205 195 203 180 173 128 134 148 148 153 150 152 144 151 146 194 204 174 175 164 181 173 183 176 191 174 175 175 197 176 191 164 181 174 175 170 184 177 198 171 187 169 195 177 198 170 184 168 178 177 198 169 195 165 194 164 181 176 191 167 180 177 198 168 178 166 172 165 194 176 191 167 180 166 172 176 191 177 198 167 180 176 191 223 233 209 207 210 209 209 207 223 233 222 211 208 210 222 211 221 213 207 212 221 213 220 215 206 214 220 215 219 217 205 216 219 217 218 219 204 218 218 219 217 221 203 220 217 221 216 223 202 222 216 223 215 225 214 241 200 226 215 225 200 226 214 241 213 228 199 227 213 228 212 230 198 229 212 230 211 232 197 231 211 232 210 209 210 209 224 246 237 234 223 233 237 234 236 235 235 236 221 213 236 235 234 237 220 215 235 236 233 262 219 217 234 237 219 217 233 262 232 238 218 219 232 238 231 239 230 240 216 223 231 239 229 267 215 225 230 240 215 225 229 267 228 242 214 241 228 242 227 243 213 228 227 243 226 244 225 245 211 232 226 244 224 246 210 209 225 245 237 234 224 246 242 248 242 248 241 253 236 235 225 245 226 244 239 250 224 246 225 245 238 247 243 251 247 252 242 248 247 252 246 313 241 253 239 250 240 249 244 255 238 247 239 250 243 251 342 362 360 256 248 258 258 259 257 260 234 237 233 262 234 237 256 261 232 238 233 262 255 263 231 239 232 238 254 264 254 264 253 265 230 240 229 267 230 240 252 266 252 266 251 268 228 242 227 243 228 242 250 269 267 270 266 271 257 260 266 271 265 272 256 261 265 272 264 273 255 263 264 273 263 274 254 264 253 265 254 264 262 275 262 275 261 276 252 266 251 268 252 266 260 277 250 269 251 268 259 278 269 279 268 281 250 269 271 280 270 283 268 281 273 282 272 287 270 283 277 404 276 284 274 286 276 284 277 404 272 287 267 270 258 259 279 289 279 289 278 288 281 291 285 295 284 292 283 294 281 291 280 290 285 295 259 278 260 277 200 226 201 224 200 226 261 276 261 276 262 275 202 222 262 275 263 274 203 220 263 274 264 273 204 218 264 273 265 272 205 216 265 272 266 271 206 214 266 271 267 270 207 212 279 289 208 210 267 270 303 351 299 296 295 298 299 296 303 351 302 300 298 299 302 300 301 302 297 301 301 302 300 304 292 309 289 305 291 307 293 311 288 308 292 309 294 353 287 310 293 311 287 310 294 353 295 298 305 312 304 315 246 313 307 314 306 326 304 315 306 326 307 314 308 317 311 318 310 319 308 317 313 114 312 126 310 319 315 321 308 317 310 319 284 292 314 323 316 322 314 323 315 321 317 320 319 324 318 325 236 235 278 288 318 325 319 324 318 325 278 288 258 259 319 324 241 253 304 315 306 326 280 290 319 324 315 321 314 323 306 326 281 291 285 295 321 328 321 328 320 329 279 289 321 328 273 282 320 329 321 328 322 327 276 284 320 329 209 207 279 289 320 329 271 280 209 207 209 207 269 279 259 278 198 229 197 231 199 227 310 319 312 126 323 331 327 129 325 128 326 332 329 131 327 129 328 333 331 133 329 131 330 334 285 295 283 294 322 327 323 331 326 332 283 294 275 285 322 327 332 135 336 335 335 336 270 283 240 249 270 283 335 336 226 244 268 281 270 283 227 243 250 269 268 281 341 338 340 343 335 336 290 306 342 362 339 339 355 340 343 357 291 307 341 338 338 337 357 342 356 344 355 340 339 339 357 342 356 344 340 343 352 345 330 334 353 346 357 342 354 341 359 347 352 345 333 348 358 152 347 350 351 352 303 351 351 352 350 359 302 300 346 354 347 350 295 298 294 353 293 311 346 354 293 311 292 309 345 355 343 357 344 356 292 309 349 358 348 366 300 304 301 302 302 300 349 358 330 334 352 345 358 152 352 345 354 341 338 337 361 361 360 256 296 303 290 306 296 303 360 256 339 339 342 362 248 258 340 343 248 258 245 254 248 258 249 257 247 252 289 305 297 301 296 303 288 308 298 299 297 301 287 310 299 296 298 299 364 363 365 167 313 114 311 318 309 316 364 363 362 365 363 364 309 316 300 304 348 366 361 361 323 331 324 330 367 165 368 368 369 371 362 365 371 369 372 171 365 167 370 370 371 369 364 363 363 364 362 365 370 370 367 165 371 369 370 370 389 399 375 372 388 374 397 398 383 375 398 377 376 379 390 397 391 380 382 382 396 394 387 383 393 388 379 384 392 386 394 390 380 387 393 388 395 396 381 389 394 390 399 395 385 391 400 393 373 381 387 383 388 374 392 386 378 385 391 380 383 375 397 398 396 394 398 377 384 376 399 395 400 393 386 392 395 396 375 372 389 399 390 397 346 354 345 355 400 393 345 355 344 356 399 395 344 356 343 357 398 377 400 393 395 396 347 350 395 396 394 390 351 352 394 390 393 388 350 359 393 388 392 386 349 358 343 357 355 340 397 398 368 368 349 358 392 386 369 371 401 401 366 367 390 397 401 401 369 371 404 403 389 399 403 400 387 383 402 402 403 400 401 401 404 403 328 333 402 402 387 383 355 340 389 399 404 403 401 401 359 347 353 346 330 334 403 400 356 344 357 342 373 381 383 375 382 382 383 375 385 391 384 376 373 381 385 391 383 375 386 392 379 384 380 387 386 392 378 385 379 384 386 392 377 378 378 385 374 373 385 391 373 381 376 379 377 378 386 392 374 373 375 372 385 391 375 372 376 379 385 391 376 379 386 392 385 391</p>
        </polylist>
        <polylist material="Gummi_006-material" count="16">
          <input semantic="VERTEX" source="#Circle_004-mesh-vertices" offset="0"/>
          <input semantic="NORMAL" source="#Circle_004-mesh-normals" offset="1"/>
          <vcount>3 3 3 3 3 3 3 3 3 3 3 3 3 3 3 3 </vcount>
          <p>79 124 129 151 332 135 81 75 76 77 133 139 78 76 81 75 132 159 78 76 132 159 129 151 275 285 332 135 333 348 277 404 338 337 272 287 274 286 337 360 277 404 274 286 275 285 333 348 129 151 334 349 332 135 76 77 131 136 133 139 81 75 133 139 132 159 79 124 78 76 129 151 332 135 334 349 333 348 338 337 336 335 272 287 337 360 338 337 277 404 337 360 274 286 333 348</p>
        </polylist>
      </mesh>
    </geometry>
  </library_geometries>
  <library_controllers/>
  <library_visual_scenes>
    <visual_scene id="Scene" name="Scene">
      <node id="VIS_hollie_left_hand_p" name="VIS_hollie_left_hand_p" type="NODE">
        <instance_geometry url="#Circle_004-mesh" name="VIS_hollie_left_hand_p">
          <bind_material>
            <technique_common>
              <instance_material symbol="Metall_Alu_006-material" target="#Metall_Alu_006-material"/>
              <instance_material symbol="Gummi_006-material" target="#Gummi_006-material"/>
            </technique_common>
          </bind_material>
        </instance_geometry>
      </node>
    </visual_scene>
  </library_visual_scenes>
  <scene>
    <instance_visual_scene url="#Scene"/>
  </scene>
</COLLADA>