<?xml version="1.0" encoding="utf-8"?>
<COLLADA xmlns="http://www.collada.org/2005/11/COLLADASchema" version="1.4.1">
  <asset>
    <contributor>
      <author>Blender User</author>
      <authoring_tool>Blender 2.77.0 commit date:2016-04-05, commit time:18:12, hash:abf6f08</authoring_tool>
    </contributor>
    <created>2017-08-03T09:55:39</created>
    <modified>2017-08-03T09:55:39</modified>
    <unit name="meter" meter="1"/>
    <up_axis>Z_UP</up_axis>
  </asset>
  <library_images>
    <image id="PBRFULL_WoodWall-material_Base_Color_jpg" name="PBRFULL_WoodWall-material_Base_Color_jpg">
      <init_from>PBRFULL_WoodWall-material_Base_Color.jpg</init_from>
    </image>
  </library_images>
  <library_effects>
    <effect id="PBRFULL_WoodWall-effect">
      <profile_COMMON>
        <newparam sid="PBRFULL_WoodWall-material_Base_Color_jpg-surface">
          <surface type="2D">
            <init_from>PBRFULL_WoodWall-material_Base_Color_jpg</init_from>
          </surface>
        </newparam>
        <newparam sid="PBRFULL_WoodWall-material_Base_Color_jpg-sampler">
          <sampler2D>
            <source>PBRFULL_WoodWall-material_Base_Color_jpg-surface</source>
          </sampler2D>
        </newparam>
        <technique sid="common">
          <phong>
            <emission>
              <color sid="emission">0 0 0 1</color>
            </emission>
            <ambient>
              <color sid="ambient">0 0 0 1</color>
            </ambient>
            <diffuse>
              <texture texture="PBRFULL_WoodWall-material_Base_Color_jpg-sampler"/>
            </diffuse>
            <specular>
              <color sid="specular">0.5 0.5 0.5 1</color>
            </specular>
            <shininess>
              <float sid="shininess">50</float>
            </shininess>
            <index_of_refraction>
              <float sid="index_of_refraction">1</float>
            </index_of_refraction>
          </phong>
        </technique>
      </profile_COMMON>
    </effect>
  </library_effects>
  <library_materials>
    <material id="PBRFULL_WoodWall-material" name="PBRFULL_WoodWall">
      <instance_effect url="#PBRFULL_WoodWall-effect"/>
    </material>
  </library_materials>
  <library_geometries>
    <geometry id="Cube-mesh" name="Cube">
      <mesh>
        <source id="Cube-mesh-positions">
          <float_array id="Cube-mesh-positions-array" count="678">0.9774641 0.1824313 0.004895389 0.9774641 -0.1824313 0.004895389 -0.9774643 -0.1824313 0.004895389 -0.9774638 0.1824314 0.004895389 0.9774646 0.1824312 2.004895 0.9774635 -0.1824314 2.004895 -0.9774645 -0.1824312 2.004895 -0.9774641 0.1824313 2.004895 -0.9774641 -0.146119 0.004895389 0.9774637 -0.1461181 2.004895 -0.9774643 -0.1461181 2.004895 0.9774642 -0.146119 0.004895389 -0.9774639 0.1467187 0.004895389 0.9774642 0.147198 0.004895389 -0.9774641 0.1467187 2.004895 0.9774644 0.1471979 2.004895 0.9774644 0.1471979 1.981704 0.9774637 -0.1461181 1.981704 0.9774642 0.147198 0.004895389 0.9774642 -0.146119 0.004895389 -0.9774643 -0.1461181 1.981704 -0.9774641 -0.146119 0.004895389 -0.9774639 0.1467187 0.004895389 -0.9774641 0.1467187 1.981704 0.9774642 0.147198 0.004895389 0.9774642 -0.146119 0.004895389 -0.9774641 -0.146119 0.004895389 -0.9774639 0.1467187 0.004895389 -0.9999998 -0.146119 0.004895389 -1 -0.1461181 1.979061 -0.9999998 0.1467187 1.979061 -0.9999995 0.1467187 0.004895389 0.9999998 0.147198 0.004895389 1 0.1471979 1.979061 0.9999993 -0.1461181 1.979061 0.9999998 -0.146119 0.004895389 -0.9774639 0.1824313 0.9817405 0.9999995 -0.1461186 0.9817406 0.977464 -0.1461186 0.9817402 0.9774643 0.1471979 0.9817404 0.9774644 0.1824313 0.9817405 0.9774643 0.1471979 0.9817402 -0.9999999 -0.1461186 0.9817404 0.9999999 0.1471979 0.9817404 -0.9774642 -0.1461186 0.9817404 0.9774639 -0.1824314 0.9817405 -0.977464 0.1467187 0.9817402 0.977464 -0.1461186 0.9817402 -0.9999997 0.1467187 0.9817406 -0.9774642 -0.1461186 0.9817402 -0.977464 0.1467187 0.9817404 0.977464 -0.1461186 0.9817404 -0.9774644 -0.1824313 0.9817405 0.9774643 0.1471979 0.9817402 -0.9774642 -0.1461186 0.9817402 -0.977464 0.1467187 0.9817402 0.9774639 -0.1461184 1.467868 0.9774643 0.1471979 1.467868 -0.977464 0.1824313 1.467867 -0.9774643 -0.1461183 1.467868 -0.9999999 -0.1461183 1.467867 0.9774645 0.1824312 1.467867 -0.9774641 0.1467187 1.467868 -0.9774643 -0.1461183 1.467868 1 0.1471979 1.467867 -0.9774641 0.1467187 1.467867 0.9774637 -0.1824314 1.467867 0.9774639 -0.1461184 1.467868 -0.9774643 -0.1461183 1.467867 -0.9999997 0.1467187 1.467867 0.9774639 -0.1461184 1.467867 0.9774643 0.1471979 1.467867 0.9999994 -0.1461184 1.467867 -0.9774641 0.1467187 1.467868 -0.9774644 -0.1824313 1.467867 -0.977464 0.1467187 0.4694038 0.9774641 -0.1461188 0.4694035 0.9774642 0.1471979 0.4694035 -0.9999995 0.1467187 0.4694038 -0.9774639 0.1824314 0.4694038 0.9774642 0.1471979 0.4694035 -0.9999998 -0.1461188 0.4694038 0.9999997 -0.1461188 0.4694035 0.9999999 0.1471979 0.4694035 -0.9774642 -0.1461188 0.4694038 -0.977464 0.1467187 0.4694038 0.9774641 -0.1461188 0.4694035 0.977464 -0.1824313 0.4694035 -0.9774642 -0.1461188 0.4694038 -0.977464 0.1467187 0.4694038 0.9774641 -0.1461188 0.4694035 -0.9774643 -0.1824313 0.4694038 0.9774643 0.1824313 0.4694035 -0.9774642 -0.1461188 0.4694038 0.9774642 0.1471979 0.4694035 -0.9774644 -0.1824313 1.426866 0.9774639 -0.1461184 1.426865 0.9774643 0.1471979 1.426865 0.9774643 0.1471979 1.426866 -0.9774643 -0.1461184 1.426866 -0.9999997 0.1467187 1.426866 -0.9999999 -0.1461184 1.426866 -0.9774641 0.1467187 1.426866 -0.9774643 -0.1461184 1.426866 1 0.1471979 1.426866 -0.977464 0.1824313 1.426866 -0.9774641 0.1467187 1.426866 -0.9774643 -0.1461184 1.426866 0.9774639 -0.1461184 1.426865 0.9999994 -0.1461184 1.426865 0.9774637 -0.1824314 1.426866 0.9774643 0.1471979 1.426866 0.9774639 -0.1461184 1.426866 -0.9774641 0.1467187 1.426866 0.9774645 0.1824312 1.426866 0.977464 -0.1461187 0.9425644 -0.9774642 -0.1461187 0.9425646 -0.9999997 0.1467187 0.9425647 -0.977464 0.1467187 0.9425646 -0.9774639 0.1824313 0.9425647 0.977464 -0.1461187 0.9425644 0.9774643 0.1471979 0.9425644 0.9999995 -0.1461187 0.9425645 -0.9774642 -0.1461187 0.9425646 -0.9999999 -0.1461187 0.9425646 -0.977464 0.1467187 0.9425646 0.9774639 -0.1824314 0.9425645 0.977464 -0.1461187 0.9425644 -0.9774642 -0.1461187 0.9425646 -0.9774644 -0.1824313 0.9425647 -0.977464 0.1467187 0.9425646 0.9999999 0.1471979 0.9425644 0.9774643 0.1471979 0.9425644 0.9774644 0.1824313 0.9425645 0.9774641 -0.1461188 0.4262984 0.9774642 0.1471979 0.4262984 -0.9999995 0.1467187 0.4262988 -0.9774643 -0.1824313 0.4262988 -0.9774639 0.1824314 0.4262988 0.9774642 0.1471979 0.4262984 -0.9999998 -0.1461188 0.4262988 0.9774643 0.1824313 0.4262984 0.9999999 0.1471979 0.4262984 -0.9774642 -0.1461188 0.4262988 0.977464 -0.1824313 0.4262984 -0.977464 0.1467187 0.4262987 0.9774641 -0.1461188 0.4262984 0.9999997 -0.1461188 0.4262984 -0.9774642 -0.1461188 0.4262987 -0.977464 0.1467187 0.4262988 0.9774641 -0.1461188 0.4262984 0.9774642 0.1471979 0.4262984 -0.9774642 -0.1461188 0.4262987 -0.977464 0.1467187 0.4262987 -0.9774639 0.1824313 0.9817405 0.9774644 0.1824313 0.9817405 0.9774644 0.1824313 0.9425645 -0.9774639 0.1824313 0.9425647 -0.977464 0.1824313 1.467867 0.9774645 0.1824312 1.467867 0.9774645 0.1824312 1.426866 -0.977464 0.1824313 1.426866 -0.9774639 0.1824314 0.4694038 0.9774643 0.1824313 0.4694035 0.9774643 0.1824313 0.4262984 -0.9774639 0.1824314 0.4262988 -0.9774644 -0.1824313 1.426866 0.9774637 -0.1824314 1.426866 0.9774637 -0.1824314 1.467867 -0.9774644 -0.1824313 1.467867 -0.9774644 -0.1824313 0.9425647 0.9774639 -0.1824314 0.9425645 0.9774639 -0.1824314 0.9817405 -0.9774644 -0.1824313 0.9817405 -0.9774643 -0.1824313 0.4262988 0.977464 -0.1824313 0.4262984 0.977464 -0.1824313 0.4694035 -0.9774643 -0.1824313 0.4694038 0.9774644 0.1824313 0.9817405 -0.9774639 0.1824313 0.9817405 0.9774644 0.1824313 0.9425645 -0.9774639 0.1824313 0.9425647 0.9774645 0.1824312 1.467867 -0.977464 0.1824313 1.467867 0.9774645 0.1824312 1.426866 -0.977464 0.1824313 1.426866 0.9774643 0.1824313 0.4694035 -0.9774639 0.1824314 0.4694038 0.9774643 0.1824313 0.4262984 -0.9774639 0.1824314 0.4262988 0.9774637 -0.1824314 1.426866 -0.9774644 -0.1824313 1.426866 0.9774637 -0.1824314 1.467867 -0.9774644 -0.1824313 1.467867 0.9774639 -0.1824314 0.9425645 -0.9774644 -0.1824313 0.9425647 0.9774639 -0.1824314 0.9817405 -0.9774644 -0.1824313 0.9817405 0.977464 -0.1824313 0.4262984 -0.9774643 -0.1824313 0.4262988 0.977464 -0.1824313 0.4694035 -0.9774643 -0.1824313 0.4694038 -0.9774643 -0.1999999 0.4262988 0.977464 -0.1999999 0.4262984 0.977464 -0.1999999 0.4694035 -0.9774643 -0.1999999 0.4694038 -0.9774644 -0.1999999 0.9425647 0.9774639 -0.1999999 0.9425645 0.9774639 -0.1999999 0.9817405 -0.9774644 -0.1999999 0.9817405 -0.9774644 -0.1999999 1.426866 0.9774637 -0.2 1.426866 0.9774637 -0.2 1.467867 -0.9774644 -0.1999999 1.467867 -0.9774639 0.1999999 0.4694038 0.9774643 0.1999999 0.4694035 0.9774643 0.1999999 0.4262984 -0.9774639 0.1999999 0.4262988 -0.977464 0.1999999 1.467867 0.9774645 0.1999998 1.467867 0.9774645 0.1999998 1.426866 -0.977464 0.1999999 1.426866 -0.9774639 0.1999999 0.9817405 0.9774644 0.1999999 0.9817405 0.9774644 0.1999999 0.9425645 -0.9774639 0.1999999 0.9425647</float_array>
          <technique_common>
            <accessor source="#Cube-mesh-positions-array" count="226" stride="3">
              <param name="X" type="float"/>
              <param name="Y" type="float"/>
              <param name="Z" type="float"/>
            </accessor>
          </technique_common>
        </source>
        <source id="Cube-mesh-normals">
          <float_array id="Cube-mesh-normals-array" count="591">0 3.17196e-7 -1 0 0 1 1 -1.4715e-6 -2.82887e-7 0 -1 0 -1 3.89519e-6 -2.82888e-7 0 1 0 0 -1 0 1 0 4.2433e-7 0 -3.07771e-7 -1 -1 2.50884e-6 -2.82886e-7 0 0 -1 2.45134e-4 -1 0 0 1 0 -1 0 0 -1 9.66018e-7 0 0 -1 5.2278e-7 -0.1165086 0 0.9931897 0 1 0 0 0 -1 1 0 2.82887e-7 0 1 0 0.1164981 -2.79871e-7 0.993191 0 -1 5.39382e-7 1 0 0 -1 3.68756e-6 -2.67813e-7 1 -7.37506e-6 4.01716e-7 -1 0 -2.6781e-7 -1 4.57269e-7 0 0 1 0 0 -1 5.48365e-7 0 -1 0 0 -1 1.58236e-6 0 1 0 1 -1.36957e-6 2.67812e-7 1 0 3.32969e-7 0 -1 0 -1 6.11292e-6 0 -1 0 0 -1 7.96342e-7 -2.33198e-7 0 -1 4.42356e-7 1 -2.38512e-6 2.33199e-7 0 -1 5.03963e-7 1 0 -2.2198e-7 1 -3.57534e-6 -2.51942e-7 -1 3.46909e-6 0 -1 3.36837e-6 -1.25971e-7 1 -3.46908e-6 2.51942e-7 -1 8.60349e-7 -2.51943e-7 0 -1 3.41192e-7 0 -1 0 1 0 1.68827e-6 0 -1 0 1 -8.58943e-7 2.51943e-7 0 1 0 -1 0 0 -1 5.0882e-6 0 -1 6.2052e-7 0 0 -1 1.51187e-6 1 -2.47805e-6 0 0 1 0 0 -1 4.64215e-7 1 -5.15743e-6 0 0 -1 1.05491e-6 -1 1.04748e-5 0 1 -4.80926e-6 0 -1 6.49439e-7 0 1 -1.29676e-6 0 0 1 0 0 -1 3.05694e-7 -1 4.89011e-6 0 1 1.76889e-6 0 -1 4.76e-6 0 0 -1 3.92275e-7 -1 4.83995e-6 0 -1 1.1805e-6 0 0 -1 4.79375e-7 0 1 0 1 -5.89286e-7 0 0 1 0 0 -1 0 -1.84181e-7 0 -1 1.32746e-7 0 1 0 -1 0 -1.31936e-7 0 -1 0 0 1 0 -1 0 0 0 -1 0 0 1 0 1 0 1.39552e-7 0 1 -2.03127e-7 0 -1 0 1 0 0 0 1 0 0 -1 0 1 0 0 0 1 0 0 -1 0 3.12938e-7 -1 0 0 1 1 0 0 0 -1 0 -1 7.87812e-6 -1.41443e-7 0 1 0 0 0 1 1 -3.89517e-6 2.82888e-7 0 -3.07771e-7 -1 -1 0 -1.41443e-7 0 0 1 -0.02732443 -0.9996267 0 0.04633212 -0.9989261 0 0.1772351 0.9841686 0 -0.2768715 -0.960907 0 -0.9778773 0.2091794 0 0 1 0 -0.5047413 -0.8632706 0 2.4873e-4 1 0 -1 9.66018e-7 0 0 -1 4.85062e-7 -0.1165087 1.40164e-7 0.9931898 0 1 0 1 -4.8222e-7 -2.82887e-7 0.1165158 -2.79871e-7 0.9931889 0 -1 4.01451e-7 1 -7.60106e-6 -2.6781e-7 -1 7.37508e-6 -1.33905e-7 1 -3.68756e-6 2.67812e-7 -1 3.74952e-6 -2.67811e-7 -1 9.14537e-7 0 0 -1 4.64215e-7 0 -1 0 0 -1 1.58236e-6 1 -1.82609e-6 -2.67811e-7 1 -6.1129e-6 2.21982e-7 -0.01723945 0.9998515 0 0.01077562 -0.999942 0 0 -1 0 0 1 0 -1 0 0 -1 7.9634e-7 -2.33198e-7 0 -1 4.9264e-7 1 -2.38512e-6 0 0 -1 1.00793e-6 1 -6.30028e-6 -2.2198e-7 1 -1.61145e-7 -2.51943e-7 -1 3.62543e-6 -1.25971e-7 -1 3.52735e-6 0 1 -3.3127e-6 2.51943e-7 -1 8.60349e-7 -2.51943e-7 0 -1 3.49369e-7 0 -1 0 1.32244e-6 1 0 -0.4918358 0.870688 -8.30353e-7 0 -1 9.58751e-7 1 -1.28841e-6 0 1 -1.00081e-5 0 -0.2541968 0.9671525 0 0 1 0 -1 5.0041e-6 0 -1 1.24106e-6 0 0 -1 5.03963e-7 1 -1.85853e-6 0 0 1 0 0 -1 5.10636e-7 1 -5.1574e-6 0 0 -1 5.27448e-7 -1 4.27949e-7 0 1 0 0 -1 1.2989e-6 0 -0.2705038 -0.962719 0 1 -1.29677e-6 0 0 1 1.28875e-7 0 -1 3.9304e-7 1 -5.83882e-6 0 -1 -5.32538e-6 0 1 -4.90579e-6 0 -1 4.76e-6 0 0 -1 4.90347e-7 1 -6.47631e-6 0 -1 4.83993e-6 0 -1 5.90247e-7 0 0 -1 4.79371e-7 0 1 0 1 -1.17857e-6 0 0 1 0 0 -1 0 -1.89815e-7 0 -1 2.16931e-7 0 1 0 -1 0 0 -1 0 -2.16931e-7 0 -1 0 1 0 1.62699e-7 0 1 -1.62699e-7 0 -1 0 1 0 0 0 -1 0 1 0 0 0 -1</float_array>
          <technique_common>
            <accessor source="#Cube-mesh-normals-array" count="197" stride="3">
              <param name="X" type="float"/>
              <param name="Y" type="float"/>
              <param name="Z" type="float"/>
            </accessor>
          </technique_common>
        </source>
        <source id="Cube-mesh-map-0">
          <float_array id="Cube-mesh-map-0-array" count="2682">0.01373392 0.4993716 0.004973053 0.9838728 0.004973053 0.4993717 0.7219327 0.9838727 0.7131717 0.4993713 0.7219325 0.4993712 0.7596154 0.6038101 0.7508544 0.4993712 0.7596154 0.4993712 0.281987 0.4993713 0.1772035 0.9838724 0.1772036 0.4993712 0.3071376 0.4993715 0.2981083 0.6038104 0.2981083 0.4993715 0.004973053 0.4894582 0.1385069 0.004956662 0.1385069 0.4894582 0 0 0 0 0 0 0.7409083 0.9838725 0.7318788 0.4993713 0.7409082 0.4993712 0.995027 0.004956662 0.9859977 0.1093955 0.9859977 0.004956722 0.08666825 0.983873 0.0956974 0.4993717 0.0956974 0.983873 0.7784416 0.6038101 0.7695615 0.4993712 0.7784416 0.4993712 0 0 0 0 0 0 0 0 0 0 0 0 0.01385313 0.9838729 0.08666825 0.4993716 0.08666825 0.983873 0 0 0 0 0 0 0.9759323 0.4950432 0.9031173 0.01054197 0.9760514 0.01054179 0 0 0 0 0 0 0 0 0 0 0 0 0.6720069 0.4993713 0.6720069 0.4993712 0.6720069 0.6198511 0 0 0 0 0 0 0.6110014 0.9838728 0.6052348 0.4993716 0.6110013 0.4993715 0.6209475 0.4993715 0.6267142 0.9838729 0.6209475 0.9838729 0 0 0 0 0 0 0 0 0 0 0 0 0 0 0 0 0 0 0.6578136 0.6038104 0.6578136 0.6144934 0.6578136 0.7414687 0.3367711 0.8842017 0.4095863 0.9886406 0.3367711 0.9886406 0.6522101 0.9886406 0.6578136 0.8619485 0.6578136 0.9892957 0.9759323 0.5006284 0.9031174 0.4950433 0.9759323 0.4950432 0.6819531 0.9892955 0.6875566 0.8848566 0.6875567 0.9892955 0.9087209 0.6657255 0.9031173 0.5931498 0.9087209 0.5931497 0.5371855 0.4993713 0.4642513 0.6038101 0.4642512 0.4993713 0.7031064 0.5000264 0.6975029 0.6267185 0.6975029 0.4993712 0.9031173 0.004956841 0.9760514 0.01054179 0.9031173 0.01054197 0.6366603 0.4993715 0.6422639 0.6038104 0.6366603 0.6038104 0.9087209 0.5105419 0.9031173 0.5832363 0.9031173 0.5105419 0.7596154 0.7414686 0.7508545 0.8517864 0.7508545 0.7414685 0.3071376 0.7414689 0.2981082 0.8517868 0.2981083 0.7414688 0.9859976 0.247054 0.995027 0.3573719 0.9859976 0.3573719 0.7695615 0.7414686 0.7784416 0.8517865 0.7695615 0.8517865 0 0 0 0 0 0 0 0 0 0 0 0 0 0 0 0 0 0 0.4095861 0.7465433 0.3367711 0.6362254 0.4095861 0.6362254 0.6975028 0.7471982 0.7031064 0.7569074 0.6975028 0.7569074 0.6422639 0.7414689 0.6366603 0.8517867 0.6366603 0.7414687 0.6677597 0.4894578 0.7784416 0.004956722 0.7784416 0.4894578 0 0 0 0 0 0 0.6578136 0.7414687 0.65221 0.7317596 0.6578136 0.7317597 0.6819531 0.7471982 0.6875566 0.6368802 0.6875566 0.7471983 0.5371856 0.7414686 0.4642514 0.8517865 0.4642513 0.7414686 0.995027 0.3675336 0.9859975 0.5006285 0.9859976 0.3675336 0 0 0 0 0 0 0.1484531 0.4894577 0.2819869 0.004956722 0.281987 0.4894578 0 0 0 0 0 0 0.6875566 0.6267185 0.6819531 0.5000264 0.6875566 0.4993712 0 0 0 0 0 0 0.7031064 0.6267185 0.6975029 0.6368803 0.6975029 0.6267185 0.2981082 0.8619485 0.3071376 0.9950433 0.2981082 0.9950433 0.7784416 0.8619482 0.7695616 0.995043 0.7695615 0.8619483 0.4095861 0.6260637 0.3367711 0.4993715 0.409586 0.4993715 0.6366603 0.8619486 0.6422639 0.9886406 0.6366603 0.9892957 0.4642514 0.8619483 0.5371856 0.9886403 0.4642515 0.9886404 0.65221 0.8619484 0.6578136 0.8517868 0.6578136 0.8619485 0.7596154 0.8619482 0.7508545 0.995043 0.7508545 0.8619483 0.7596154 0.614493 0.7508545 0.7317593 0.7508544 0.614493 0.3071376 0.6144934 0.2981083 0.7317596 0.2981083 0.6144934 0 0 0 0 0 0 0.6975028 0.8741737 0.7031064 0.8848567 0.6975028 0.8848567 0.7695615 0.6144931 0.7784416 0.7317594 0.7695615 0.7317593 0.995027 0.1200785 0.9859976 0.2373448 0.9859977 0.1200785 0 0 0 0 0 0 0.4095862 0.8735187 0.3367711 0.7562525 0.4095861 0.7562525 0.6422639 0.6144933 0.6366603 0.7317596 0.6366603 0.6144933 0.4195324 0.4894578 0.5371855 0.004956722 0.5371855 0.4894579 0 0 0 0 0 0 0.65221 0.6144934 0.6578136 0.6038104 0.6578136 0.6144934 0 0 0 0 0 0 0.6819531 0.8741737 0.6875566 0.7569074 0.6875566 0.8741737 0.5371855 0.6144931 0.4642513 0.7317593 0.4642513 0.6144931 0.995027 0.3573719 0.9859976 0.3675336 0.9859976 0.3573719 0 0 0 0 0 0 0.6875566 0.6368802 0.6819531 0.6267185 0.6875566 0.6267185 0.6975029 0.6368803 0.7031064 0.7471982 0.6975028 0.7471982 0.2981082 0.8517868 0.3071376 0.8619485 0.2981082 0.8619485 0.7784416 0.8517865 0.7695615 0.8619483 0.7695615 0.8517865 0.4095861 0.6362254 0.3367711 0.6260637 0.4095861 0.6260637 0.6366603 0.8517867 0.6422639 0.8619485 0.6366603 0.8619486 0.5371856 0.8517865 0.4642514 0.8619483 0.4642514 0.8517865 0 0 0 0 0 0 0 0 0 0 0 0 0.5471317 0.004956662 0.6578136 0.4894581 0.5471317 0.4894582 0.6578136 0.8517868 0.65221 0.7414688 0.6578136 0.7414687 0.7596154 0.8517865 0.7508545 0.8619483 0.7508545 0.8517864 0.6422639 0.7317596 0.6366603 0.7414687 0.6366603 0.7317596 0 0 0 0 0 0 0 0 0 0 0 0 0.6975028 0.7569074 0.7031064 0.8741737 0.6975028 0.8741737 0.6819531 0.7569074 0.6875566 0.7471983 0.6875566 0.7569074 0.3071376 0.7317596 0.2981083 0.7414688 0.2981083 0.7317596 0.9859976 0.2373448 0.995027 0.2470539 0.9859976 0.247054 0.4095861 0.7562525 0.3367711 0.7465434 0.4095861 0.7465433 0 0 0 0 0 0 0.4642513 0.7317593 0.5371856 0.7414686 0.4642513 0.7414686 0.4095862 0.4894581 0.2919331 0.004956781 0.4095862 0.004956662 0.65221 0.7317596 0.6578136 0.6144934 0.6578136 0.7317597 0.7596154 0.7317593 0.7508545 0.7414685 0.7508545 0.7317593 0.7695615 0.7317593 0.7784416 0.7414685 0.7695615 0.7414686 0.7508544 0.6038101 0.7596154 0.614493 0.7508544 0.614493 0.3071376 0.6038104 0.2981083 0.6144934 0.2981083 0.6038104 0.6578136 0.6038104 0.65221 0.4993715 0.6578136 0.4993715 0.995027 0.1093955 0.9859977 0.1200785 0.9859977 0.1093955 0.7695615 0.6038101 0.7784416 0.6144931 0.7695615 0.6144931 0.3367711 0.8842017 0.4095862 0.8735187 0.4095862 0.8842017 0.6422639 0.6038104 0.6366603 0.6144933 0.6366603 0.6038104 0.7883878 0.489458 0.8931711 0.004956662 0.8931712 0.489458 0 0 0 0 0 0 0.6819531 0.8848566 0.6875566 0.8741737 0.6875566 0.8848566 0.5371855 0.6038101 0.4642513 0.6144931 0.4642513 0.6038101 0 0 0 0 0 0 0.6975028 0.8848567 0.7031064 0.9892954 0.6975028 0.9892954 0 0 0 0 0 0 0 0 0 0 0 0 0 0 0 0 0 0 0 0 0 0 0 0 0 0 0 0 0 0 0 0 0 0 0 0 0 0 0 0 0 0 0 0 0 0 0 0 0 0 0 0 0 0 0 0 0 0 0 0 0 0 0 0 0 0 0 0 0 0 0 0 0 0 0 0 0 0 0 0 0 0 0 0 0 0 0 0 0 0 0 0 0 0 0 0 0 0 0 0 0 0 0 0 0 0 0 0 0 0 0 0 0 0 0 0 0 0 0 0 0 0 0 0 0 0 0 0 0 0 0 0 0 0 0 0 0 0 0 0 0 0 0 0 0 0 0 0 0 0 0 0 0 0 0 0 0 0 0 0 0 0 0 0 0 0 0 0 0 0 0 0 0 0 0 0 0 0 0 0 0 0 0 0 0 0 0 0 0 0 0 0 0 0 0 0 0 0 0 0 0 0 0 0 0 0 0 0 0 0 0 0 0 0 0 0 0 0 0 0 0 0 0 0 0 0 0 0 0 0 0 0 0 0 0 0 0 0 0 0 0 0 0 0 0 0 0 0 0 0 0 0 0 0 0 0 0 0 0 0 0 0 0 0 0 0 0 0 0 0 0 0 0 0 0 0 0 0 0 0 0 0 0 0 0 0 0 0 0 0 0 0 0 0 0.1672574 0.9838724 0.156539 0.4993712 0.1672573 0.4993712 0.8502271 0.4993715 0.8458586 0.9838728 0.8458586 0.4993715 0.9074859 0.6756389 0.9031173 0.6863219 0.9031173 0.6756389 0.8744879 0.9838728 0.8788564 0.4993715 0.8788564 0.9838728 0.9031173 0.7275147 0.9074859 0.7168318 0.9074859 0.7275147 0.4341636 0.9838724 0.4244223 0.4993713 0.4341635 0.4993713 0.8359125 0.4993715 0.831544 0.9838728 0.831544 0.4993715 0.9031173 0.8676572 0.9074858 0.857948 0.9074858 0.8676572 0.5766054 0.9838728 0.5809738 0.4993715 0.5809739 0.9838728 0.9031173 0.8872799 0.9074859 0.8775706 0.9074859 0.8872799 0.4543051 0.9838724 0.4441097 0.4993713 0.454305 0.4993713 0.8645417 0.4993715 0.8601732 0.9838728 0.8601732 0.4993715 0.9031173 0.7681863 0.9074859 0.7580246 0.9074859 0.7681863 0.5909202 0.9838728 0.5952886 0.4993715 0.5952886 0.9838728 0.9074859 0.798175 0.9031173 0.8083367 0.9031174 0.798175 0.1277887 0.4993716 0.1385069 0.983873 0.1277887 0.983873 0.8931711 0.4993715 0.8888027 0.9838728 0.8888026 0.4993715 0.9031173 0.7069183 0.9074859 0.6962353 0.9074859 0.7069183 0.8029147 0.9838728 0.8072833 0.4993715 0.8072832 0.9838728 0.9074858 0.7374281 0.9031173 0.7481111 0.9031173 0.7374282 0.1158389 0.9838731 0.1056436 0.4993716 0.1158388 0.4993716 0.5523443 0.4993715 0.547976 0.983873 0.5479758 0.4993715 0.9031174 0.8284118 0.9074858 0.8182501 0.9074859 0.8284118 0.7886002 0.9838728 0.7929686 0.4993715 0.7929686 0.9838728 0.9074859 0.7780998 0.9031174 0.7882615 0.9031173 0.7780998 0.326825 0.9838729 0.3170837 0.4993715 0.326825 0.4993715 0.5666591 0.4993715 0.5622907 0.9838729 0.5622906 0.4993715 0.9031173 0.8480345 0.9074859 0.8383253 0.9074859 0.8480345 0.8172294 0.9838728 0.8215979 0.4993715 0.8215979 0.9838728 0.9074858 0.8971933 0.9031173 0.9069025 0.9031173 0.8971933 0.01373392 0.4993716 0.01385313 0.9838729 0.004973053 0.9838728 0.7219327 0.9838727 0.7130526 0.9838727 0.7131717 0.4993713 0.7596154 0.6038101 0.7508544 0.6038101 0.7508544 0.4993712 0.281987 0.4993713 0.281987 0.9838724 0.1772035 0.9838724 0.3071376 0.4993715 0.3071376 0.6038104 0.2981083 0.6038104 0.004973053 0.4894582 0.004973053 0.004956722 0.1385069 0.004956662 0 0 0 0 0 0 0.7409083 0.9838725 0.7318789 0.9838725 0.7318788 0.4993713 0.995027 0.004956662 0.995027 0.1093955 0.9859977 0.1093955 0.08666825 0.983873 0.08666825 0.4993716 0.0956974 0.4993717 0.7784416 0.6038101 0.7695615 0.6038101 0.7695615 0.4993712 0 0 0 0 0 0 0 0 0 0 0 0 0 0 0 0 0 0 0 0 0 0 0 0 0 0 0 0 0 0 0 0 0 0 0 0 0 0 0 0 0 0 0 0 0 0 0 0 0 0 0 0 0 0 0 0 0 0 0 0 0 0 0 0 0 0 0 0 0 0 0 0 0.01385313 0.9838729 0.01373392 0.4993716 0.08666825 0.4993716 0.9759323 0.4950432 0.9031174 0.4950433 0.9031173 0.01054197 0 0 0 0 0 0 0 0 0 0 0 0 0 0 0 0 0 0 0 0 0 0 0 0 0 0 0 0 0 0 0 0 0 0 0 0 0 0 0 0 0 0 0 0 0 0 0 0 0 0 0 0 0 0 0 0 0 0 0 0 0.6720069 0.7471983 0.6720069 0.7529458 0.6720069 0.6198511 0.6720069 0.6198511 0.6720069 0.6096893 0.6720069 0.4993713 0.6720069 0.6198511 0.6720069 0.7471983 0.6720069 0.6198511 0.6720069 0.4993712 0.6720069 0.6096892 0.6720069 0.6198511 0.6720069 0.6198511 0.6720069 0.6198511 0.6720069 0.4993713 0 0 0 0 0 0 0.6110014 0.9838728 0.6052349 0.9838728 0.6052348 0.4993716 0.6209475 0.4993715 0.6267141 0.4993715 0.6267142 0.9838729 0 0 0 0 0 0 0 0 0 0 0 0 0.6578136 0.6144934 0.6578136 0.7317597 0.6578136 0.7414687 0.6578136 0.8517868 0.6578136 0.8619485 0.6578136 0.9892957 0.6578136 0.6038104 0.6578136 0.4993715 0.6578136 0.4993715 0.6578136 0.7317597 0.6578136 0.6144934 0.6578136 0.6038104 0.6578136 0.7414687 0.6578136 0.7317597 0.6578136 0.6038104 0.6578136 0.6038104 0.6578136 0.4993715 0.6578136 0.6038104 0.6578136 0.7414687 0.6578136 0.6038104 0.6578136 0.6038104 0.6578136 0.8517868 0.6578136 0.9892957 0.6578136 0.8619485 0.6578136 0.8517868 0.6578136 0.8619485 0.6578136 0.8517868 0.6578136 0.8517868 0.6578136 0.8517868 0.6578136 0.7414687 0.6578136 0.7414687 0.6578136 0.8517868 0.6578136 0.7414687 0.6578136 0.6144934 0.6578136 0.7414687 0.6578136 0.7414687 0.3367711 0.8842017 0.4095862 0.8842017 0.4095863 0.9886406 0.6522101 0.9886406 0.65221 0.8619484 0.6578136 0.8619485 0.9759323 0.5006284 0.9031174 0.5006284 0.9031174 0.4950433 0.6819531 0.9892955 0.6819531 0.8848566 0.6875566 0.8848566 0.9087209 0.6657255 0.9031173 0.6657255 0.9031173 0.5931498 0.5371855 0.4993713 0.5371855 0.6038101 0.4642513 0.6038101 0.7031064 0.5000264 0.7031064 0.6267185 0.6975029 0.6267185 0.9031173 0.004956841 0.9760514 0.004956662 0.9760514 0.01054179 0.6366603 0.4993715 0.6422639 0.4993715 0.6422639 0.6038104 0.9087209 0.5105419 0.9087209 0.5832363 0.9031173 0.5832363 0.7596154 0.7414686 0.7596154 0.8517865 0.7508545 0.8517864 0.3071376 0.7414689 0.3071376 0.8517868 0.2981082 0.8517868 0.9859976 0.247054 0.995027 0.2470539 0.995027 0.3573719 0.7695615 0.7414686 0.7784416 0.7414685 0.7784416 0.8517865 0 0 0 0 0 0 0 0 0 0 0 0 0 0 0 0 0 0 0 0 0 0 0 0 0 0 0 0 0 0 0.4095861 0.7465433 0.3367711 0.7465434 0.3367711 0.6362254 0.6975028 0.7471982 0.7031064 0.7471982 0.7031064 0.7569074 0.6422639 0.7414689 0.6422639 0.8517867 0.6366603 0.8517867 0.6677597 0.4894578 0.6677597 0.004956662 0.7784416 0.004956722 0 0 0 0 0 0 0.6578136 0.7414687 0.65221 0.7414688 0.65221 0.7317596 0.6819531 0.7471982 0.6819531 0.6368802 0.6875566 0.6368802 0.5371856 0.7414686 0.5371856 0.8517865 0.4642514 0.8517865 0.995027 0.3675336 0.995027 0.5006284 0.9859975 0.5006285 0 0 0 0 0 0 0 0 0 0 0 0 0 0 0 0 0 0 0 0 0 0 0 0 0 0 0 0 0 0 0 0 0 0 0 0 0 0 0 0 0 0 0 0 0 0 0 0 0 0 0 0 0 0 0 0 0 0 0 0 0 0 0 0 0 0 0.1484531 0.4894577 0.1484531 0.004956662 0.2819869 0.004956722 0 0 0 0 0 0 0.6875566 0.6267185 0.6819531 0.6267185 0.6819531 0.5000264 0 0 0 0 0 0 0.7031064 0.6267185 0.7031064 0.6368802 0.6975029 0.6368803 0.2981082 0.8619485 0.3071376 0.8619485 0.3071376 0.9950433 0.7784416 0.8619482 0.7784417 0.995043 0.7695616 0.995043 0.4095861 0.6260637 0.3367711 0.6260637 0.3367711 0.4993715 0.6366603 0.8619486 0.6422639 0.8619485 0.6422639 0.9886406 0.4642514 0.8619483 0.5371856 0.8619482 0.5371856 0.9886403 0.65221 0.8619484 0.65221 0.8517868 0.6578136 0.8517868 0.7596154 0.8619482 0.7596154 0.995043 0.7508545 0.995043 0.7596154 0.614493 0.7596154 0.7317593 0.7508545 0.7317593 0.3071376 0.6144934 0.3071376 0.7317596 0.2981083 0.7317596 0 0 0 0 0 0 0.6975028 0.8741737 0.7031064 0.8741737 0.7031064 0.8848567 0.7695615 0.6144931 0.7784416 0.6144931 0.7784416 0.7317594 0.995027 0.1200785 0.995027 0.2373447 0.9859976 0.2373448 0 0 0 0 0 0 0.4095862 0.8735187 0.3367711 0.8735188 0.3367711 0.7562525 0.6422639 0.6144933 0.6422639 0.7317596 0.6366603 0.7317596 0.4195324 0.4894578 0.4195324 0.004956662 0.5371855 0.004956722 0 0 0 0 0 0 0 0 0 0 0 0 0 0 0 0 0 0 0.65221 0.6144934 0.65221 0.6038104 0.6578136 0.6038104 0 0 0 0 0 0 0.6819531 0.8741737 0.6819531 0.7569074 0.6875566 0.7569074 0.5371855 0.6144931 0.5371856 0.7317593 0.4642513 0.7317593 0.995027 0.3573719 0.995027 0.3675336 0.9859976 0.3675336 0 0 0 0 0 0 0 0 0 0 0 0 0 0 0 0 0 0 0.6875566 0.6368802 0.6819531 0.6368802 0.6819531 0.6267185 0.6975029 0.6368803 0.7031064 0.6368802 0.7031064 0.7471982 0.2981082 0.8517868 0.3071376 0.8517868 0.3071376 0.8619485 0.7784416 0.8517865 0.7784416 0.8619482 0.7695615 0.8619483 0.4095861 0.6362254 0.3367711 0.6362254 0.3367711 0.6260637 0.6366603 0.8517867 0.6422639 0.8517867 0.6422639 0.8619485 0.5371856 0.8517865 0.5371856 0.8619482 0.4642514 0.8619483 0 0 0 0 0 0 0 0 0 0 0 0 0.5471317 0.004956662 0.6578136 0.004956662 0.6578136 0.4894581 0.6578136 0.8517868 0.65221 0.8517868 0.65221 0.7414688 0.7596154 0.8517865 0.7596154 0.8619482 0.7508545 0.8619483 0.6422639 0.7317596 0.6422639 0.7414689 0.6366603 0.7414687 0 0 0 0 0 0 0 0 0 0 0 0 0.6975028 0.7569074 0.7031064 0.7569074 0.7031064 0.8741737 0.6819531 0.7569074 0.6819531 0.7471982 0.6875566 0.7471983 0.3071376 0.7317596 0.3071376 0.7414689 0.2981083 0.7414688 0.9859976 0.2373448 0.995027 0.2373447 0.995027 0.2470539 0.4095861 0.7562525 0.3367711 0.7562525 0.3367711 0.7465434 0 0 0 0 0 0 0.4642513 0.7317593 0.5371856 0.7317593 0.5371856 0.7414686 0.4095862 0.4894581 0.2919331 0.4894581 0.2919331 0.004956781 0.65221 0.7317596 0.65221 0.6144934 0.6578136 0.6144934 0.7596154 0.7317593 0.7596154 0.7414686 0.7508545 0.7414685 0.7695615 0.7317593 0.7784416 0.7317594 0.7784416 0.7414685 0.7508544 0.6038101 0.7596154 0.6038101 0.7596154 0.614493 0.3071376 0.6038104 0.3071376 0.6144934 0.2981083 0.6144934 0.6578136 0.6038104 0.65221 0.6038104 0.65221 0.4993715 0.995027 0.1093955 0.995027 0.1200785 0.9859977 0.1200785 0.7695615 0.6038101 0.7784416 0.6038101 0.7784416 0.6144931 0.3367711 0.8842017 0.3367711 0.8735188 0.4095862 0.8735187 0.6422639 0.6038104 0.6422639 0.6144933 0.6366603 0.6144933 0.7883878 0.489458 0.7883878 0.004956722 0.8931711 0.004956662 0 0 0 0 0 0 0.6819531 0.8848566 0.6819531 0.8741737 0.6875566 0.8741737 0.5371855 0.6038101 0.5371855 0.6144931 0.4642513 0.6144931 0 0 0 0 0 0 0.6975028 0.8848567 0.7031064 0.8848567 0.7031064 0.9892954 0 0 0 0 0 0 0 0 0 0 0 0 0 0 0 0 0 0 0 0 0 0 0 0 0 0 0 0 0 0 0 0 0 0 0 0 0 0 0 0 0 0 0 0 0 0 0 0 0 0 0 0 0 0 0 0 0 0 0 0 0 0 0 0 0 0 0 0 0 0 0 0 0 0 0 0 0 0 0 0 0 0 0 0 0 0 0 0 0 0 0 0 0 0 0 0 0 0 0 0 0 0 0 0 0 0 0 0 0 0 0 0 0 0 0 0 0 0 0 0 0 0 0 0 0 0 0 0 0 0 0 0 0 0 0 0 0 0 0 0 0 0 0 0 0 0 0 0 0 0 0 0 0 0 0 0 0 0 0 0 0 0 0 0 0 0 0 0 0 0 0 0 0 0 0 0 0 0 0 0 0 0 0 0 0 0 0 0 0 0 0 0 0 0 0 0 0 0 0 0 0 0 0 0 0 0 0 0 0 0 0 0 0 0 0 0 0 0 0 0 0 0 0 0 0 0 0 0 0 0 0 0 0 0 0 0 0 0 0 0 0 0 0 0 0 0 0 0 0 0 0 0 0 0 0 0 0 0 0 0 0 0 0 0 0 0 0 0 0 0 0 0 0 0 0 0 0 0 0 0 0 0 0 0 0 0 0 0 0 0 0 0 0 0 0.1672574 0.9838724 0.1565392 0.9838724 0.156539 0.4993712 0.8502271 0.4993715 0.8502271 0.9838728 0.8458586 0.9838728 0.9074859 0.6756389 0.9074859 0.6863219 0.9031173 0.6863219 0.8744879 0.9838728 0.8744879 0.4993715 0.8788564 0.4993715 0.9031173 0.7275147 0.9031173 0.7168318 0.9074859 0.7168318 0.4341636 0.9838724 0.4244224 0.9838724 0.4244223 0.4993713 0.8359125 0.4993715 0.8359125 0.9838728 0.831544 0.9838728 0.9031173 0.8676572 0.9031174 0.857948 0.9074858 0.857948 0.5766054 0.9838728 0.5766053 0.4993715 0.5809738 0.4993715 0.9031173 0.8872799 0.9031174 0.8775706 0.9074859 0.8775706 0.4543051 0.9838724 0.4441099 0.9838724 0.4441097 0.4993713 0.8645417 0.4993715 0.8645417 0.9838728 0.8601732 0.9838728 0.9031173 0.7681863 0.9031174 0.7580246 0.9074859 0.7580246 0.5909202 0.9838728 0.59092 0.4993715 0.5952886 0.4993715 0.9074859 0.798175 0.9074859 0.8083367 0.9031173 0.8083367 0.1277887 0.4993716 0.1385069 0.4993716 0.1385069 0.983873 0.8931711 0.4993715 0.8931712 0.9838728 0.8888027 0.9838728 0.9031173 0.7069183 0.9031173 0.6962353 0.9074859 0.6962353 0.8029147 0.9838728 0.8029147 0.4993715 0.8072833 0.4993715 0.9074858 0.7374281 0.9074858 0.7481111 0.9031173 0.7481111 0.1158389 0.9838731 0.1056437 0.9838731 0.1056436 0.4993716 0.5523443 0.4993715 0.5523445 0.983873 0.547976 0.983873 0.9031174 0.8284118 0.9031173 0.8182501 0.9074858 0.8182501 0.7886002 0.9838728 0.7886002 0.4993715 0.7929686 0.4993715 0.9074859 0.7780998 0.9074859 0.7882615 0.9031174 0.7882615 0.326825 0.9838729 0.3170837 0.9838729 0.3170837 0.4993715 0.5666591 0.4993715 0.5666592 0.9838729 0.5622907 0.9838729 0.9031173 0.8480345 0.9031173 0.8383253 0.9074859 0.8383253 0.8172294 0.9838728 0.8172294 0.4993715 0.8215979 0.4993715 0.9074858 0.8971933 0.9074858 0.9069025 0.9031173 0.9069025</float_array>
          <technique_common>
            <accessor source="#Cube-mesh-map-0-array" count="1341" stride="2">
              <param name="S" type="float"/>
              <param name="T" type="float"/>
            </accessor>
          </technique_common>
        </source>
        <vertices id="Cube-mesh-vertices">
          <input semantic="POSITION" source="#Cube-mesh-positions"/>
        </vertices>
        <polylist material="PBRFULL_WoodWall-material" count="447">
          <input semantic="VERTEX" source="#Cube-mesh-vertices" offset="0"/>
          <input semantic="NORMAL" source="#Cube-mesh-normals" offset="1"/>
          <input semantic="TEXCOORD" source="#Cube-mesh-map-0" offset="2" set="0"/>
          <vcount>3 3 3 3 3 3 3 3 3 3 3 3 3 3 3 3 3 3 3 3 3 3 3 3 3 3 3 3 3 3 3 3 3 3 3 3 3 3 3 3 3 3 3 3 3 3 3 3 3 3 3 3 3 3 3 3 3 3 3 3 3 3 3 3 3 3 3 3 3 3 3 3 3 3 3 3 3 3 3 3 3 3 3 3 3 3 3 3 3 3 3 3 3 3 3 3 3 3 3 3 3 3 3 3 3 3 3 3 3 3 3 3 3 3 3 3 3 3 3 3 3 3 3 3 3 3 3 3 3 3 3 3 3 3 3 3 3 3 3 3 3 3 3 3 3 3 3 3 3 3 3 3 3 3 3 3 3 3 3 3 3 3 3 3 3 3 3 3 3 3 3 3 3 3 3 3 3 3 3 3 3 3 3 3 3 3 3 3 3 3 3 3 3 3 3 3 3 3 3 3 3 3 3 3 3 3 3 3 3 3 3 3 3 3 3 3 3 3 3 3 3 3 3 3 3 3 3 3 3 3 3 3 3 3 3 3 3 3 3 3 3 3 3 3 3 3 3 3 3 3 3 3 3 3 3 3 3 3 3 3 3 3 3 3 3 3 3 3 3 3 3 3 3 3 3 3 3 3 3 3 3 3 3 3 3 3 3 3 3 3 3 3 3 3 3 3 3 3 3 3 3 3 3 3 3 3 3 3 3 3 3 3 3 3 3 3 3 3 3 3 3 3 3 3 3 3 3 3 3 3 3 3 3 3 3 3 3 3 3 3 3 3 3 3 3 3 3 3 3 3 3 3 3 3 3 3 3 3 3 3 3 3 3 3 3 3 3 3 3 3 3 3 3 3 3 3 3 3 3 3 3 3 3 3 3 3 3 3 3 3 3 3 3 3 3 3 3 3 3 3 3 3 3 3 3 3 3 3 3 3 3 3 3 3 3 3 3 3 3 3 3 3 3 3 3 3 3 3 3 3 3 3 3 3 3 3 3 3 3 3 3 3 3 3 3 3 3 </vcount>
          <p>13 0 0 3 0 1 0 0 2 7 1 3 15 1 4 4 1 5 141 2 6 13 2 7 0 2 8 144 3 9 2 3 10 1 3 11 2 4 12 143 4 13 8 4 14 61 5 15 7 5 16 4 5 17 65 6 18 23 6 19 14 6 20 10 1 21 5 1 22 9 1 23 11 7 24 144 7 25 1 7 26 8 8 27 1 8 28 2 8 29 149 9 30 3 9 31 12 9 32 13 1 33 19 1 34 11 1 35 111 6 36 15 6 37 16 6 38 12 10 39 11 10 40 8 10 41 23 1 42 73 1 43 62 1 44 23 1 45 17 1 46 16 1 47 151 1 48 139 1 49 24 1 50 8 1 51 22 1 52 12 1 53 51 1 54 38 1 55 67 1 56 8 1 57 148 1 58 21 1 59 14 11 60 16 11 61 15 11 62 9 12 63 20 12 64 10 12 65 21 1 66 27 1 67 22 1 68 18 1 69 25 1 70 19 1 71 17 1 72 67 1 73 56 1 74 148 13 75 88 13 76 54 13 77 140 14 78 31 14 79 28 14 80 29 15 81 59 15 82 20 15 83 30 16 84 20 16 85 23 16 86 31 17 87 153 17 88 27 17 89 26 18 90 31 18 91 27 18 92 32 19 93 147 19 94 35 19 95 33 20 96 57 20 97 16 20 98 34 21 99 16 21 100 17 21 101 25 22 102 147 22 103 146 22 104 32 18 105 25 18 106 24 18 107 40 23 108 111 23 109 39 23 110 52 24 111 107 24 112 44 24 113 45 25 114 112 25 115 110 25 116 36 26 117 106 26 118 105 26 119 46 1 120 125 1 121 55 1 122 115 1 123 90 1 124 127 1 125 38 1 126 120 1 127 47 1 128 48 27 129 101 27 130 100 27 131 41 28 132 131 28 133 121 28 134 37 29 135 96 29 136 47 29 137 52 30 138 110 30 139 95 30 140 44 13 141 103 13 142 49 13 143 54 31 144 124 31 145 123 31 146 48 32 147 102 32 148 55 32 149 43 33 150 109 33 151 37 33 152 70 34 153 5 34 154 66 34 155 50 1 156 149 1 157 118 1 158 74 35 159 5 35 160 6 35 161 73 1 162 102 1 163 62 1 164 62 28 165 30 28 166 23 28 167 67 1 168 96 1 169 56 1 170 64 28 171 97 28 172 57 28 173 68 36 174 6 36 175 10 36 176 65 37 177 7 37 178 58 37 179 69 38 180 29 38 181 30 38 182 56 39 183 34 39 184 17 39 185 72 40 186 33 40 187 34 40 188 60 41 189 99 41 190 59 41 191 61 42 192 15 42 193 71 42 194 92 43 195 132 43 196 77 43 197 91 44 198 116 44 199 84 44 200 76 1 201 146 1 202 86 1 203 80 28 204 142 28 205 139 28 206 79 45 207 130 45 208 119 45 209 90 46 210 126 46 211 87 46 212 85 1 213 153 1 214 75 1 215 78 47 216 124 47 217 117 47 218 82 48 219 120 48 220 86 48 221 91 49 222 126 49 223 129 49 224 90 50 225 150 50 226 19 50 227 81 51 228 152 51 229 93 51 230 88 1 231 116 1 232 128 1 233 78 28 234 125 28 235 75 28 236 83 52 237 122 52 238 82 52 239 112 23 240 66 23 241 110 23 242 68 1 243 20 1 244 63 1 245 102 28 246 69 28 247 62 28 248 97 53 249 43 53 250 41 53 251 107 54 252 74 54 253 68 54 254 106 55 255 58 55 256 105 55 257 100 56 258 60 56 259 69 56 260 96 57 261 72 57 262 56 57 263 104 58 264 72 58 265 109 58 266 113 1 267 55 1 268 102 1 269 108 1 270 47 1 271 96 1 272 114 59 273 36 59 274 105 59 275 99 60 276 42 60 277 54 60 278 114 61 279 71 61 280 111 61 281 122 62 282 47 62 283 120 62 284 118 1 285 75 1 286 125 1 287 127 1 288 86 1 289 120 1 290 121 28 291 83 28 292 80 28 293 117 28 294 55 28 295 125 28 296 129 63 297 44 63 298 116 63 299 126 64 300 51 64 301 45 64 302 117 65 303 42 65 304 48 65 305 116 1 306 49 1 307 128 1 308 122 66 309 43 66 310 37 66 311 133 67 312 79 67 313 119 67 314 124 68 315 93 68 316 123 68 317 133 23 318 39 23 319 132 23 320 119 69 321 50 69 322 36 69 323 135 70 324 92 70 325 77 70 326 137 71 327 84 71 328 143 71 329 152 72 330 28 72 331 26 72 332 150 23 333 87 23 334 144 23 335 138 73 336 89 73 337 79 73 338 140 74 339 78 74 340 136 74 341 147 75 342 86 75 343 146 75 344 138 76 345 0 76 346 3 76 347 143 13 348 88 13 349 148 13 350 136 28 351 75 28 352 153 28 353 142 77 354 82 77 355 147 77 356 134 1 357 25 1 358 146 1 359 139 78 360 32 78 361 24 78 362 145 1 363 27 1 364 153 1 365 159 1 366 183 1 367 158 1 368 155 1 369 36 1 370 40 1 371 156 1 372 40 1 373 133 1 374 157 1 375 133 1 376 119 1 377 154 1 378 119 1 379 36 1 380 155 1 381 179 1 382 154 1 383 159 1 384 58 1 385 61 1 386 160 1 387 61 1 388 114 1 389 161 1 390 114 1 391 105 1 392 158 1 393 105 1 394 58 1 395 174 1 396 201 1 397 177 1 398 163 1 399 79 1 400 92 1 401 164 1 402 92 1 403 141 1 404 165 1 405 141 1 406 138 1 407 162 1 408 138 1 409 79 1 410 170 1 411 197 1 412 173 1 413 167 1 414 95 1 415 110 1 416 168 1 417 110 1 418 66 1 419 169 1 420 66 1 421 74 1 422 166 1 423 74 1 424 95 1 425 177 1 426 200 1 427 176 1 428 171 1 429 129 1 430 126 1 431 172 1 432 126 1 433 45 1 434 173 1 435 45 1 436 52 1 437 170 1 438 52 1 439 129 1 440 166 1 441 193 1 442 169 1 443 175 1 444 137 1 445 144 1 446 176 1 447 144 1 448 87 1 449 177 1 450 87 1 451 91 1 452 174 1 453 91 1 454 137 1 455 156 1 456 178 1 457 155 1 458 163 1 459 187 1 460 162 1 461 160 1 462 182 1 463 159 1 464 167 1 465 191 1 466 166 1 467 157 1 468 180 1 469 156 1 470 164 1 471 186 1 472 163 1 473 171 1 474 195 1 475 170 1 476 161 1 477 184 1 478 160 1 479 168 1 480 190 1 481 167 1 482 175 1 483 199 1 484 174 1 485 154 1 486 181 1 487 157 1 488 165 1 489 188 1 490 164 1 491 172 1 492 194 1 493 171 1 494 158 1 495 185 1 496 161 1 497 169 1 498 192 1 499 168 1 500 176 1 501 198 1 502 175 1 503 162 1 504 189 1 505 165 1 506 173 1 507 196 1 508 172 1 509 203 79 510 205 79 511 202 79 512 203 80 513 199 80 514 198 80 515 204 23 516 198 23 517 200 23 518 205 81 519 200 81 520 201 81 521 202 13 522 201 13 523 199 13 524 207 82 525 209 82 526 206 82 527 207 83 528 195 83 529 194 83 530 208 23 531 194 23 532 196 23 533 209 84 534 196 84 535 197 84 536 206 13 537 197 13 538 195 13 539 211 85 540 213 85 541 210 85 542 211 86 543 191 86 544 190 86 545 212 23 546 190 23 547 192 23 548 213 87 549 192 87 550 193 87 551 210 13 552 193 13 553 191 13 554 215 88 555 217 88 556 214 88 557 215 89 558 187 89 559 186 89 560 216 23 561 186 23 562 188 23 563 217 90 564 188 90 565 189 90 566 214 13 567 189 13 568 187 13 569 219 91 570 221 91 571 218 91 572 219 92 573 183 92 574 182 92 575 220 23 576 182 23 577 184 23 578 221 93 579 184 93 580 185 93 581 218 13 582 185 13 583 183 13 584 223 94 585 225 94 586 222 94 587 223 95 588 179 95 589 178 95 590 224 23 591 178 23 592 180 23 593 225 96 594 180 96 595 181 96 596 222 13 597 181 13 598 179 13 599 13 97 600 12 97 601 3 97 602 7 98 603 14 98 604 15 98 605 141 99 606 135 99 607 13 99 608 144 100 609 137 100 610 2 100 611 2 101 612 137 101 613 143 101 614 61 102 615 58 102 616 7 102 617 65 1 618 73 1 619 23 1 620 10 103 621 6 103 622 5 103 623 11 104 624 150 104 625 144 104 626 8 105 627 11 105 628 1 105 629 149 106 630 138 106 631 3 106 632 13 1 633 18 1 634 19 1 635 111 1 636 71 1 637 15 1 638 151 1 639 18 1 640 13 1 641 53 1 642 94 1 643 151 1 644 151 1 645 13 1 646 135 1 647 53 1 648 151 1 649 135 1 650 135 28 651 77 28 652 132 28 653 53 6 654 135 6 655 132 6 656 53 1 657 132 1 658 39 1 659 53 23 660 39 23 661 111 23 662 98 1 663 53 1 664 111 1 665 16 1 666 98 1 667 111 1 668 12 18 669 13 18 670 11 18 671 23 107 672 20 107 673 17 107 674 98 1 675 16 1 676 57 1 677 57 23 678 97 23 679 41 23 680 53 108 681 98 108 682 57 108 683 53 1 684 57 1 685 41 1 686 121 6 687 80 6 688 139 6 689 53 1 690 41 1 691 121 1 692 53 28 693 121 28 694 139 28 695 24 1 696 18 1 697 151 1 698 151 1 699 53 1 700 139 1 701 8 1 702 21 1 703 22 1 704 17 109 705 9 109 706 70 109 707 70 110 708 112 110 709 51 110 710 67 1 711 17 1 712 70 1 713 38 111 714 108 111 715 67 111 716 67 1 717 70 1 718 51 1 719 8 112 720 143 112 721 148 112 722 14 11 723 23 11 724 16 11 725 9 113 726 17 113 727 20 113 728 21 1 729 26 1 730 27 1 731 18 1 732 24 1 733 25 1 734 88 114 735 128 114 736 49 114 737 103 23 738 63 23 739 20 23 740 152 1 741 26 1 742 21 1 743 123 115 744 93 115 745 152 115 746 54 23 747 123 23 748 152 23 749 152 1 750 21 1 751 148 1 752 54 1 753 152 1 754 148 1 755 103 13 756 20 13 757 59 13 758 103 1 759 59 1 760 99 1 761 103 1 762 99 1 763 54 1 764 49 1 765 103 1 766 54 1 767 88 1 768 49 1 769 54 1 770 140 116 771 136 116 772 31 116 773 29 117 774 60 117 775 59 117 776 30 118 777 29 118 778 20 118 779 31 119 780 136 119 781 153 119 782 26 18 783 28 18 784 31 18 785 32 120 786 142 120 787 147 120 788 33 28 789 64 28 790 57 28 791 34 121 792 33 121 793 16 121 794 25 122 795 35 122 796 147 122 797 32 18 798 35 18 799 25 18 800 40 123 801 114 123 802 111 123 803 52 124 804 95 124 805 107 124 806 45 125 807 51 125 808 112 125 809 36 126 810 50 126 811 106 126 812 46 1 813 118 1 814 125 1 815 127 6 816 38 6 817 51 6 818 90 23 819 76 23 820 127 23 821 127 1 822 51 1 823 115 1 824 38 1 825 127 1 826 120 1 827 48 127 828 42 127 829 101 127 830 41 28 831 43 28 832 131 28 833 37 128 834 109 128 835 96 128 836 52 129 837 45 129 838 110 129 839 44 1 840 107 1 841 103 1 842 54 130 843 42 130 844 124 130 845 48 28 846 100 28 847 102 28 848 43 131 849 104 131 850 109 131 851 70 132 852 9 132 853 5 132 854 73 1 855 65 1 856 106 1 857 113 1 858 73 1 859 106 1 860 46 1 861 113 1 862 106 1 863 46 1 864 106 1 865 50 1 866 118 28 867 46 28 868 50 28 869 50 28 870 130 28 871 89 28 872 149 1 873 12 1 874 22 1 875 22 133 876 145 133 877 85 133 878 149 134 879 22 134 880 85 134 881 50 6 882 89 6 883 149 6 884 149 1 885 85 1 886 118 1 887 74 135 888 66 135 889 5 135 890 73 1 891 113 1 892 102 1 893 62 136 894 69 136 895 30 136 896 67 1 897 108 1 898 96 1 899 64 28 900 104 28 901 97 28 902 68 137 903 74 137 904 6 137 905 65 13 906 14 13 907 7 13 908 69 138 909 60 138 910 29 138 911 56 139 912 72 139 913 34 139 914 72 140 915 64 140 916 33 140 917 60 141 918 101 141 919 99 141 920 61 142 921 4 142 922 15 142 923 92 143 924 133 143 925 132 143 926 91 144 927 129 144 928 116 144 929 76 1 930 134 1 931 146 1 932 80 28 933 83 28 934 142 28 935 79 145 936 89 145 937 130 145 938 90 146 939 115 146 940 126 146 941 85 1 942 145 1 943 153 1 944 78 147 945 81 147 946 124 147 947 82 148 948 122 148 949 120 148 950 91 149 951 87 149 952 126 149 953 134 150 954 76 150 955 90 150 956 150 1 957 11 1 958 19 1 959 19 151 960 134 151 961 90 151 962 81 152 963 140 152 964 152 152 965 88 23 966 84 23 967 116 23 968 78 28 969 117 28 970 125 28 971 83 153 972 131 153 973 122 153 974 112 154 975 70 154 976 66 154 977 103 1 978 107 1 979 68 1 980 68 155 981 10 155 982 20 155 983 63 23 984 103 23 985 68 23 986 102 28 987 100 28 988 69 28 989 97 156 990 104 156 991 43 156 992 107 157 993 95 157 994 74 157 995 106 13 996 65 13 997 58 13 998 100 158 999 101 158 1000 60 158 1001 96 159 1002 109 159 1003 72 159 1004 104 160 1005 64 160 1006 72 160 1007 113 1 1008 46 1 1009 55 1 1010 108 1 1011 38 1 1012 47 1 1013 114 161 1014 40 161 1015 36 161 1016 99 162 1017 101 162 1018 42 162 1019 114 163 1020 61 163 1021 71 163 1022 122 164 1023 37 164 1024 47 164 1025 118 1 1026 85 1 1027 75 1 1028 127 1 1029 76 1 1030 86 1 1031 121 28 1032 131 28 1033 83 28 1034 117 28 1035 48 28 1036 55 28 1037 129 165 1038 52 165 1039 44 165 1040 126 166 1041 115 166 1042 51 166 1043 117 167 1044 124 167 1045 42 167 1046 116 168 1047 44 168 1048 49 168 1049 122 169 1050 131 169 1051 43 169 1052 133 170 1053 92 170 1054 79 170 1055 124 171 1056 81 171 1057 93 171 1058 133 172 1059 40 172 1060 39 172 1061 119 173 1062 130 173 1063 50 173 1064 135 174 1065 141 174 1066 92 174 1067 137 175 1068 91 175 1069 84 175 1070 152 176 1071 140 176 1072 28 176 1073 150 177 1074 90 177 1075 87 177 1076 138 178 1077 149 178 1078 89 178 1079 140 179 1080 81 179 1081 78 179 1082 147 180 1083 82 180 1084 86 180 1085 138 181 1086 141 181 1087 0 181 1088 143 6 1089 84 6 1090 88 6 1091 136 28 1092 78 28 1093 75 28 1094 142 182 1095 83 182 1096 82 182 1097 134 1 1098 19 1 1099 25 1 1100 139 183 1101 142 183 1102 32 183 1103 145 1 1104 22 1 1105 27 1 1106 159 1 1107 182 1 1108 183 1 1109 155 1 1110 154 1 1111 36 1 1112 156 1 1113 155 1 1114 40 1 1115 157 1 1116 156 1 1117 133 1 1118 154 1 1119 157 1 1120 119 1 1121 155 1 1122 178 1 1123 179 1 1124 159 1 1125 158 1 1126 58 1 1127 160 1 1128 159 1 1129 61 1 1130 161 1 1131 160 1 1132 114 1 1133 158 1 1134 161 1 1135 105 1 1136 174 1 1137 199 1 1138 201 1 1139 163 1 1140 162 1 1141 79 1 1142 164 1 1143 163 1 1144 92 1 1145 165 1 1146 164 1 1147 141 1 1148 162 1 1149 165 1 1150 138 1 1151 170 1 1152 195 1 1153 197 1 1154 167 1 1155 166 1 1156 95 1 1157 168 1 1158 167 1 1159 110 1 1160 169 1 1161 168 1 1162 66 1 1163 166 1 1164 169 1 1165 74 1 1166 177 1 1167 201 1 1168 200 1 1169 171 1 1170 170 1 1171 129 1 1172 172 1 1173 171 1 1174 126 1 1175 173 1 1176 172 1 1177 45 1 1178 170 1 1179 173 1 1180 52 1 1181 166 1 1182 191 1 1183 193 1 1184 175 1 1185 174 1 1186 137 1 1187 176 1 1188 175 1 1189 144 1 1190 177 1 1191 176 1 1192 87 1 1193 174 1 1194 177 1 1195 91 1 1196 156 1 1197 180 1 1198 178 1 1199 163 1 1200 186 1 1201 187 1 1202 160 1 1203 184 1 1204 182 1 1205 167 1 1206 190 1 1207 191 1 1208 157 1 1209 181 1 1210 180 1 1211 164 1 1212 188 1 1213 186 1 1214 171 1 1215 194 1 1216 195 1 1217 161 1 1218 185 1 1219 184 1 1220 168 1 1221 192 1 1222 190 1 1223 175 1 1224 198 1 1225 199 1 1226 154 1 1227 179 1 1228 181 1 1229 165 1 1230 189 1 1231 188 1 1232 172 1 1233 196 1 1234 194 1 1235 158 1 1236 183 1 1237 185 1 1238 169 1 1239 193 1 1240 192 1 1241 176 1 1242 200 1 1243 198 1 1244 162 1 1245 187 1 1246 189 1 1247 173 1 1248 197 1 1249 196 1 1250 203 184 1251 204 184 1252 205 184 1253 203 185 1254 202 185 1255 199 185 1256 204 23 1257 203 23 1258 198 23 1259 205 186 1260 204 186 1261 200 186 1262 202 13 1263 205 13 1264 201 13 1265 207 187 1266 208 187 1267 209 187 1268 207 18 1269 206 18 1270 195 18 1271 208 23 1272 207 23 1273 194 23 1274 209 1 1275 208 1 1276 196 1 1277 206 13 1278 209 13 1279 197 13 1280 211 188 1281 212 188 1282 213 188 1283 211 189 1284 210 189 1285 191 189 1286 212 23 1287 211 23 1288 190 23 1289 213 1 1290 212 1 1291 192 1 1292 210 13 1293 213 13 1294 193 13 1295 215 190 1296 216 190 1297 217 190 1298 215 191 1299 214 191 1300 187 191 1301 216 23 1302 215 23 1303 186 23 1304 217 192 1305 216 192 1306 188 192 1307 214 13 1308 217 13 1309 189 13 1310 219 193 1311 220 193 1312 221 193 1313 219 1 1314 218 1 1315 183 1 1316 220 23 1317 219 23 1318 182 23 1319 221 194 1320 220 194 1321 184 194 1322 218 13 1323 221 13 1324 185 13 1325 223 195 1326 224 195 1327 225 195 1328 223 1 1329 222 1 1330 179 1 1331 224 23 1332 223 23 1333 178 23 1334 225 196 1335 224 196 1336 180 196 1337 222 13 1338 225 13 1339 181 13 1340</p>
        </polylist>
      </mesh>
    </geometry>
  </library_geometries>
  <library_controllers/>
  <library_visual_scenes>
    <visual_scene id="Scene" name="Scene">
      <node id="WoodWall" name="WoodWall" type="NODE">
        <matrix sid="transform">1 0 0 0 0 1 0 0 0 0 1 0 0 0 0 1</matrix>
        <instance_geometry url="#Cube-mesh" name="WoodWall">
          <bind_material>
            <technique_common>
              <instance_material symbol="PBRFULL_WoodWall-material" target="#PBRFULL_WoodWall-material"/>
            </technique_common>
          </bind_material>
        </instance_geometry>
      </node>
    </visual_scene>
  </library_visual_scenes>
  <scene>
    <instance_visual_scene url="#Scene"/>
  </scene>
</COLLADA>