<?xml version="1.0" encoding="utf-8"?>
<COLLADA xmlns="http://www.collada.org/2005/11/COLLADASchema" version="1.4.1">
  <asset>
    <contributor>
      <author>Blender User</author>
      <authoring_tool>Blender 2.76.0 commit date:2015-09-17, commit time:14:48, hash:c586e30</authoring_tool>
    </contributor>
    <created>2015-09-24T13:49:57</created>
    <modified>2015-09-24T13:49:57</modified>
    <unit name="meter" meter="1"/>
    <up_axis>Z_UP</up_axis>
  </asset>
  <library_images/>
  <library_effects>
    <effect id="Maze_Material-effect">
      <profile_COMMON>
        <technique sid="common">
          <phong>
            <emission>
              <color sid="emission">0 0 0 1</color>
            </emission>
            <ambient>
              <color sid="ambient">0 0 0 1</color>
            </ambient>
            <diffuse>
              <color sid="diffuse">0.94 0.94 0.94 1</color>
            </diffuse>
            <specular>
              <color sid="specular">1 1 1 1</color>
            </specular>
            <shininess>
              <float sid="shininess">60</float>
            </shininess>
            <reflective>
              <color sid="reflective">1 1 1 1</color>
            </reflective>
            <reflectivity>
              <float sid="reflectivity">0.25</float>
            </reflectivity>
            <transparent>
              <color sid="transparent">1 1 1 1</color>
            </transparent>
            <transparency>
              <float sid="transparency">0.3</float>
            </transparency>
            <index_of_refraction>
              <float sid="index_of_refraction">1.517</float>
            </index_of_refraction>
          </phong>
        </technique>
      </profile_COMMON>
    </effect>
    <effect id="Maze_Base_material-effect">
      <profile_COMMON>
        <technique sid="common">
          <phong>
            <emission>
              <color sid="emission">0 0 0 1</color>
            </emission>
            <ambient>
              <color sid="ambient">0 0 0 1</color>
            </ambient>
            <diffuse>
              <color sid="diffuse">0.07343035 0.1762044 0 1</color>
            </diffuse>
            <specular>
              <color sid="specular">0.1 0.1 0.1 1</color>
            </specular>
            <shininess>
              <float sid="shininess">50</float>
            </shininess>
            <index_of_refraction>
              <float sid="index_of_refraction">1</float>
            </index_of_refraction>
          </phong>
        </technique>
      </profile_COMMON>
    </effect>
  </library_effects>
  <library_materials>
    <material id="Maze_Material-material" name="Maze_Material">
      <instance_effect url="#Maze_Material-effect"/>
    </material>
    <material id="Maze_Base_material-material" name="Maze_Base_material">
      <instance_effect url="#Maze_Base_material-effect"/>
    </material>
  </library_materials>
  <library_geometries>
    <geometry id="Y_Maze-mesh" name="Y_Maze">
      <mesh>
        <source id="Y_Maze-mesh-positions">
          <float_array id="Y_Maze-mesh-positions-array" count="504">0 1 0 0.25 1 0 -0.25 1 0 0.25 0.5 0 -0.25 0.5 0 -0.25 0.25 0 0.25 0.25 0 0.25 0.75 0 -0.25 0.75 0 0 -0.125 0 -0.46875 -0.59375 3 -0.375 0 0 1 -0.625 0 -1 -0.625 0 0.5 -0.125 0 -0.5 -0.125 0 -0.875 -0.5 0 -0.375 -0.5 0 0.375 0 0 -0.46875 -0.59375 0 0.375 -0.5 0 0.875 -0.5 0 -0.5625 -0.6875 0 -0.75 -0.375 0 -0.625 -0.25 0 0.5625 -0.6875 0 0.25 -0.375 0 0.125 -0.25 0 -0.25 0.375 0 -0.25 0.125 0 0.25 0.375 0 0.25 0.125 0 0.25 0.875 0 0.25 0.625 0 -0.25 0.875 0 -0.25 0.625 0 0.75 -0.375 0 0.625 -0.25 0 -0.25 -0.375 0 -0.125 -0.25 0 0 1 3 0.25 1 3 -0.25 1 3 0.25 0.5 3 -0.25 0.5 3 -0.25 0.25 3 0.25 0.25 3 0.25 0.75 3 -0.25 0.75 3 0 -0.125 3 0.46875 -0.59375 0 -0.375 0 3 1 -0.625 3 -1 -0.625 3 0.5 -0.125 3 -0.5 -0.125 3 -0.875 -0.5 3 -0.375 -0.5 3 0.375 0 3 0.46875 -0.59375 3 0.375 -0.5 3 0.875 -0.5 3 -0.5625 -0.6875 3 -0.75 -0.375 3 -0.625 -0.25 3 0.5625 -0.6875 3 0.25 -0.375 3 0.125 -0.25 3 -0.25 0.375 3 -0.25 0.125 3 0.25 0.375 3 0.25 0.125 3 0.25 0.875 3 0.25 0.625 3 -0.25 0.875 3 -0.25 0.625 3 0.75 -0.375 3 0.625 -0.25 3 -0.25 -0.375 3 -0.125 -0.25 3 -0.78125 -0.65625 3 -0.78125 -0.65625 0 0.78125 -0.65625 3 0.78125 -0.65625 0 0 0.988 0 0.238 0.988 0 -0.238 0.988 0 0.238 0.5 0 -0.238 0.5 0 -0.238 0.25 0 0.238 0.25 0 0.238 0.75 0 -0.238 0.75 0 0 -0.1080294 0 -0.4772353 -0.5852648 3 -0.3665147 -0.008485257 0 0.9745442 -0.6165148 0 -0.9745442 -0.6165148 0 0.4915147 -0.1334853 0 -0.4915147 -0.1334853 0 -0.8665148 -0.5084853 0 -0.3834853 -0.4915147 0 0.3665147 -0.008485257 0 -0.4772353 -0.5852648 0 0.3834853 -0.4915147 0 0.8665148 -0.5084853 0 -0.5667427 -0.6747721 0 -0.7415148 -0.3834853 0 -0.6165148 -0.2584853 0 0.5667427 -0.6747721 0 0.2584853 -0.3665147 0 0.1334853 -0.2415147 0 -0.238 0.375 0 -0.238 0.1200294 0 0.238 0.375 0 0.238 0.1200294 0 0.238 0.875 0 0.238 0.625 0 -0.238 0.875 0 -0.238 0.625 0 0.7415148 -0.3834853 0 0.6165148 -0.2584853 0 -0.2584853 -0.3665147 0 -0.1334853 -0.2415147 0 0 0.988 3 0.238 0.988 3 -0.238 0.988 3 0.238 0.5 3 -0.238 0.5 3 -0.238 0.25 3 0.238 0.25 3 0.238 0.75 3 -0.238 0.75 3 0 -0.1080294 3 0.4772353 -0.5852648 0 -0.3665147 -0.008485257 3 0.9745442 -0.6165148 3 -0.9745442 -0.6165148 3 0.4915147 -0.1334853 3 -0.4915147 -0.1334853 3 -0.8665148 -0.5084853 3 -0.3834853 -0.4915147 3 0.3665147 -0.008485257 3 0.4772353 -0.5852648 3 0.3834853 -0.4915147 3 0.8665148 -0.5084853 3 -0.5667427 -0.6747721 3 -0.7415148 -0.3834853 3 -0.6165148 -0.2584853 3 0.5667427 -0.6747721 3 0.2584853 -0.3665147 3 0.1334853 -0.2415147 3 -0.238 0.375 3 -0.238 0.1200294 3 0.238 0.375 3 0.238 0.1200294 3 0.238 0.875 3 0.238 0.625 3 -0.238 0.875 3 -0.238 0.625 3 0.7415148 -0.3834853 3 0.6165148 -0.2584853 3 -0.2584853 -0.3665147 3 -0.1334853 -0.2415147 3 -0.7795529 -0.6443706 3 -0.7795529 -0.6443706 0 0.7795529 -0.6443706 3 0.7795529 -0.6443706 0</float_array>
          <technique_common>
            <accessor source="#Y_Maze-mesh-positions-array" count="168" stride="3">
              <param name="X" type="float"/>
              <param name="Y" type="float"/>
              <param name="Z" type="float"/>
            </accessor>
          </technique_common>
        </source>
        <source id="Y_Maze-mesh-normals">
          <float_array id="Y_Maze-mesh-normals-array" count="114">0 1 0 0.7071068 0.7071068 0 -1 0 0 0.7071068 -0.7071068 0 1 0 0 -0.7071068 0.7071068 0 0.7071067 -0.7071069 0 0.707107 -0.7071067 0 -0.7071068 -0.7071068 0 -0.7071068 -0.7071068 0 -0.1414213 -0.9899495 0 0.7071068 -0.7071068 0 0.1414213 -0.9899495 0 0 -1 0 -0.7071068 0.7071068 0 0.7071069 -0.7071067 0 -0.7071067 -0.7071069 0 -0.7071067 0.7071069 0 -0.7071071 0.7071066 0 0.7071068 0.7071068 0 0.7071067 -0.7071069 0 -0.7071069 -0.7071067 0 -0.7071068 0.7071068 0 0.7071069 0.7071067 0 0.7071068 0.7071068 0 0.1414213 0.9899495 0 0.7071066 0.707107 0 -0.7071067 -0.7071069 0 -0.7071066 0.707107 0 -0.1414213 0.9899495 0 -0.1414212 0.9899496 0 0.1414212 0.9899496 0 0 0 1 -1.40489e-5 0 1 1.40489e-5 0 1 2.77084e-5 0 1 -2.77084e-5 0 1 -1.35878e-5 0 1</float_array>
          <technique_common>
            <accessor source="#Y_Maze-mesh-normals-array" count="38" stride="3">
              <param name="X" type="float"/>
              <param name="Y" type="float"/>
              <param name="Z" type="float"/>
            </accessor>
          </technique_common>
        </source>
        <vertices id="Y_Maze-mesh-vertices">
          <input semantic="POSITION" source="#Y_Maze-mesh-positions"/>
        </vertices>
        <polylist material="Maze_Material-material" count="126">
          <input semantic="VERTEX" source="#Y_Maze-mesh-vertices" offset="0"/>
          <input semantic="NORMAL" source="#Y_Maze-mesh-normals" offset="1"/>
          <vcount>4 4 4 4 4 4 4 4 4 4 4 4 4 4 4 4 4 4 4 4 4 4 4 4 4 4 4 4 4 4 4 4 4 4 4 4 4 4 4 4 4 4 4 4 4 4 4 4 4 4 4 4 4 4 4 4 4 4 4 4 4 4 4 4 4 4 4 4 4 4 4 4 4 4 4 4 4 4 4 4 4 4 4 4 4 4 4 4 4 4 4 4 4 4 4 4 4 4 4 4 4 4 4 4 4 4 4 4 4 4 4 4 4 4 4 4 4 4 4 4 4 4 4 4 4 4 </vcount>
          <p>1 0 0 0 40 0 41 0 18 1 58 1 54 1 14 1 34 2 74 2 42 2 2 2 39 3 79 3 78 3 38 3 3 4 33 4 73 4 43 4 24 5 23 5 63 5 64 5 16 5 13 5 53 5 56 5 31 4 6 4 46 4 71 4 5 2 45 2 68 2 28 2 14 1 54 1 77 1 37 1 28 2 68 2 44 2 4 2 15 5 24 5 64 5 55 5 35 2 75 2 48 2 8 2 38 6 78 6 57 6 17 6 17 7 57 7 10 7 19 7 26 8 20 8 60 8 66 8 8 2 48 2 74 2 34 2 32 4 1 4 41 4 72 4 27 8 26 8 66 8 67 8 6 4 30 4 70 4 46 4 31 1 71 1 58 1 18 1 23 5 16 5 56 5 63 5 21 1 61 1 52 1 12 1 29 2 69 2 45 2 5 2 9 3 49 3 79 3 39 3 20 9 50 9 59 9 60 9 11 5 15 5 55 5 51 5 9 8 27 8 67 8 49 8 4 2 44 2 75 2 35 2 80 10 81 10 22 10 62 10 37 1 77 1 76 1 36 1 33 4 7 4 47 4 73 4 29 5 11 5 51 5 69 5 7 4 32 4 72 4 47 4 30 4 3 4 43 4 70 4 50 9 25 9 65 9 59 9 36 1 76 1 61 1 21 1 19 11 10 11 62 11 22 11 82 12 65 12 25 12 83 12 52 12 82 12 83 12 12 12 53 10 13 10 81 10 80 10 0 0 2 0 42 0 40 0 125 13 124 13 84 13 85 13 98 8 138 8 142 8 102 8 86 4 126 4 158 4 118 4 122 14 162 14 163 14 123 14 127 2 157 2 117 2 87 2 148 3 147 3 107 3 108 3 140 15 137 15 97 15 100 15 155 2 130 2 90 2 115 2 112 4 152 4 129 4 89 4 121 16 161 16 138 16 98 16 88 4 128 4 152 4 112 4 139 6 148 6 108 6 99 6 92 4 132 4 159 4 119 4 101 17 141 17 162 17 122 17 103 18 94 18 141 18 101 18 150 1 144 1 104 1 110 1 118 4 158 4 132 4 92 4 156 2 125 2 85 2 116 2 151 19 150 19 110 19 111 19 130 2 154 2 114 2 90 2 102 9 142 9 155 9 115 9 147 20 140 20 100 20 107 20 96 21 136 21 145 21 105 21 89 4 129 4 153 4 113 4 123 22 163 22 133 22 93 22 144 23 143 23 134 23 104 23 135 3 139 3 99 3 95 3 133 24 151 24 111 24 93 24 119 4 159 4 128 4 88 4 146 25 106 25 165 25 164 25 120 8 160 8 161 8 121 8 157 2 131 2 91 2 117 2 153 11 135 11 95 11 113 11 131 2 156 2 116 2 91 2 154 2 127 2 87 2 114 2 143 26 149 26 109 26 134 26 105 27 145 27 160 27 120 27 106 28 146 28 94 28 103 28 167 29 109 29 149 29 166 29 96 30 167 30 166 30 136 30 164 31 165 31 97 31 137 31 124 13 126 13 86 13 84 13 62 32 10 32 94 32 146 32 59 32 65 32 149 32 143 32 44 32 68 32 152 32 128 32 45 32 69 32 153 32 129 32 70 32 43 32 127 32 154 32 71 32 46 32 130 32 155 32 72 32 41 32 125 32 156 32 73 32 47 32 131 32 157 32 42 32 74 32 158 32 126 32 48 32 75 32 159 32 132 32 41 32 40 32 124 32 125 32 40 32 42 32 126 32 124 32 68 32 45 32 129 32 152 32 46 32 70 32 154 32 130 32 47 32 72 32 156 32 131 32 43 32 73 32 157 32 127 32 74 32 48 32 132 32 158 32 75 32 44 32 128 32 159 32 54 33 58 33 142 33 138 33 52 32 61 32 145 32 136 32 67 32 66 32 150 32 151 32 76 32 77 32 161 32 160 32 78 32 79 32 163 32 162 32 57 32 78 32 162 32 141 32 51 34 55 34 139 34 135 34 61 32 76 32 160 32 145 32 77 32 54 32 138 32 161 32 58 35 71 35 155 35 142 35 69 36 51 36 135 36 153 36 64 32 63 32 147 32 148 32 66 32 60 32 144 32 150 32 49 37 67 37 151 37 133 37 63 32 56 32 140 32 147 32 56 32 53 32 137 32 140 32 53 32 80 32 164 32 137 32 55 32 64 32 148 32 139 32 79 32 49 32 133 32 163 32 60 32 59 32 143 32 144 32 10 32 57 32 141 32 94 32 65 32 82 32 166 32 149 32 80 32 62 32 146 32 164 32 82 32 52 32 136 32 166 32</p>
        </polylist>
      </mesh>
    </geometry>
    <geometry id="Y_Maze_Base-mesh" name="Y_Maze_Base">
      <mesh>
        <source id="Y_Maze_Base-mesh-positions">
          <float_array id="Y_Maze_Base-mesh-positions-array" count="24">-2 -2 -2 -2 -2 2 -2 2 -2 -2 2 2 2 -2 -2 2 -2 2 2 2 -2 2 2 2</float_array>
          <technique_common>
            <accessor source="#Y_Maze_Base-mesh-positions-array" count="8" stride="3">
              <param name="X" type="float"/>
              <param name="Y" type="float"/>
              <param name="Z" type="float"/>
            </accessor>
          </technique_common>
        </source>
        <source id="Y_Maze_Base-mesh-normals">
          <float_array id="Y_Maze_Base-mesh-normals-array" count="18">-1 0 0 0 1 0 1 0 0 0 -1 0 0 0 -1 0 0 1</float_array>
          <technique_common>
            <accessor source="#Y_Maze_Base-mesh-normals-array" count="6" stride="3">
              <param name="X" type="float"/>
              <param name="Y" type="float"/>
              <param name="Z" type="float"/>
            </accessor>
          </technique_common>
        </source>
        <vertices id="Y_Maze_Base-mesh-vertices">
          <input semantic="POSITION" source="#Y_Maze_Base-mesh-positions"/>
        </vertices>
        <polylist material="Maze_Base_material-material" count="6">
          <input semantic="VERTEX" source="#Y_Maze_Base-mesh-vertices" offset="0"/>
          <input semantic="NORMAL" source="#Y_Maze_Base-mesh-normals" offset="1"/>
          <vcount>4 4 4 4 4 4 </vcount>
          <p>1 0 3 0 2 0 0 0 3 1 7 1 6 1 2 1 7 2 5 2 4 2 6 2 5 3 1 3 0 3 4 3 0 4 2 4 6 4 4 4 5 5 7 5 3 5 1 5</p>
        </polylist>
      </mesh>
    </geometry>
  </library_geometries>
  <library_controllers/>
  <library_visual_scenes>
    <visual_scene id="Scene" name="Scene">
      <node id="Y_Maze_Base" name="Y_Maze_Base" type="NODE">
        <matrix sid="transform">5 0 0 0.04014 0 10 0 7.594635 0 0 0.09999999 1.265832 0 0 0 1</matrix>
        <instance_geometry url="#Y_Maze_Base-mesh" name="Y_Maze_Base">
          <bind_material>
            <technique_common>
              <instance_material symbol="Maze_Base_material-material" target="#Maze_Base_material-material"/>
            </technique_common>
          </bind_material>
        </instance_geometry>
        <node id="Y_Maze" name="Y_Maze" type="NODE">
          <matrix sid="transform">1.4444 0 0 1.02445e-7 0 1.829836 -2.48353e-8 -0.2045822 0 0 8.333335 2.000001 0 0 0 1</matrix>
          <instance_geometry url="#Y_Maze-mesh" name="Y_Maze">
            <bind_material>
              <technique_common>
                <instance_material symbol="Maze_Material-material" target="#Maze_Material-material"/>
              </technique_common>
            </bind_material>
          </instance_geometry>
        </node>
      </node>
    </visual_scene>
  </library_visual_scenes>
  <scene>
    <instance_visual_scene url="#Scene"/>
  </scene>
</COLLADA>