<?xml version="1.0" encoding="utf-8"?>
<COLLADA xmlns="http://www.collada.org/2005/11/COLLADASchema" version="1.4.1">
  <asset>
    <contributor>
      <author>Blender User</author>
      <authoring_tool>Blender 2.76.0 commit date:2015-11-03, commit time:10:56, hash:f337fea</authoring_tool>
    </contributor>
    <created>2016-11-13T17:55:48</created>
    <modified>2016-11-13T17:55:48</modified>
    <unit name="meter" meter="1"/>
    <up_axis>Z_UP</up_axis>
  </asset>
  <library_images/>
  <library_geometries>
    <geometry id="shape0_041-mesh" name="shape0.041">
      <mesh>
        <source id="shape0_041-mesh-positions">
          <float_array id="shape0_041-mesh-positions-array" count="294">3.480078 -3.457859 -3.684018 4.839106 -1.637561 3.644208 -4.848216 -1.638601 3.644208 -3.513068 -3.458609 -3.684018 3.505718 -10.2167 -2.353461 3.606018 -12.1053 3.630346 -3.612888 -12.106 3.480476 -3.488808 -10.2174 -2.353461 3.919408 -6.992118 -3.764089 5.428426 -7.061679 4.006906 -5.436376 -7.062839 4.006906 -3.927437 -6.992958 -3.764079 -0.003373265 -12.678 3.840666 -0.004621446 -1.014001 4.006907 0.002372086 -10.4104 -2.537631 -0.01039677 -3.229598 -4.025537 -0.003974199 -7.06226 4.006906 -0.004000127 -6.987398 -4.347279 4.115848 -11.4446 -0.1010347 4.225226 -2.6093 -0.2877262 -4.118886 -11.4455 -0.1010387 -4.238117 -2.61021 -0.2877343 5.090566 -7.049829 -0.2981639 -5.098536 -7.050929 -0.2981599 -0.005028069 -2.07793 -0.3291671 -0.002930045 -11.9788 -0.1181768 3.821088 -8.855119 -3.051629 4.774226 -10.1804 4.006906 -4.781516 -10.1814 4.006906 -3.812917 -8.855938 -3.051629 -0.003640413 -10.1809 4.006906 -1.75659e-4 -8.870738 -3.531799 4.933106 -9.528512 -0.1963164 -4.938076 -9.52957 -0.1963244 5.428086 -3.898211 4.006907 -5.436706 -3.89937 4.006907 -3.827837 -4.971438 -3.858559 3.803548 -4.970619 -3.858559 -0.004312694 -3.898791 4.006907 -0.007858395 -4.924358 -4.466868 5.000796 -4.538049 -0.2977475 -5.011786 -4.539129 -0.2977395 3.926628 -3.043668 -2.237839 -3.925058 -10.8041 -1.427401 4.804147 -7.021028 -2.22547 -0.008005559 -2.52493 -2.3807 7.8885e-6 -11.2985 -1.445931 3.933808 -10.8033 -1.427411 -3.951367 -3.044519 -2.237839 -4.812156 -7.022058 -2.22547 -4.664876 -9.15914 -1.81534 4.667726 -9.158129 -1.81536 -4.679936 -4.787189 -2.272439 4.661036 -4.7862 -2.272439 3.923707 -11.9404 1.849727 -4.495597 -2.10004 1.835529 -5.218086 -7.055849 1.832608 4.486227 -2.09907 1.835529 -3.930278 -11.9412 1.817617 5.210126 -7.054729 1.832598 -0.004561603 -1.58279 1.830879 -0.003395259 -12.4822 1.825387 4.868236 -9.827239 1.841437 -4.875416 -9.828289 1.841437 5.181366 -4.267409 1.834138 -5.190106 -4.268519 1.834138 2.711578 -1.013711 4.006907 1.891528 -10.3347 -2.45265 2.712218 -7.061969 4.006906 1.822268 -12.6057 3.923786 1.872248 -3.313098 -3.892799 2.037138 -6.988538 -4.178689 2.149688 -11.854 -0.1063518 2.208198 -2.20168 -0.3089141 1.983108 -8.843338 -3.388859 2.385288 -10.1806 4.006906 1.970348 -4.957959 -4.289059 2.711878 -3.8985 4.006907 2.053068 -11.175 -1.411511 2.045478 -2.652769 -2.312119 2.035048 -12.3692 1.837567 2.343848 -1.68474 1.833199 -1.829038 -12.6061 3.795326 -1.899218 -3.313498 -3.892789 -2.045148 -6.988969 -4.178678 -2.720818 -1.014291 4.006907 -1.880618 -10.3351 -2.452641 -2.720168 -7.06255 4.006906 -2.219688 -2.20215 -0.3089102 -2.154108 -11.8545 -0.1063507 -2.392568 -10.1812 4.006906 -1.979158 -8.843759 -3.388849 -2.720508 -3.89908 4.006907 -1.990398 -4.958388 -4.289059 -2.065898 -2.653199 -2.312119 -2.048628 -11.1755 -1.411501 -2.353138 -1.68524 1.833199 -2.041698 -12.3697 1.821507</float_array>
          <technique_common>
            <accessor source="#shape0_041-mesh-positions-array" count="98" stride="3">
              <param name="X" type="float"/>
              <param name="Y" type="float"/>
              <param name="Z" type="float"/>
            </accessor>
          </technique_common>
        </source>
        <source id="shape0_041-mesh-normals">
          <float_array id="shape0_041-mesh-normals-array" count="573">0.9484555 0.2088667 -0.2383418 -0.1680594 -1.80369e-5 0.9857769 -0.8566387 0.3653724 -0.3642432 0.146223 0.2399242 -0.9597162 -0.2256046 0.9325426 -0.2818986 0.2214298 -0.9738586 -0.0506798 0.987515 -0.1220923 -0.09953653 0 -3.05799e-7 1 -0.840022 -0.2380793 -0.4875257 0.1974672 -0.3889366 -0.8998528 0 0 1 -0.07895636 0.2511069 -0.9647338 0.04221332 0.9666325 -0.2526655 -0.03677207 -0.9946402 -0.09663671 -2.00405e-7 -3.05803e-7 1 -0.07527542 -0.3963487 -0.915009 0.904712 0.3649358 -0.2198139 -0.9357815 0.2998256 -0.1855195 -0.1947686 0.9509274 -0.2404212 0.1833913 -0.8749232 -0.4481933 0.9848147 -0.09121179 -0.1477177 -0.9961915 -0.0667929 -0.05604696 0.06778317 0.9748083 -0.2124955 -0.06098294 -0.8882696 -0.4552565 0.9125819 -0.4080067 -0.0269224 2.20069e-5 -0.2638229 0.9645711 -0.6759221 -0.457285 -0.5779445 0.1554446 -0.4790017 -0.8639412 4.33297e-6 -0.03425568 0.9994131 -0.06816452 -0.5336711 -0.8429406 0.8633574 -0.4423831 -0.2427161 -0.9185454 -0.3942102 -0.02954345 0.9936128 1.06822e-4 -0.1128438 0 -3.01465e-7 1 -0.8797037 0.02114075 -0.4750522 0.2280836 -0.04536169 -0.9725843 -2.21976e-7 -3.01465e-7 1 -0.08819496 -0.05780923 -0.9944244 0.9841595 0.03520238 -0.1737554 -0.9963631 0.01004827 -0.08461576 -0.9061531 0.3645602 -0.2144355 -0.9843434 -0.09618371 -0.1477047 0.853888 0.3672039 -0.3688313 -0.2044019 0.922932 -0.3262155 0.1534486 -0.8011679 -0.578432 0.8415421 -0.231131 -0.4882473 0.06837773 0.9170105 -0.3929584 -0.05940026 -0.7743009 -0.6300236 -0.8605926 -0.4453275 -0.247111 0.6798258 -0.4531372 -0.5766313 -0.9848924 0.03404343 -0.1697886 0.8779677 0.02798599 -0.4779012 0.9354152 0.3000009 -0.1870778 -0.1842723 0.9503658 -0.2506964 0.1992999 -0.9542514 -0.222899 0.996271 -0.06559163 -0.0560528 0.05645465 0.9731624 -0.2230869 -0.05287843 -0.9666988 -0.2503944 -0.9485357 0.2086982 -0.2381702 -0.9874814 -0.1223683 -0.0995323 0.9189435 -0.3933646 -0.0284124 -0.9126181 -0.4079246 -0.02694422 0.9962679 0.0103271 -0.08569461 -0.9936229 -1.03672e-4 -0.1127544 0.0791614 0.2513246 -0.9646603 0.055669 -0.9927147 -0.1068586 0.07536375 -0.3960887 -0.9151142 0.1680597 1.75008e-5 0.9857769 0.1803642 0.9308243 -0.31786 0 -3.05797e-7 1 0.05381137 -0.8842062 -0.463987 0.2066861 0.9507742 -0.2308881 0.06813281 -0.5334385 -0.8430903 1.60595e-5 -0.191996 0.9813958 0.08840608 -0.05747896 -0.9944248 -2.21975e-7 -3.01465e-7 1 0.05707412 -0.772552 -0.6323813 0.1330797 0.9092425 -0.3944209 0.05738455 -0.9658677 -0.2525998 0.1946493 0.9506194 -0.2417321 0 0 1 -1.02049e-4 0.9555124 -0.294951 0 -3.05794e-7 1 -0.1457003 0.239336 -0.9599426 -0.2544767 -0.9630734 -0.08792841 -0.1972834 -0.3900223 -0.8994231 -0.0566231 0.9730701 -0.223447 -0.1680328 -0.8688888 -0.465615 1.0824e-5 -0.08692032 0.9962154 -0.1555984 -0.4798281 -0.8634549 -2.21976e-7 -3.01465e-7 1 -0.2275522 -0.04673641 -0.9726437 -0.07022982 0.9177929 -0.3907994 -0.09526813 -0.7670215 -0.6345094 -0.04257398 0.9706085 -0.2368686 -0.2143004 -0.9466972 -0.2404991 0.9402704 0.301539 -0.1580061 -1.68682e-5 0.1584106 0.9873734 -0.8455463 0.2314394 -0.4811313 0.2267381 0.1593428 -0.9608329 -0.1805557 0.9307926 -0.3178441 0.256491 -0.962976 -0.08300507 0.97866 -0.205289 0.009006917 0 -3.05794e-7 1 -0.7921811 -0.1672322 -0.5869264 0.1661433 -0.3598699 -0.9180905 2.4342e-7 0 1 -0.09081405 0.2379964 -0.9670112 -1.02018e-4 0.9555122 -0.2949515 -0.05454218 -0.9921029 -0.1129468 2.56013e-7 -3.05798e-7 1 -0.07157903 -0.3929389 -0.9167745 0.9008231 0.3836967 -0.2032105 -0.9207451 0.3699445 -0.1239741 -0.2064456 0.9510442 -0.2299896 0.1678935 -0.869392 -0.464725 0.9817708 -0.06963455 -0.1768535 -0.9923749 -0.1226168 0.0125404 0.05645245 0.9730231 -0.2236945 -0.05363583 -0.8840688 -0.464269 0.8416203 -0.5305368 0.1010252 -0.2082998 -0.1329544 0.9689863 -0.670438 -0.4420614 -0.5958982 0.09067225 -0.5334737 -0.8409427 -0.04275816 -0.06637001 0.9968786 -0.05950486 -0.5415576 -0.8385551 0.8700544 -0.3863255 -0.3061996 -0.9127897 -0.4081279 -0.0157141 0.994948 0.01032131 -0.09985935 0 -3.01465e-7 1 -0.8665128 0.04080927 -0.4974839 0.2149297 -0.03329539 -0.9760619 2.21976e-7 -3.01465e-7 1 -0.08216959 -0.05188608 -0.9952669 0.9874753 0.06016874 -0.1458507 -0.9978409 0.0344718 -0.05590569 -0.9026343 0.3813331 -0.1995911 -0.9807836 -0.07095986 -0.1817374 0.8430787 0.2360278 -0.483228 -0.1327381 0.9095058 -0.3939285 0.09506148 -0.7673835 -0.6341025 0.7949833 -0.1628846 -0.5843546 0.07019072 0.9176866 -0.3910558 -0.05700415 -0.77235 -0.6326344 -0.8673492 -0.3864489 -0.3136283 0.6753286 -0.4407152 -0.5913556 -0.9877429 0.05537015 -0.1459395 0.8663845 0.04502767 -0.4973434 0.9202969 0.3707106 -0.12501 -0.194725 0.9506546 -0.2415325 0.2164914 -0.9467897 -0.2381615 0.9923952 -0.1223328 0.01365834 0.04237031 0.9706067 -0.2369123 -0.05717962 -0.9653432 -0.2546432 -0.9403694 0.3012779 -0.1579143 -0.9786169 -0.2054981 0.008925855 0.912845 -0.4080728 -0.01380318 -0.8367199 -0.5371823 0.1064664 0.9977988 0.03566974 -0.05590569 -0.9949512 0.01004266 -0.09985661 0.09095835 0.2383607 -0.9669078 0.04377824 -0.9943591 -0.0966106 0.07150959 -0.3925464 -0.916948 -1.68681e-5 0.1584102 0.9873734 0.2253946 0.9325821 -0.2819362 2.56015e-7 -3.05802e-7 1 0.06106823 -0.8883752 -0.4550387 0.1946562 0.9506627 -0.2415562 0.0594207 -0.5414227 -0.8386482 0.1825745 -0.07598519 0.9802514 0.08217865 -0.05139499 -0.9952916 2.21975e-7 -3.01465e-7 1 0.05936563 -0.7744278 -0.6298708 0.204615 0.9224724 -0.3273799 0.05507814 -0.9665893 -0.2503429 0.1840636 0.9503275 -0.2509949 -0.04241579 0.9666236 -0.2526655 0 -3.05798e-7 1 -0.2263149 0.1579809 -0.9611575 -0.2208321 -0.9737958 -0.05435883 -0.1663371 -0.361124 -0.9175628 -0.06783771 0.9748458 -0.2123062 -0.1832081 -0.8742662 -0.4495483 -0.02738595 -0.06640422 0.997417 -0.09091544 -0.5337811 -0.8407213 2.21976e-7 -3.01465e-7 1 -0.2149043 -0.03502732 -0.9760068 -0.06834208 0.917085 -0.3927908 -0.1535189 -0.8004327 -0.5794305 -0.05662453 0.9731584 -0.2230618 -0.1990768 -0.9533911 -0.2267459</float_array>
          <technique_common>
            <accessor source="#shape0_041-mesh-normals-array" count="191" stride="3">
              <param name="X" type="float"/>
              <param name="Y" type="float"/>
              <param name="Z" type="float"/>
            </accessor>
          </technique_common>
        </source>
        <source id="shape0_041-mesh-colors-shape0-lib-vcolor" name="shape0-lib-vcolor">
          <float_array id="shape0_041-mesh-colors-shape0-lib-vcolor-array" count="1728">0.654902 0.5019608 0.3137255 0.654902 0.5019608 0.3137255 0.654902 0.5019608 0.3137255 0.654902 0.5019608 0.3137255 0.654902 0.5019608 0.3137255 0.654902 0.5019608 0.3137255 0.654902 0.5019608 0.3137255 0.654902 0.5019608 0.3137255 0.654902 0.5019608 0.3137255 0.654902 0.5019608 0.3137255 0.654902 0.5019608 0.3137255 0.654902 0.5019608 0.3137255 0.654902 0.5019608 0.3137255 0.654902 0.5019608 0.3137255 0.654902 0.5019608 0.3137255 0.654902 0.5019608 0.3137255 0.654902 0.5019608 0.3137255 0.654902 0.5019608 0.3137255 0.654902 0.5019608 0.3137255 0.654902 0.5019608 0.3137255 0.654902 0.5019608 0.3137255 0.654902 0.5019608 0.3137255 0.654902 0.5019608 0.3137255 0.654902 0.5019608 0.3137255 0.654902 0.5019608 0.3137255 0.654902 0.5019608 0.3137255 0.654902 0.5019608 0.3137255 0.654902 0.5019608 0.3137255 0.654902 0.5019608 0.3137255 0.654902 0.5019608 0.3137255 0.654902 0.5019608 0.3137255 0.654902 0.5019608 0.3137255 0.654902 0.5019608 0.3137255 0.654902 0.5019608 0.3137255 0.654902 0.5019608 0.3137255 0.654902 0.5019608 0.3137255 0.654902 0.5019608 0.3137255 0.654902 0.5019608 0.3137255 0.654902 0.5019608 0.3137255 0.654902 0.5019608 0.3137255 0.654902 0.5019608 0.3137255 0.654902 0.5019608 0.3137255 0.654902 0.5019608 0.3137255 0.654902 0.5019608 0.3137255 0.654902 0.5019608 0.3137255 0.654902 0.5019608 0.3137255 0.654902 0.5019608 0.3137255 0.654902 0.5019608 0.3137255 0.654902 0.5019608 0.3137255 0.654902 0.5019608 0.3137255 0.654902 0.5019608 0.3137255 0.654902 0.5019608 0.3137255 0.654902 0.5019608 0.3137255 0.654902 0.5019608 0.3137255 0.654902 0.5019608 0.3137255 0.654902 0.5019608 0.3137255 0.654902 0.5019608 0.3137255 0.654902 0.5019608 0.3137255 0.654902 0.5019608 0.3137255 0.654902 0.5019608 0.3137255 0.654902 0.5019608 0.3137255 0.654902 0.5019608 0.3137255 0.654902 0.5019608 0.3137255 0.654902 0.5019608 0.3137255 0.654902 0.5019608 0.3137255 0.654902 0.5019608 0.3137255 0.654902 0.5019608 0.3137255 0.654902 0.5019608 0.3137255 0.654902 0.5019608 0.3137255 0.654902 0.5019608 0.3137255 0.654902 0.5019608 0.3137255 0.654902 0.5019608 0.3137255 0.654902 0.5019608 0.3137255 0.654902 0.5019608 0.3137255 0.654902 0.5019608 0.3137255 0.654902 0.5019608 0.3137255 0.654902 0.5019608 0.3137255 0.654902 0.5019608 0.3137255 0.654902 0.5019608 0.3137255 0.654902 0.5019608 0.3137255 0.654902 0.5019608 0.3137255 0.654902 0.5019608 0.3137255 0.654902 0.5019608 0.3137255 0.654902 0.5019608 0.3137255 0.654902 0.5019608 0.3137255 0.654902 0.5019608 0.3137255 0.654902 0.5019608 0.3137255 0.654902 0.5019608 0.3137255 0.654902 0.5019608 0.3137255 0.654902 0.5019608 0.3137255 0.654902 0.5019608 0.3137255 0.654902 0.5019608 0.3137255 0.654902 0.5019608 0.3137255 0.654902 0.5019608 0.3137255 0.654902 0.5019608 0.3137255 0.654902 0.5019608 0.3137255 0.654902 0.5019608 0.3137255 0.654902 0.5019608 0.3137255 0.654902 0.5019608 0.3137255 0.654902 0.5019608 0.3137255 0.654902 0.5019608 0.3137255 0.654902 0.5019608 0.3137255 0.654902 0.5019608 0.3137255 0.654902 0.5019608 0.3137255 0.654902 0.5019608 0.3137255 0.654902 0.5019608 0.3137255 0.654902 0.5019608 0.3137255 0.654902 0.5019608 0.3137255 0.654902 0.5019608 0.3137255 0.654902 0.5019608 0.3137255 0.654902 0.5019608 0.3137255 0.654902 0.5019608 0.3137255 0.654902 0.5019608 0.3137255 0.654902 0.5019608 0.3137255 0.654902 0.5019608 0.3137255 0.654902 0.5019608 0.3137255 0.654902 0.5019608 0.3137255 0.654902 0.5019608 0.3137255 0.654902 0.5019608 0.3137255 0.654902 0.5019608 0.3137255 0.654902 0.5019608 0.3137255 0.654902 0.5019608 0.3137255 0.654902 0.5019608 0.3137255 0.654902 0.5019608 0.3137255 0.654902 0.5019608 0.3137255 0.654902 0.5019608 0.3137255 0.654902 0.5019608 0.3137255 0.654902 0.5019608 0.3137255 0.654902 0.5019608 0.3137255 0.654902 0.5019608 0.3137255 0.654902 0.5019608 0.3137255 0.654902 0.5019608 0.3137255 0.654902 0.5019608 0.3137255 0.654902 0.5019608 0.3137255 0.654902 0.5019608 0.3137255 0.654902 0.5019608 0.3137255 0.654902 0.5019608 0.3137255 0.654902 0.5019608 0.3137255 0.654902 0.5019608 0.3137255 0.654902 0.5019608 0.3137255 0.654902 0.5019608 0.3137255 0.654902 0.5019608 0.3137255 0.654902 0.5019608 0.3137255 0.654902 0.5019608 0.3137255 0.654902 0.5019608 0.3137255 0.654902 0.5019608 0.3137255 0.654902 0.5019608 0.3137255 0.654902 0.5019608 0.3137255 0.654902 0.5019608 0.3137255 0.654902 0.5019608 0.3137255 0.654902 0.5019608 0.3137255 0.654902 0.5019608 0.3137255 0.654902 0.5019608 0.3137255 0.654902 0.5019608 0.3137255 0.654902 0.5019608 0.3137255 0.654902 0.5019608 0.3137255 0.654902 0.5019608 0.3137255 0.654902 0.5019608 0.3137255 0.654902 0.5019608 0.3137255 0.654902 0.5019608 0.3137255 0.654902 0.5019608 0.3137255 0.654902 0.5019608 0.3137255 0.654902 0.5019608 0.3137255 0.654902 0.5019608 0.3137255 0.654902 0.5019608 0.3137255 0.654902 0.5019608 0.3137255 0.654902 0.5019608 0.3137255 0.654902 0.5019608 0.3137255 0.654902 0.5019608 0.3137255 0.654902 0.5019608 0.3137255 0.654902 0.5019608 0.3137255 0.654902 0.5019608 0.3137255 0.654902 0.5019608 0.3137255 0.654902 0.5019608 0.3137255 0.654902 0.5019608 0.3137255 0.654902 0.5019608 0.3137255 0.654902 0.5019608 0.3137255 0.654902 0.5019608 0.3137255 0.654902 0.5019608 0.3137255 0.654902 0.5019608 0.3137255 0.654902 0.5019608 0.3137255 0.654902 0.5019608 0.3137255 0.654902 0.5019608 0.3137255 0.654902 0.5019608 0.3137255 0.654902 0.5019608 0.3137255 0.654902 0.5019608 0.3137255 0.654902 0.5019608 0.3137255 0.654902 0.5019608 0.3137255 0.654902 0.5019608 0.3137255 0.654902 0.5019608 0.3137255 0.654902 0.5019608 0.3137255 0.654902 0.5019608 0.3137255 0.654902 0.5019608 0.3137255 0.654902 0.5019608 0.3137255 0.654902 0.5019608 0.3137255 0.654902 0.5019608 0.3137255 0.654902 0.5019608 0.3137255 0.654902 0.5019608 0.3137255 0.654902 0.5019608 0.3137255 0.654902 0.5019608 0.3137255 0.654902 0.5019608 0.3137255 0.654902 0.5019608 0.3137255 0.654902 0.5019608 0.3137255 0.654902 0.5019608 0.3137255 0.654902 0.5019608 0.3137255 0.654902 0.5019608 0.3137255 0.654902 0.5019608 0.3137255 0.654902 0.5019608 0.3137255 0.654902 0.5019608 0.3137255 0.654902 0.5019608 0.3137255 0.654902 0.5019608 0.3137255 0.654902 0.5019608 0.3137255 0.654902 0.5019608 0.3137255 0.654902 0.5019608 0.3137255 0.654902 0.5019608 0.3137255 0.654902 0.5019608 0.3137255 0.654902 0.5019608 0.3137255 0.654902 0.5019608 0.3137255 0.654902 0.5019608 0.3137255 0.654902 0.5019608 0.3137255 0.654902 0.5019608 0.3137255 0.654902 0.5019608 0.3137255 0.654902 0.5019608 0.3137255 0.654902 0.5019608 0.3137255 0.654902 0.5019608 0.3137255 0.654902 0.5019608 0.3137255 0.654902 0.5019608 0.3137255 0.654902 0.5019608 0.3137255 0.654902 0.5019608 0.3137255 0.654902 0.5019608 0.3137255 0.654902 0.5019608 0.3137255 0.654902 0.5019608 0.3137255 0.654902 0.5019608 0.3137255 0.654902 0.5019608 0.3137255 0.654902 0.5019608 0.3137255 0.654902 0.5019608 0.3137255 0.654902 0.5019608 0.3137255 0.654902 0.5019608 0.3137255 0.654902 0.5019608 0.3137255 0.654902 0.5019608 0.3137255 0.654902 0.5019608 0.3137255 0.654902 0.5019608 0.3137255 0.654902 0.5019608 0.3137255 0.654902 0.5019608 0.3137255 0.654902 0.5019608 0.3137255 0.654902 0.5019608 0.3137255 0.654902 0.5019608 0.3137255 0.654902 0.5019608 0.3137255 0.654902 0.5019608 0.3137255 0.654902 0.5019608 0.3137255 0.654902 0.5019608 0.3137255 0.654902 0.5019608 0.3137255 0.654902 0.5019608 0.3137255 0.654902 0.5019608 0.3137255 0.654902 0.5019608 0.3137255 0.654902 0.5019608 0.3137255 0.654902 0.5019608 0.3137255 0.654902 0.5019608 0.3137255 0.654902 0.5019608 0.3137255 0.654902 0.5019608 0.3137255 0.654902 0.5019608 0.3137255 0.654902 0.5019608 0.3137255 0.654902 0.5019608 0.3137255 0.654902 0.5019608 0.3137255 0.654902 0.5019608 0.3137255 0.654902 0.5019608 0.3137255 0.654902 0.5019608 0.3137255 0.654902 0.5019608 0.3137255 0.654902 0.5019608 0.3137255 0.654902 0.5019608 0.3137255 0.654902 0.5019608 0.3137255 0.654902 0.5019608 0.3137255 0.654902 0.5019608 0.3137255 0.654902 0.5019608 0.3137255 0.654902 0.5019608 0.3137255 0.654902 0.5019608 0.3137255 0.654902 0.5019608 0.3137255 0.654902 0.5019608 0.3137255 0.654902 0.5019608 0.3137255 0.654902 0.5019608 0.3137255 0.654902 0.5019608 0.3137255 0.654902 0.5019608 0.3137255 0.654902 0.5019608 0.3137255 0.654902 0.5019608 0.3137255 0.654902 0.5019608 0.3137255 0.654902 0.5019608 0.3137255 0.654902 0.5019608 0.3137255 0.654902 0.5019608 0.3137255 0.654902 0.5019608 0.3137255 0.654902 0.5019608 0.3137255 0.654902 0.5019608 0.3137255 0.654902 0.5019608 0.3137255 0.654902 0.5019608 0.3137255 0.654902 0.5019608 0.3137255 0.654902 0.5019608 0.3137255 0.654902 0.5019608 0.3137255 0.654902 0.5019608 0.3137255 0.654902 0.5019608 0.3137255 0.654902 0.5019608 0.3137255 0.654902 0.5019608 0.3137255 0.654902 0.5019608 0.3137255 0.654902 0.5019608 0.3137255 0.654902 0.5019608 0.3137255 0.654902 0.5019608 0.3137255 0.654902 0.5019608 0.3137255 0.654902 0.5019608 0.3137255 0.654902 0.5019608 0.3137255 0.654902 0.5019608 0.3137255 0.654902 0.5019608 0.3137255 0.654902 0.5019608 0.3137255 0.654902 0.5019608 0.3137255 0.654902 0.5019608 0.3137255 0.654902 0.5019608 0.3137255 0.654902 0.5019608 0.3137255 0.654902 0.5019608 0.3137255 0.654902 0.5019608 0.3137255 0.654902 0.5019608 0.3137255 0.654902 0.5019608 0.3137255 0.654902 0.5019608 0.3137255 0.654902 0.5019608 0.3137255 0.654902 0.5019608 0.3137255 0.654902 0.5019608 0.3137255 0.654902 0.5019608 0.3137255 0.654902 0.5019608 0.3137255 0.654902 0.5019608 0.3137255 0.654902 0.5019608 0.3137255 0.654902 0.5019608 0.3137255 0.654902 0.5019608 0.3137255 0.654902 0.5019608 0.3137255 0.654902 0.5019608 0.3137255 0.654902 0.5019608 0.3137255 0.654902 0.5019608 0.3137255 0.654902 0.5019608 0.3137255 0.654902 0.5019608 0.3137255 0.654902 0.5019608 0.3137255 0.654902 0.5019608 0.3137255 0.654902 0.5019608 0.3137255 0.654902 0.5019608 0.3137255 0.654902 0.5019608 0.3137255 0.654902 0.5019608 0.3137255 0.654902 0.5019608 0.3137255 0.654902 0.5019608 0.3137255 0.654902 0.5019608 0.3137255 0.654902 0.5019608 0.3137255 0.654902 0.5019608 0.3137255 0.654902 0.5019608 0.3137255 0.654902 0.5019608 0.3137255 0.654902 0.5019608 0.3137255 0.654902 0.5019608 0.3137255 0.654902 0.5019608 0.3137255 0.654902 0.5019608 0.3137255 0.654902 0.5019608 0.3137255 0.654902 0.5019608 0.3137255 0.654902 0.5019608 0.3137255 0.654902 0.5019608 0.3137255 0.654902 0.5019608 0.3137255 0.654902 0.5019608 0.3137255 0.654902 0.5019608 0.3137255 0.654902 0.5019608 0.3137255 0.654902 0.5019608 0.3137255 0.654902 0.5019608 0.3137255 0.654902 0.5019608 0.3137255 0.654902 0.5019608 0.3137255 0.654902 0.5019608 0.3137255 0.654902 0.5019608 0.3137255 0.654902 0.5019608 0.3137255 0.654902 0.5019608 0.3137255 0.654902 0.5019608 0.3137255 0.654902 0.5019608 0.3137255 0.654902 0.5019608 0.3137255 0.654902 0.5019608 0.3137255 0.654902 0.5019608 0.3137255 0.654902 0.5019608 0.3137255 0.654902 0.5019608 0.3137255 0.654902 0.5019608 0.3137255 0.654902 0.5019608 0.3137255 0.654902 0.5019608 0.3137255 0.654902 0.5019608 0.3137255 0.654902 0.5019608 0.3137255 0.654902 0.5019608 0.3137255 0.654902 0.5019608 0.3137255 0.654902 0.5019608 0.3137255 0.654902 0.5019608 0.3137255 0.654902 0.5019608 0.3137255 0.654902 0.5019608 0.3137255 0.654902 0.5019608 0.3137255 0.654902 0.5019608 0.3137255 0.654902 0.5019608 0.3137255 0.654902 0.5019608 0.3137255 0.654902 0.5019608 0.3137255 0.654902 0.5019608 0.3137255 0.654902 0.5019608 0.3137255 0.654902 0.5019608 0.3137255 0.654902 0.5019608 0.3137255 0.654902 0.5019608 0.3137255 0.654902 0.5019608 0.3137255 0.654902 0.5019608 0.3137255 0.654902 0.5019608 0.3137255 0.654902 0.5019608 0.3137255 0.654902 0.5019608 0.3137255 0.654902 0.5019608 0.3137255 0.654902 0.5019608 0.3137255 0.654902 0.5019608 0.3137255 0.654902 0.5019608 0.3137255 0.654902 0.5019608 0.3137255 0.654902 0.5019608 0.3137255 0.654902 0.5019608 0.3137255 0.654902 0.5019608 0.3137255 0.654902 0.5019608 0.3137255 0.654902 0.5019608 0.3137255 0.654902 0.5019608 0.3137255 0.654902 0.5019608 0.3137255 0.654902 0.5019608 0.3137255 0.654902 0.5019608 0.3137255 0.654902 0.5019608 0.3137255 0.654902 0.5019608 0.3137255 0.654902 0.5019608 0.3137255 0.654902 0.5019608 0.3137255 0.654902 0.5019608 0.3137255 0.654902 0.5019608 0.3137255 0.654902 0.5019608 0.3137255 0.654902 0.5019608 0.3137255 0.654902 0.5019608 0.3137255 0.654902 0.5019608 0.3137255 0.654902 0.5019608 0.3137255 0.654902 0.5019608 0.3137255 0.654902 0.5019608 0.3137255 0.654902 0.5019608 0.3137255 0.654902 0.5019608 0.3137255 0.654902 0.5019608 0.3137255 0.654902 0.5019608 0.3137255 0.654902 0.5019608 0.3137255 0.654902 0.5019608 0.3137255 0.654902 0.5019608 0.3137255 0.654902 0.5019608 0.3137255 0.654902 0.5019608 0.3137255 0.654902 0.5019608 0.3137255 0.654902 0.5019608 0.3137255 0.654902 0.5019608 0.3137255 0.654902 0.5019608 0.3137255 0.654902 0.5019608 0.3137255 0.654902 0.5019608 0.3137255 0.654902 0.5019608 0.3137255 0.654902 0.5019608 0.3137255 0.654902 0.5019608 0.3137255 0.654902 0.5019608 0.3137255 0.654902 0.5019608 0.3137255 0.654902 0.5019608 0.3137255 0.654902 0.5019608 0.3137255 0.654902 0.5019608 0.3137255 0.654902 0.5019608 0.3137255 0.654902 0.5019608 0.3137255 0.654902 0.5019608 0.3137255 0.654902 0.5019608 0.3137255 0.654902 0.5019608 0.3137255 0.654902 0.5019608 0.3137255 0.654902 0.5019608 0.3137255 0.654902 0.5019608 0.3137255 0.654902 0.5019608 0.3137255 0.654902 0.5019608 0.3137255 0.654902 0.5019608 0.3137255 0.654902 0.5019608 0.3137255 0.654902 0.5019608 0.3137255 0.654902 0.5019608 0.3137255 0.654902 0.5019608 0.3137255 0.654902 0.5019608 0.3137255 0.654902 0.5019608 0.3137255 0.654902 0.5019608 0.3137255 0.654902 0.5019608 0.3137255 0.654902 0.5019608 0.3137255 0.654902 0.5019608 0.3137255 0.654902 0.5019608 0.3137255 0.654902 0.5019608 0.3137255 0.654902 0.5019608 0.3137255 0.654902 0.5019608 0.3137255 0.654902 0.5019608 0.3137255 0.654902 0.5019608 0.3137255 0.654902 0.5019608 0.3137255 0.654902 0.5019608 0.3137255 0.654902 0.5019608 0.3137255 0.654902 0.5019608 0.3137255 0.654902 0.5019608 0.3137255 0.654902 0.5019608 0.3137255 0.654902 0.5019608 0.3137255 0.654902 0.5019608 0.3137255 0.654902 0.5019608 0.3137255 0.654902 0.5019608 0.3137255 0.654902 0.5019608 0.3137255 0.654902 0.5019608 0.3137255 0.654902 0.5019608 0.3137255 0.654902 0.5019608 0.3137255 0.654902 0.5019608 0.3137255 0.654902 0.5019608 0.3137255 0.654902 0.5019608 0.3137255 0.654902 0.5019608 0.3137255 0.654902 0.5019608 0.3137255 0.654902 0.5019608 0.3137255 0.654902 0.5019608 0.3137255 0.654902 0.5019608 0.3137255 0.654902 0.5019608 0.3137255 0.654902 0.5019608 0.3137255 0.654902 0.5019608 0.3137255 0.654902 0.5019608 0.3137255 0.654902 0.5019608 0.3137255 0.654902 0.5019608 0.3137255 0.654902 0.5019608 0.3137255 0.654902 0.5019608 0.3137255 0.654902 0.5019608 0.3137255 0.654902 0.5019608 0.3137255 0.654902 0.5019608 0.3137255 0.654902 0.5019608 0.3137255 0.654902 0.5019608 0.3137255 0.654902 0.5019608 0.3137255 0.654902 0.5019608 0.3137255 0.654902 0.5019608 0.3137255 0.654902 0.5019608 0.3137255 0.654902 0.5019608 0.3137255 0.654902 0.5019608 0.3137255 0.654902 0.5019608 0.3137255 0.654902 0.5019608 0.3137255 0.654902 0.5019608 0.3137255 0.654902 0.5019608 0.3137255 0.654902 0.5019608 0.3137255 0.654902 0.5019608 0.3137255 0.654902 0.5019608 0.3137255 0.654902 0.5019608 0.3137255 0.654902 0.5019608 0.3137255 0.654902 0.5019608 0.3137255 0.654902 0.5019608 0.3137255 0.654902 0.5019608 0.3137255 0.654902 0.5019608 0.3137255 0.654902 0.5019608 0.3137255 0.654902 0.5019608 0.3137255 0.654902 0.5019608 0.3137255 0.654902 0.5019608 0.3137255 0.654902 0.5019608 0.3137255 0.654902 0.5019608 0.3137255 0.654902 0.5019608 0.3137255 0.654902 0.5019608 0.3137255 0.654902 0.5019608 0.3137255 0.654902 0.5019608 0.3137255 0.654902 0.5019608 0.3137255 0.654902 0.5019608 0.3137255 0.654902 0.5019608 0.3137255 0.654902 0.5019608 0.3137255 0.654902 0.5019608 0.3137255 0.654902 0.5019608 0.3137255 0.654902 0.5019608 0.3137255 0.654902 0.5019608 0.3137255 0.654902 0.5019608 0.3137255 0.654902 0.5019608 0.3137255 0.654902 0.5019608 0.3137255 0.654902 0.5019608 0.3137255 0.654902 0.5019608 0.3137255 0.654902 0.5019608 0.3137255 0.654902 0.5019608 0.3137255 0.654902 0.5019608 0.3137255 0.654902 0.5019608 0.3137255 0.654902 0.5019608 0.3137255 0.654902 0.5019608 0.3137255 0.654902 0.5019608 0.3137255 0.654902 0.5019608 0.3137255 0.654902 0.5019608 0.3137255 0.654902 0.5019608 0.3137255 0.654902 0.5019608 0.3137255 0.654902 0.5019608 0.3137255 0.654902 0.5019608 0.3137255 0.654902 0.5019608 0.3137255 0.654902 0.5019608 0.3137255 0.654902 0.5019608 0.3137255 0.654902 0.5019608 0.3137255 0.654902 0.5019608 0.3137255 0.654902 0.5019608 0.3137255 0.654902 0.5019608 0.3137255 0.654902 0.5019608 0.3137255 0.654902 0.5019608 0.3137255</float_array>
          <technique_common>
            <accessor source="#shape0_041-mesh-colors-shape0-lib-vcolor-array" count="576" stride="3">
              <param name="R" type="float"/>
              <param name="G" type="float"/>
              <param name="B" type="float"/>
            </accessor>
          </technique_common>
        </source>
        <vertices id="shape0_041-mesh-vertices">
          <input semantic="POSITION" source="#shape0_041-mesh-positions"/>
        </vertices>
        <polylist count="192">
          <input semantic="VERTEX" source="#shape0_041-mesh-vertices" offset="0"/>
          <input semantic="NORMAL" source="#shape0_041-mesh-normals" offset="1"/>
          <input semantic="COLOR" source="#shape0_041-mesh-colors-shape0-lib-vcolor" offset="2" set="0"/>
          <vcount>3 3 3 3 3 3 3 3 3 3 3 3 3 3 3 3 3 3 3 3 3 3 3 3 3 3 3 3 3 3 3 3 3 3 3 3 3 3 3 3 3 3 3 3 3 3 3 3 3 3 3 3 3 3 3 3 3 3 3 3 3 3 3 3 3 3 3 3 3 3 3 3 3 3 3 3 3 3 3 3 3 3 3 3 3 3 3 3 3 3 3 3 3 3 3 3 3 3 3 3 3 3 3 3 3 3 3 3 3 3 3 3 3 3 3 3 3 3 3 3 3 3 3 3 3 3 3 3 3 3 3 3 3 3 3 3 3 3 3 3 3 3 3 3 3 3 3 3 3 3 3 3 3 3 3 3 3 3 3 3 3 3 3 3 3 3 3 3 3 3 3 3 3 3 3 3 3 3 3 3 3 3 3 3 3 3 3 3 3 3 3 3 </vcount>
          <p>57 0 0 1 0 1 34 0 2 92 1 3 85 1 4 2 1 5 52 2 6 48 2 7 3 2 8 76 3 9 70 3 10 0 3 11 55 4 12 2 4 13 85 4 14 80 5 15 54 5 16 5 5 17 62 6 18 59 6 19 9 6 20 87 7 21 10 7 22 28 7 23 49 8 24 11 8 25 29 8 26 74 9 27 71 9 28 8 9 29 77 10 30 66 10 31 13 10 32 83 11 33 15 11 34 39 11 35 81 12 36 60 12 37 13 12 38 61 13 39 12 13 40 82 13 41 75 14 42 68 14 43 16 14 44 84 15 45 17 15 46 31 15 47 42 16 48 19 16 49 40 16 50 65 17 51 55 17 52 21 17 53 48 18 54 21 18 55 88 18 56 47 19 57 18 19 58 72 19 59 51 20 60 44 20 61 22 20 62 56 21 63 23 21 64 33 21 65 79 22 66 45 22 67 24 22 68 95 23 69 46 23 70 25 23 71 54 24 72 62 24 73 27 24 74 90 25 75 28 25 76 6 25 77 50 26 78 29 26 79 7 26 80 74 27 81 26 27 82 4 27 83 69 28 84 75 28 85 30 28 86 86 29 87 91 29 88 31 29 89 47 30 90 51 30 91 32 30 92 63 31 93 33 31 94 20 31 95 64 32 96 34 32 97 9 32 98 87 33 99 92 33 100 35 33 101 52 34 102 36 34 103 11 34 104 71 35 105 76 35 106 37 35 107 77 36 108 38 36 109 16 36 110 93 37 111 39 37 112 17 37 113 53 38 114 40 38 115 22 38 116 56 39 117 65 39 118 41 39 119 41 40 120 21 40 121 48 40 122 23 41 123 49 41 124 50 41 125 0 42 126 42 42 127 53 42 128 3 43 129 48 43 130 94 43 131 4 44 132 47 44 133 78 44 134 26 45 135 8 45 136 44 45 137 70 46 138 15 46 139 45 46 140 86 47 141 14 47 142 46 47 143 33 48 144 50 48 145 43 48 146 4 49 147 26 49 148 51 49 149 23 50 150 41 50 151 52 50 152 8 51 153 37 51 154 53 51 155 19 52 156 57 52 157 64 52 158 21 53 159 55 53 160 96 53 161 72 54 162 18 54 163 54 54 164 32 55 165 22 55 166 59 55 167 73 56 168 24 56 169 60 56 170 25 57 171 61 57 172 97 57 173 35 58 174 2 58 175 55 58 176 10 59 177 56 59 178 63 59 179 18 60 180 32 60 181 62 60 182 28 61 183 63 61 184 58 61 185 40 62 186 64 62 187 59 62 188 10 63 189 35 63 190 65 63 191 39 64 192 15 64 193 70 64 194 61 65 195 80 65 196 69 65 197 31 66 198 17 66 199 71 66 200 1 67 201 66 67 202 77 67 203 57 68 204 81 68 205 66 68 206 27 69 207 9 69 208 68 69 209 78 70 210 72 70 211 25 70 212 42 71 213 79 71 214 73 71 215 31 72 216 74 72 217 67 72 218 5 73 219 27 73 220 75 73 221 17 74 222 39 74 223 76 74 224 34 75 225 77 75 226 68 75 227 67 76 228 78 76 229 46 76 230 0 77 231 70 77 232 79 77 233 25 78 234 72 78 235 80 78 236 19 79 237 73 79 238 81 79 239 13 80 240 85 80 241 92 80 242 96 81 243 85 81 244 13 81 245 16 82 246 87 82 247 90 82 248 3 83 249 83 83 250 93 83 251 97 84 252 82 84 253 6 84 254 11 85 255 84 85 256 91 85 257 94 86 258 88 86 259 24 86 260 43 87 261 95 87 262 89 87 263 30 88 264 90 88 265 82 88 266 7 89 267 29 89 268 91 89 269 38 90 270 92 90 271 87 90 272 36 91 273 93 91 274 84 91 275 83 92 276 94 92 277 45 92 278 7 93 279 86 93 280 95 93 281 88 94 282 96 94 283 60 94 284 89 95 285 97 95 286 58 95 287 64 96 288 57 96 289 34 96 290 35 97 291 92 97 292 2 97 293 36 98 294 52 98 295 3 98 296 37 99 297 76 99 298 0 99 299 96 100 300 55 100 301 85 100 302 69 101 303 80 101 304 5 101 305 27 102 306 62 102 307 9 102 308 90 103 309 87 103 310 28 103 311 50 104 312 49 104 313 29 104 314 26 105 315 74 105 316 8 105 317 38 106 318 77 106 319 13 106 320 93 107 321 83 107 322 39 107 323 66 108 324 81 108 325 13 108 326 97 109 327 61 109 328 82 109 329 30 110 330 75 110 331 16 110 332 91 111 333 84 111 334 31 111 335 53 112 336 42 112 337 40 112 338 41 113 339 65 113 340 21 113 341 94 114 342 48 114 343 88 114 344 78 115 345 47 115 346 72 115 347 32 116 348 51 116 349 22 116 350 63 117 351 56 117 352 33 117 353 73 118 354 79 118 355 24 118 356 89 119 357 95 119 358 25 119 359 5 120 360 54 120 361 27 120 362 82 121 363 90 121 364 6 121 365 43 122 366 50 122 367 7 122 368 67 123 369 74 123 370 4 123 371 12 124 372 69 124 373 30 124 374 14 125 375 86 125 376 31 125 377 18 126 378 47 126 379 32 126 380 58 127 381 63 127 382 20 127 383 59 128 384 64 128 385 9 128 386 10 129 387 87 129 388 35 129 389 49 130 390 52 130 391 11 130 392 8 131 393 71 131 394 37 131 395 68 132 396 77 132 397 16 132 398 84 133 399 93 133 400 17 133 401 44 134 402 53 134 403 22 134 404 23 135 405 56 135 406 41 135 407 52 136 408 41 136 409 48 136 410 33 137 411 23 137 412 50 137 413 37 138 414 0 138 415 53 138 416 83 139 417 3 139 418 94 139 419 67 140 420 4 140 421 78 140 422 51 141 423 26 141 424 44 141 425 79 142 426 70 142 427 45 142 428 95 143 429 86 143 430 46 143 431 20 144 432 33 144 433 43 144 434 47 145 435 4 145 436 51 145 437 49 146 438 23 146 439 52 146 440 44 147 441 8 147 442 53 147 443 40 148 444 19 148 445 64 148 446 88 149 447 21 149 448 96 149 449 80 150 450 72 150 451 54 150 452 62 151 453 32 151 454 59 151 455 81 152 456 73 152 457 60 152 458 89 153 459 25 153 460 97 153 461 65 154 462 35 154 463 55 154 464 28 155 465 10 155 466 63 155 467 54 156 468 18 156 469 62 156 470 6 157 471 28 157 472 58 157 473 22 158 474 40 158 475 59 158 476 56 159 477 10 159 478 65 159 479 76 160 480 39 160 481 70 160 482 12 161 483 61 161 484 69 161 485 74 162 486 31 162 487 71 162 488 34 163 489 1 163 490 77 163 491 1 164 492 57 164 493 66 164 494 75 165 495 27 165 496 68 165 497 46 166 498 78 166 499 25 166 500 19 167 501 42 167 502 73 167 503 14 168 504 31 168 505 67 168 506 69 169 507 5 169 508 75 169 509 71 170 510 17 170 511 76 170 512 9 171 513 34 171 514 68 171 515 14 172 516 67 172 517 46 172 518 42 173 519 0 173 520 79 173 521 61 174 522 25 174 523 80 174 524 57 175 525 19 175 526 81 175 527 38 80 528 13 80 529 92 80 530 60 176 531 96 176 532 13 176 533 30 177 534 16 177 535 90 177 536 36 178 537 3 178 538 93 178 539 58 179 540 97 179 541 6 179 542 29 180 543 11 180 544 91 180 545 45 181 546 94 181 547 24 181 548 20 182 549 43 182 550 89 182 551 12 183 552 30 183 553 82 183 554 86 184 555 7 184 556 91 184 557 16 185 558 38 185 559 87 185 560 11 186 561 36 186 562 84 186 563 15 187 564 83 187 565 45 187 566 43 188 567 7 188 568 95 188 569 24 189 570 88 189 571 60 189 572 20 190 573 89 190 574 58 190 575</p>
        </polylist>
      </mesh>
    </geometry>
  </library_geometries>
  <library_controllers/>
  <library_visual_scenes>
    <visual_scene id="Scene" name="Scene">
      <node id="VIZ_RightFingerJoint33y_link_0" name="VIZ_RightFingerJoint33y_link_0" type="NODE">
        <instance_geometry url="#shape0_041-mesh" name="VIZ_RightFingerJoint33y_link_0"/>
      </node>
    </visual_scene>
  </library_visual_scenes>
  <scene>
    <instance_visual_scene url="#Scene"/>
  </scene>
</COLLADA>