<COLLADA xmlns="http://www.collada.org/2005/11/COLLADASchema" version="1.4.1">
  <asset>
    <created>2017-05-23T16:44:09.460160</created>
    <modified>2017-05-23T16:44:09.460181</modified>
    <up_axis>Z_UP</up_axis>
  </asset>
  <library_effects>
    <effect name="effect0" id="effect0">
      <profile_COMMON>
        <technique sid="common">
          <phong>
            <emission>
              <color>0.0 0.0 0.0 1.0</color>
            </emission>
            <ambient>
              <color>0.0 0.0 0.0 1.0</color>
            </ambient>
            <diffuse>
              <color>0.7 0.7 0.7 1.0</color>
            </diffuse>
            <specular>
              <color>1 1 1 1.0</color>
            </specular>
            <shininess>
              <float>0.0</float>
            </shininess>
            <reflective>
              <color>0.0 0.0 0.0 1.0</color>
            </reflective>
            <reflectivity>
              <float>0.0</float>
            </reflectivity>
            <transparent>
              <color>0.0 0.0 0.0 1.0</color>
            </transparent>
            <transparency>
              <float>1.0</float>
            </transparency>
          </phong>
        </technique>
        <extra>
          <technique profile="GOOGLEEARTH">
            <double_sided>0</double_sided>
          </technique>
        </extra>
      </profile_COMMON>
    </effect>
  </library_effects>
  <library_geometries>
    <geometry id="geometry0" name="Extrude001">
      <mesh>
        <source id="cubenormals-array0">
          <float_array count="576" id="cubenormals-array0-array">0 -1 -0 0 -1 -0 0.1601824 -0.9870874 -0 0.1601824 -0.9870874 -0 0.3162278 -0.9486833 -0 0.3162278 -0.9486833 -0 -0.09637886 -0.9953447 -0 -0.09637886 -0.9953447 -0 0.3120283 -0.9500728 -0 0.3120283 -0.9500728 -0 0.628815 -0.7775549 -0 0.628815 -0.7775549 -0 0.01517361 -0.9998849 -0 0.01517361 -0.9998849 -0 -0.2574942 -0.9662798 -0 -0.2574942 -0.9662798 -0 -1.80395 -5.08977 0 -1.80395 -5.08977 0 -1.80395 -5.08977 0 -1.80395 -5.08977 0 -1.80395 -5.08977 0 -1.80395 -5.08977 0 -1.80395 -5.08977 0 -1.80395 -5.08977 0 -1.80395 -5.08977 0 -1.80395 -5.08977 0 -1.80395 -5.08977 0 -1.80395 -5.08977 0 -1.80395 -5.08977 0 -1.80395 -5.08977 0 -1.80395 -5.08977 0 -1.80395 -5.08977 0 -1.80395 -5.08977 0 -1.80395 -5.08977 0 -1.80395 -5.08977 0 -1.80395 -5.08977 0 -1.80395 -5.08977 0 -1.80395 -5.08977 0 -1.80395 -5.08977 0 -1.80395 -5.08977 0 -1.80395 -5.08977 0 -1.80395 -5.08977 0 -1.80395 -5.08977 0 -1.80395 -5.08977 0 -1.80395 -5.08977 0 -1.80395 -5.08977 0 -1.80395 -5.08977 0 -1.80395 -5.08977 0 -1.80395 -5.08977 0 -1.80395 -5.08977 0 -1.80395 -5.08977 0 -1.80395 -5.08977 0 -1.80395 -5.08977 0 -1.80395 -5.08977 0 -1.80395 -5.08977 0 -1.80395 -5.08977 0 -1.80395 -5.08977 0 -1.80395 -5.08977 0 -1.80395 -5.08977 0 -1.80395 -5.08977 0 -1.80395 -5.08977 0 -1.80395 -5.08977 0 -1.80395 -5.08977 0 -1.80395 -5.08977 0 -1.80395 -5.08977 0 -1.80395 -5.08977 0 -1.80395 -5.08977 0 -1.80395 -5.08977 0 -1.80395 -5.08977 0 -1.80395 -5.08977 0 -1.80395 -5.08977 0 -1.80395 -5.08977 0 -1.80395 -5.08977 0 -1.80395 -5.08977 0 -1.80395 -5.08977 0 -1.80395 -5.08977 0 -0.2574942 0.9662798 -0 -0.2574942 0.9662798 -0 0.01517361 0.9998849 0 0.01517361 0.9998849 0 0.628815 0.7775549 0 0.628815 0.7775549 0 0.3120283 0.9500728 0 0.3120283 0.9500728 0 -0.09637886 0.9953447 -0 -0.09637886 0.9953447 -0 0.3162278 0.9486833 0 0.3162278 0.9486833 0 0.1601824 0.9870874 0 0.1601824 0.9870874 0 -0 1 -0 -0 1 -0 -0.4589905 0.8884412 -0 -0.4589905 0.8884412 -0 -1 -0 -0 -1 -0 -0 -0.4589905 -0.8884412 -0 -0.4589905 -0.8884412 -0 0 0 -1 0 0 -1 0 0 -1 0 0 -1 0 0 -1 0 0 -1 0 0 -1 0 0 -1 0 0 -1 0 0 -1 0 0 -1 0 0 -1 0 0 -1 0 0 -1 0 0 -1 0 0 -1 0 0 -1 0 0 -1 0 0 -1 0 0 -1 0 0 -1 0 0 -1 0 0 -1 0 0 -1 0 0 -1 0 0 -1 0 0 -1 0 0 -1 0 0 -1 0 0 -1 0 0 -1 0 0 -1 0 0 -1 0 0 -1 0 0 -1 0 0 -1 0 0 -1 0 0 -1 0 0 -1 0 0 -1 0 0 -1 0 0 -1 0 0 -1 0 0 -1 0 0 -1 0 0 -1 0 0 -1 -0 -0 1 -0 -0 1 -0 -0 1 -0 -0 1 -0 -0 1 -0 -0 1 -0 -0 1 -0 -0 1 -0 -0 1 -0 -0 1 -0 -0 1 -0 -0 1 -0 -0 1 -0 -0 1 -0 -0 1 -0 -0 1 -0 -0 1 -0 -0 1 -0 -0 1 -0 -0 1 -0 -0 1 -0 -0 1 -0 -0 1 -0 -0 1 -0 -0 1 -0 -0 1 -0 -0 1 -0 -0 1 -0 -0 1 -0 -0 1 -0 -0 1 -0 -0 1 -0 -0 1 -0 -0 1 -0 -0 1 -0 -0 1 -0 -0 1 -0 -0 1 -0 -0 1 -0 -0 1 -0 -0 1 -0 -0 1 -0 -0 1 -0 -0 1 -0 -0 1 -0 -0 1 -0 -0 1</float_array>
          <technique_common>
            <accessor count="192" source="#cubenormals-array0-array" stride="3">
              <param type="float" name="X"/>
              <param type="float" name="Y"/>
              <param type="float" name="Z"/>
            </accessor>
          </technique_common>
        </source>
        <source id="cubeverts-array0">
          <float_array count="294" id="cubeverts-array0-array">-5.688704 -12.35 8 -5.688704 -12.35 0 10.10089 -12.35 0 10.10089 -12.35 8 11.3658 -12.14473 0 11.3658 -12.14473 8 19.69767 -9.367442 0 19.69767 -9.367442 8 22.93205 -9.680626 0 22.93205 -9.680626 8 28.83269 -7.742707 0 28.83269 -7.742707 8 31.6467 -5.46699 0 31.6467 -5.46699 8 67.37687 -4.924772 0 67.37687 -4.924772 8 67.99605 -5.08977 0 67.99605 -5.08977 8 75.2 2.220446e-16 8 75.2 2.220446e-16 0 75.15622 0.6862466 0 75.15622 0.6862466 8 75.02558 1.361365 8 75.02558 1.361365 0 74.81021 2.014408 0 74.81021 2.014408 8 68.6575 -5.277754 0 68.6575 -5.277754 8 74.51359 2.634786 0 74.51359 2.634786 8 69.33747 -5.380155 8 69.33747 -5.380155 0 74.14053 3.212439 0 74.14053 3.212439 8 73.6971 3.738 8 70.02495 -5.395312 8 70.02495 -5.395312 0 73.6971 3.738 0 70.70877 -5.322981 8 70.70877 -5.322981 0 73.19046 4.202946 8 73.19046 4.202946 0 71.37786 -5.164333 8 71.37786 -5.164333 0 72.02137 -4.921942 8 72.62885 4.599738 8 72.62885 4.599738 0 72.02137 4.921942 8 72.02137 4.921942 0 72.02137 -4.921942 0 72.62885 -4.599738 8 72.62885 -4.599738 0 71.37786 5.164333 8 71.37786 5.164333 0 73.19046 -4.202946 8 73.19046 -4.202946 0 70.70877 5.322981 8 70.70877 5.322981 0 70.02495 5.395312 8 70.02495 5.395312 0 73.6971 -3.738 0 69.33747 5.380155 8 73.6971 -3.738 8 74.14053 -3.212439 8 69.33747 5.380155 0 74.14053 -3.212439 0 68.6575 5.277754 8 68.6575 5.277754 0 67.99605 5.08977 0 67.99605 5.08977 8 74.51359 -2.634786 0 74.51359 -2.634786 8 74.81021 -2.014408 0 74.81021 -2.014408 8 75.02558 -1.361365 8 75.02558 -1.361365 0 75.15622 -0.6862466 0 75.15622 -0.6862466 8 67.37687 4.924772 0 67.37687 4.924772 8 31.6467 5.46699 8 31.6467 5.46699 0 28.83269 7.742707 0 28.83269 7.742707 8 22.93205 9.680626 0 22.93205 9.680626 8 19.69767 9.367442 0 19.69767 9.367442 8 11.3658 12.14473 0 11.3658 12.14473 8 10.10089 12.35 8 10.10089 12.35 0 -5.688704 12.35 0 -5.688704 12.35 8 -8.950992 10.66462 0 -8.950992 10.66462 8 -8.950992 -10.66462 0 -8.950992 -10.66462 8</float_array>
          <technique_common>
            <accessor count="98" source="#cubeverts-array0-array" stride="3">
              <param type="float" name="X"/>
              <param type="float" name="Y"/>
              <param type="float" name="Z"/>
            </accessor>
          </technique_common>
        </source>
        <vertices id="cubeverts-array0-vertices">
          <input source="#cubeverts-array0" semantic="POSITION"/>
        </vertices>
        <triangles count="192" material="materialref">
          <input source="#cubenormals-array0" semantic="NORMAL" offset="1"/>
          <input source="#cubeverts-array0-vertices" semantic="VERTEX" offset="0"/>
          <p>0 0 1 0 2 0 3 1 0 1 2 1 3 2 2 2 4 2 5 3 3 3 4 3 5 4 4 4 6 4 7 5 5 5 6 5 7 6 6 6 8 6 9 7 7 7 8 7 9 8 8 8 10 8 11 9 9 9 10 9 11 10 10 10 12 10 13 11 11 11 12 11 13 12 12 12 14 12 15 13 13 13 14 13 15 14 14 14 16 14 17 15 15 15 16 15 18 16 19 16 20 16 21 17 18 17 20 17 22 18 21 18 20 18 22 19 20 19 23 19 22 20 23 20 24 20 25 21 22 21 24 21 17 22 16 22 26 22 27 23 17 23 26 23 25 24 24 24 28 24 29 25 25 25 28 25 30 26 27 26 31 26 27 27 26 27 31 27 29 28 28 28 32 28 33 29 29 29 32 29 34 30 33 30 32 30 35 31 30 31 36 31 30 32 31 32 36 32 34 33 32 33 37 33 38 34 35 34 39 34 40 35 34 35 41 35 35 36 36 36 39 36 34 37 37 37 41 37 42 38 38 38 43 38 44 39 42 39 43 39 45 40 40 40 46 40 38 41 39 41 43 41 40 42 41 42 46 42 47 43 45 43 48 43 44 44 43 44 49 44 45 45 46 45 48 45 50 46 44 46 51 46 52 47 47 47 53 47 44 48 49 48 51 48 47 49 48 49 53 49 54 50 50 50 55 50 56 51 52 51 57 51 50 52 51 52 55 52 52 53 53 53 57 53 58 54 56 54 59 54 54 55 55 55 60 55 61 56 58 56 59 56 62 57 54 57 60 57 63 58 62 58 60 58 56 59 57 59 59 59 61 60 59 60 64 60 63 61 60 61 65 61 66 62 61 62 67 62 61 63 64 63 67 63 66 64 67 64 68 64 69 65 66 65 68 65 63 66 65 66 70 66 71 67 63 67 70 67 71 68 70 68 72 68 73 69 71 69 72 69 74 70 73 70 72 70 74 71 72 71 75 71 74 72 75 72 76 72 77 73 74 73 76 73 18 74 77 74 76 74 18 75 76 75 19 75 69 76 68 76 78 76 79 77 69 77 78 77 79 78 78 78 80 78 80 79 78 79 81 79 80 80 81 80 82 80 83 81 80 81 82 81 83 82 82 82 84 82 85 83 83 83 84 83 85 84 84 84 86 84 87 85 85 85 86 85 87 86 86 86 88 86 89 87 87 87 88 87 90 88 89 88 88 88 90 89 88 89 91 89 90 90 91 90 92 90 93 91 90 91 92 91 93 92 92 92 94 92 95 93 93 93 94 93 95 94 94 94 96 94 97 95 95 95 96 95 97 96 96 96 1 96 0 97 97 97 1 97 65 98 60 98 55 98 51 99 65 99 55 99 81 100 14 100 12 100 81 101 78 101 14 101 75 102 70 102 65 102 75 103 72 103 70 103 82 104 10 104 8 104 82 105 12 105 10 105 82 106 81 106 12 106 36 107 43 107 39 107 84 108 82 108 8 108 86 109 8 109 6 109 86 110 84 110 8 110 19 111 76 111 75 111 88 112 4 112 2 112 88 113 6 113 4 113 88 114 86 114 6 114 26 115 36 115 31 115 91 116 88 116 2 116 26 117 49 117 43 117 26 118 51 118 49 118 92 119 2 119 1 119 26 120 43 120 36 120 92 121 91 121 2 121 92 122 1 122 96 122 23 123 20 123 19 123 94 124 92 124 96 124 23 125 19 125 75 125 32 126 24 126 23 126 32 127 28 127 24 127 32 128 75 128 65 128 32 129 23 129 75 129 46 130 26 130 16 130 46 131 37 131 32 131 46 132 41 132 37 132 46 133 65 133 51 133 46 134 51 134 26 134 46 135 32 135 65 135 53 136 48 136 46 136 59 137 57 137 53 137 64 138 53 138 46 138 64 139 59 139 53 139 68 140 64 140 46 140 68 141 67 141 64 141 68 142 46 142 16 142 78 143 16 143 14 143 78 144 68 144 16 144 54 145 62 145 63 145 54 146 63 146 50 146 13 147 15 147 80 147 15 148 79 148 80 148 63 149 71 149 74 149 71 150 73 150 74 150 9 151 11 151 83 151 11 152 13 152 83 152 13 153 80 153 83 153 38 154 42 154 35 154 9 155 83 155 85 155 7 156 9 156 87 156 9 157 85 157 87 157 74 158 77 158 18 158 3 159 5 159 89 159 5 160 7 160 89 160 7 161 87 161 89 161 30 162 35 162 27 162 3 163 89 163 90 163 42 164 44 164 27 164 44 165 50 165 27 165 0 166 3 166 93 166 35 167 42 167 27 167 3 168 90 168 93 168 97 169 0 169 93 169 18 170 21 170 22 170 97 171 93 171 95 171 74 172 18 172 22 172 22 173 25 173 33 173 25 174 29 174 33 174 63 175 74 175 33 175 74 176 22 176 33 176 17 177 27 177 45 177 33 178 34 178 45 178 34 179 40 179 45 179 50 180 63 180 45 180 27 181 50 181 45 181 63 182 33 182 45 182 45 183 47 183 52 183 52 184 56 184 58 184 45 185 52 185 61 185 52 186 58 186 61 186 45 187 61 187 69 187 61 188 66 188 69 188 17 189 45 189 69 189 15 190 17 190 79 190 17 191 69 191 79 191</p>
        </triangles>
      </mesh>
    </geometry>
  </library_geometries>
  <library_materials>
    <material name="mymaterial" id="material0">
      <instance_effect url="#effect0"/>
    </material>
  </library_materials>
  <library_visual_scenes>
    <visual_scene id="myscene">
      <node name="node0" id="node0">
        <instance_geometry url="#geometry0">
          <bind_material>
            <technique_common>
              <instance_material symbol="materialref" target="#material0"/>
            </technique_common>
          </bind_material>
        </instance_geometry>
      </node>
    </visual_scene>
  </library_visual_scenes>
  <scene>
    <instance_visual_scene url="#myscene"/>
  </scene>
</COLLADA>
