<?xml version="1.0" encoding="utf-8"?>
<COLLADA xmlns="http://www.collada.org/2005/11/COLLADASchema" version="1.4.1">
  <asset>
    <contributor>
      <author>Blender User</author>
      <authoring_tool>Blender 2.76.0 commit date:2015-11-03, commit time:10:56, hash:f337fea</authoring_tool>
    </contributor>
    <created>2017-01-25T08:36:10</created>
    <modified>2017-01-25T08:36:10</modified>
    <unit name="meter" meter="1"/>
    <up_axis>Z_UP</up_axis>
  </asset>
  <library_images/>
  <library_geometries>
    <geometry id="Cube_029-mesh" name="Cube.029">
      <mesh>
        <source id="Cube_029-mesh-positions">
          <float_array id="Cube_029-mesh-positions-array" count="294">-36.76995 24.64418 37.5529 -30.95748 18.81768 71.14282 -37.35896 33.04609 43.2959 -24.5693 17.38139 10.44801 -27.8399 -3.389802 35.907 -27.4062 10.65958 67.3291 -33.42139 28.50068 63.22041 -26.518 24.19029 12.92621 -18.1458 -7.916665 13.51321 15.5743 35.01078 61.18011 12.2548 30.37309 70.20832 17.8169 33.47198 47.5653 3.06129 21.2652 2.00945 -35.75259 33.07488 46.9557 -34.21978 29.93692 64.34944 15.13829 34.98582 66.61064 14.02809 25.60334 11.71038 -25.36779 24.55044 7.780872 17.7613 32.45798 43.7809 13.11299 22.33669 72.32332 11.3163 2.067705 35.264 11.0413 16.9815 8.955529 17.8169 33.47198 47.5653 15.0139 34.49438 63.26061 11.5162 22.33669 71.1943 11.0413 16.9815 8.955529 13.2297 24.1671 12.8394 -4.98496 -12.4839 16.20651 -7.321877 6.204493 71.7133 -22.24239 -12.44315 21.0899 -4.220746 -11.69154 9.155381 6.564282 -12.89144 19.4162 3.843534 11.28654 76.15823 -20.74289 3.461919 67.96714 -17.47529 -12.44055 13.47948 0.82783 -9.815711 11.92491 -3.94834 15.0119 1.604799 -11.3031 15.0465 1.733989 -3.95254 20.7452 0.06849002 7.167259 21.7945 3.984571 -4.036057 -5.306682 7.742886 -13.5411 -4.951614 9.068017 -15.6728 21.0093 1.05417 -3.95254 20.7452 0.06849002 1.57246 -4.844172 9.469006 1.18063 11.72019 75.0452 9.623147 24.08389 74.59221 9.623147 24.08389 74.59221 -25.6792 12.46808 71.1158 -2.05542 9.463665 74.04341 -2.05542 9.463665 74.04341 9.623147 24.08389 74.59221 -29.3607 18.81768 70.0138 -24.5615 11.22258 71.2401 -18.9045 -12.0788 17.71801 -25.1117 -7.78427 33.1171 -25.6304 2.325463 57.2367 -25.5156 11.57328 70.73921 -27.3828 15.62698 70.8525 -27.3828 15.62698 70.8525 -35.06118 32.44848 55.5698 -35.06118 32.44848 55.5698 -28.5009 25.26549 16.93901 -24.5694 23.11419 8.909899 -15.6728 21.0093 1.05417 -15.2638 4.729406 5.483448 -32.0176 24.32968 66.99791 9.623147 24.08389 74.59221 12.3314 30.48089 70.07202 15.5743 35.01078 61.18011 15.5743 35.01078 61.18011 13.2297 24.1671 12.8394 3.06129 21.2652 2.00945 -15.6728 21.0093 1.05417 -15.6728 21.0093 1.05417 13.4916 32.26908 67.78911 9.623147 24.08389 74.59221 9.623147 24.08389 74.59221 9.05428 10.07979 65.16561 3.5555 -11.9401 18.23601 3.69067 -9.24395 14.05891 11.0413 16.9815 8.955529 11.0413 16.9815 8.955529 7.167259 21.7945 3.984571 -0.3197278 10.61109 74.56571 -0.3197278 10.61109 74.56571 -17.2722 6.648802 70.96 -18.1458 -7.916665 13.51321 -4.220747 -10.2553 10.28441 0.82783 -9.815711 11.92491 -18.1458 -7.916665 13.51321 -24.1148 10.88388 71.22331 -24.5694 23.11419 8.909899 -32.0176 24.32968 66.99791 0.82783 -9.815711 11.92491 8.29096 10.51249 66.78021 7.167259 21.7945 3.984571 13.4916 32.26908 67.78911</float_array>
          <technique_common>
            <accessor source="#Cube_029-mesh-positions-array" count="98" stride="3">
              <param name="X" type="float"/>
              <param name="Y" type="float"/>
              <param name="Z" type="float"/>
            </accessor>
          </technique_common>
        </source>
        <source id="Cube_029-mesh-normals">
          <float_array id="Cube_029-mesh-normals-array" count="411">-0.9393498 -0.3080723 0.15071 -0.7677491 -0.3682928 0.5243299 -0.7473779 -0.6183276 0.2430995 -0.5258235 -0.6989883 0.4846907 -0.980641 -0.1290017 0.1473156 0 0 1 -0.767394 -0.552668 -0.3250612 -0.9039441 0.1963216 -0.379925 -0.9054961 -0.1099796 -0.4098551 0.5481365 0.8340874 -0.06200492 -9.94184e-4 -0.9660413 0.258386 -0.9023532 -0.2698391 -0.3360741 -0.9299942 -0.1632058 -0.3293549 -0.6677343 -0.2109985 -0.7138702 -0.0880137 0.9789105 0.1843587 -0.1189707 0.3854677 0.9150195 -0.9277682 -0.3727365 -0.01771491 -0.8688373 0.4904745 -0.06750267 0.8878192 -0.05281198 0.4571522 0.862644 -0.5039221 0.04368269 -0.2130604 0.9588005 -0.1879017 0.4556899 -0.8730199 0.1737326 0.7049003 -0.6370426 -0.3119174 0.07381093 0.9783548 -0.1933235 -0.8295527 0.4579586 -0.3195565 -0.5691606 -0.6798823 -0.4624029 0.7131539 -0.6796712 0.1716355 0.9168606 0.1363343 0.3752062 -0.9466344 0.2600316 -0.1904389 0.2095064 -0.9318296 -0.2963118 0.9545797 -0.2617529 0.142349 0.6902605 -0.4106706 0.5957266 0.9350432 -0.3108929 -0.170411 0.6070556 -0.3123414 -0.7307026 0.9643882 -0.2541788 -0.07313323 0.2484542 -0.8867651 0.3897671 0.4202746 0.8015366 -0.4253336 0.9032912 -0.007190763 0.4289677 0.1043057 -0.9428218 0.3165554 -0.5199352 -0.7917301 0.3206726 -0.08730691 -0.4398418 0.8938215 -0.2693915 -0.4869086 0.8308719 -0.002987742 -0.9999931 -0.002213299 -0.2300727 -0.02684783 -0.9728031 -0.5011026 0.7599721 -0.413931 -0.9420893 -0.1373517 -0.3059453 0.3777257 -0.9237807 -0.0628696 0.5810888 -0.4931212 -0.6474314 -0.1424619 -0.3267083 -0.9343267 0.011433 -0.3454169 -0.9383798 -0.2737641 -0.6447732 -0.7136671 -0.08642756 -0.1751508 -0.9807408 1.56251e-6 0.9659335 -0.2587907 0.350684 -0.2589433 -0.8999829 0.295747 -0.4583283 -0.8381342 0.7992835 -0.3581147 -0.4825969 -0.3955109 0.8020201 -0.4475879 -0.1325474 0.1265276 0.9830676 0.8294587 0.4163016 -0.3724128 -0.1610532 0.412858 0.8964431 -0.1245761 -0.01278156 0.9921277 -0.1402431 -0.2816377 0.9492166 -0.7601633 -0.3651608 0.53741 -0.5153756 -0.7038986 0.4887892 -0.8994317 -0.4294629 0.0811448 -0.4094682 -0.5265365 0.745047 -0.8744717 -0.4382163 0.2080042 -0.5152577 -0.7123408 0.4765292 -0.9730324 -0.1727203 0.1528919 -0.9818246 -0.05699133 0.1810314 0.5797172 0.5992434 0.552119 0.9634366 0.2576435 -0.07355183 -0.9168483 -0.1243178 -0.379387 -0.6747153 -0.1912727 -0.7128633 0.1605086 -0.9306998 0.3286865 -0.90335 -0.268101 -0.3347845 -0.8832201 -0.3505843 -0.3114691 -0.7045676 -0.2589517 -0.6607032 -0.06356185 0.897011 0.4374142 -0.13942 0.6048525 0.7840381 0.994572 0.07258754 -0.07455092 0.8105123 0.5817904 0.06774932 -0.8105123 -0.5817904 -0.06774932 0.887814 -0.4327192 0.1566539 0.8658998 -0.4956774 0.06724321 -0.2985625 0.9416198 -0.1556043 0.8780173 -0.4784729 0.0122236 0.1557277 0.8241196 -0.5445877 0.02754014 0.9723938 -0.2317149 -0.7189015 -0.6950752 0.007158041 0.01094543 0.8912399 -0.4534001 -0.7707996 -0.599007 -0.2169303 0.9884166 -0.04696655 0.1443151 0.6217929 0.3055034 0.7211389 0.9436889 -0.2733657 0.1863402 0.961858 -0.240509 0.1303244 0.7021536 -0.672697 0.233365 -0.2376963 -0.9113121 0.3361708 0.7863823 -0.3925563 0.4769723 0.9780985 -0.1765207 -0.1102903 0.9378519 -0.2976042 -0.1785097 -7.45108e-5 0.9659281 -0.2588106 -0.4556896 0.8730201 -0.1737325 0.8156452 0.06247633 -0.5751695 -0.1200294 -0.9423911 0.3122371 -0.3497774 -0.04976034 0.9355104 0.5589289 -0.7528472 0.3475913 -0.1089581 0.9851112 -0.1329822 0.08865916 -0.9428588 0.3211807 -0.1656374 -0.932272 0.3216105 -0.08655285 -0.6302898 0.7715201 -0.7560254 -0.5186491 0.3992854 0.02044868 -0.9937812 -0.109458 -0.2797641 0.5933299 -0.7547793 -0.2797117 0.9440214 -0.1748862 0.08964657 -0.8953473 -0.4362531 0.05215519 0.838269 0.5427569 0.1976712 0.605813 -0.7706601 -0.01817256 -0.2890652 -0.9571369 -0.2103835 -0.2615697 -0.9419767 -0.1398339 -0.4482297 -0.8829137 -0.5059226 -0.3772479 -0.7757104 -0.0181815 -0.2588007 -0.9657597 0.3425384 -0.2429385 -0.9075508 -4.77902e-5 -0.9658937 0.2589392 0.3034376 -0.2767505 -0.9117757 0.3116949 -0.4432727 -0.8404496 0.6062852 -0.280537 -0.7441219 0.5005449 -0.3704651 -0.7824389 0.5412157 -0.4587723 0.7047082 0.9217001 -0.1326389 0.3645214 -0.1417534 0.08891767 0.9859004 -0.7466573 -0.5580197 -0.3621008 -0.1472147 -0.2172706 0.9649463 0.1590043 0.1995981 -0.9668911 -0.537465 -0.4087115 0.737622 0.04225975 0.00637269 0.9990864</float_array>
          <technique_common>
            <accessor source="#Cube_029-mesh-normals-array" count="137" stride="3">
              <param name="X" type="float"/>
              <param name="Y" type="float"/>
              <param name="Z" type="float"/>
            </accessor>
          </technique_common>
        </source>
        <vertices id="Cube_029-mesh-vertices">
          <input semantic="POSITION" source="#Cube_029-mesh-positions"/>
        </vertices>
        <polylist count="192">
          <input semantic="VERTEX" source="#Cube_029-mesh-vertices" offset="0"/>
          <input semantic="NORMAL" source="#Cube_029-mesh-normals" offset="1"/>
          <vcount>3 3 3 3 3 3 3 3 3 3 3 3 3 3 3 3 3 3 3 3 3 3 3 3 3 3 3 3 3 3 3 3 3 3 3 3 3 3 3 3 3 3 3 3 3 3 3 3 3 3 3 3 3 3 3 3 3 3 3 3 3 3 3 3 3 3 3 3 3 3 3 3 3 3 3 3 3 3 3 3 3 3 3 3 3 3 3 3 3 3 3 3 3 3 3 3 3 3 3 3 3 3 3 3 3 3 3 3 3 3 3 3 3 3 3 3 3 3 3 3 3 3 3 3 3 3 3 3 3 3 3 3 3 3 3 3 3 3 3 3 3 3 3 3 3 3 3 3 3 3 3 3 3 3 3 3 3 3 3 3 3 3 3 3 3 3 3 3 3 3 3 3 3 3 3 3 3 3 3 3 3 3 3 3 3 3 3 3 3 3 3 3 </vcount>
          <p>0 0 4 0 5 0 5 1 57 1 58 1 4 2 55 2 56 2 5 3 56 3 91 3 0 4 1 4 6 4 6 5 60 5 61 5 1 5 58 5 59 5 6 6 59 6 93 6 0 7 2 7 7 7 3 8 7 8 63 8 2 9 61 9 62 9 7 10 62 10 92 10 3 11 8 11 4 11 8 12 54 12 55 12 3 13 64 13 65 13 8 5 65 5 90 5 9 14 13 14 14 14 10 15 14 15 66 15 13 5 61 5 60 5 14 16 60 16 93 16 9 17 10 17 15 17 15 5 69 5 70 5 10 18 67 18 68 18 15 19 68 19 97 19 11 20 16 20 12 20 12 5 16 5 72 5 11 21 70 21 71 21 16 22 71 22 96 22 12 23 17 23 13 23 13 24 17 24 62 24 73 5 74 5 17 5 17 25 74 25 92 25 18 26 22 26 23 26 19 27 23 27 75 27 70 5 69 5 23 5 23 28 69 28 97 28 18 29 19 29 24 29 20 30 24 30 78 30 76 5 77 5 24 5 24 31 77 31 95 31 20 5 25 5 21 5 25 5 81 5 82 5 20 32 79 32 80 32 80 33 94 33 81 33 18 34 21 34 26 34 22 5 26 5 71 5 21 5 82 5 83 5 83 5 96 5 71 5 31 35 32 35 28 35 32 5 84 5 85 5 31 36 79 36 78 36 32 37 78 37 95 37 28 38 33 38 29 38 33 39 56 39 55 39 28 40 85 40 86 40 33 41 86 41 91 41 27 42 29 42 34 42 34 43 87 43 88 43 29 44 55 44 54 44 34 45 54 45 90 45 27 46 30 46 35 46 31 47 35 47 80 47 88 5 89 5 35 5 35 5 89 5 94 5 40 48 41 48 37 48 37 49 41 49 65 49 88 50 87 50 41 50 41 5 87 5 90 5 37 51 42 51 38 51 42 5 74 5 73 5 64 5 63 5 42 5 63 5 92 5 74 5 36 5 38 5 43 5 39 5 43 5 83 5 38 52 73 52 72 52 72 5 96 5 83 5 36 53 39 53 44 53 40 54 44 54 89 54 39 5 82 5 81 5 44 55 81 55 94 55 45 5 49 5 50 5 46 5 50 5 77 5 85 5 84 5 50 5 50 56 84 56 95 56 46 5 51 5 47 5 51 5 68 5 67 5 76 5 75 5 51 5 75 5 97 5 68 5 45 57 47 57 52 57 48 58 52 58 59 58 67 59 66 59 52 59 52 5 66 5 93 5 48 60 53 60 49 60 49 61 53 61 86 61 48 62 58 62 57 62 53 63 57 63 91 63 1 64 0 64 5 64 1 65 5 65 58 65 5 66 4 66 56 66 57 67 5 67 91 67 2 68 0 68 6 68 2 69 6 69 61 69 6 70 1 70 59 70 60 71 6 71 93 71 3 72 0 72 7 72 64 73 3 73 63 73 7 74 2 74 62 74 63 5 7 5 92 5 0 75 3 75 4 75 4 76 8 76 55 76 8 77 3 77 65 77 54 5 8 5 90 5 10 78 9 78 14 78 67 79 10 79 66 79 14 80 13 80 60 80 66 5 14 5 93 5 11 81 9 81 15 81 11 82 15 82 70 82 15 83 10 83 68 83 69 84 15 84 97 84 9 85 11 85 12 85 73 5 12 5 72 5 16 86 11 86 71 86 72 87 16 87 96 87 9 88 12 88 13 88 61 89 13 89 62 89 12 90 73 90 17 90 62 91 17 91 92 91 19 92 18 92 23 92 76 93 19 93 75 93 22 94 70 94 23 94 75 5 23 5 97 5 20 95 18 95 24 95 79 96 20 96 78 96 19 97 76 97 24 97 78 98 24 98 95 98 18 99 20 99 21 99 21 5 25 5 82 5 25 100 20 100 80 100 25 5 80 5 81 5 22 101 18 101 26 101 70 102 22 102 71 102 26 103 21 103 83 103 26 5 83 5 71 5 27 104 31 104 28 104 28 105 32 105 85 105 32 106 31 106 78 106 84 107 32 107 95 107 27 108 28 108 29 108 29 109 33 109 55 109 33 110 28 110 86 110 56 111 33 111 91 111 30 112 27 112 34 112 30 113 34 113 88 113 34 114 29 114 54 114 87 5 34 5 90 5 31 115 27 115 35 115 79 116 31 116 80 116 30 117 88 117 35 117 80 5 35 5 94 5 36 118 40 118 37 118 64 119 37 119 65 119 40 120 88 120 41 120 65 121 41 121 90 121 36 122 37 122 38 122 38 5 42 5 73 5 37 5 64 5 42 5 42 5 63 5 74 5 39 123 36 123 43 123 82 5 39 5 83 5 43 5 38 5 72 5 43 124 72 124 83 124 40 125 36 125 44 125 88 126 40 126 89 126 44 127 39 127 81 127 89 5 44 5 94 5 46 128 45 128 50 128 76 5 46 5 77 5 49 5 85 5 50 5 77 129 50 129 95 129 45 5 46 5 47 5 47 5 51 5 67 5 46 5 76 5 51 5 51 130 75 130 68 130 48 131 45 131 52 131 58 5 48 5 59 5 47 5 67 5 52 5 59 132 52 132 93 132 45 133 48 133 49 133 85 134 49 134 86 134 53 135 48 135 57 135 86 136 53 136 91 136</p>
        </polylist>
      </mesh>
    </geometry>
  </library_geometries>
  <library_controllers/>
  <library_visual_scenes>
    <visual_scene id="Scene" name="Scene">
      <node id="COL_VIZ_LMrot_link_0" name="COL_VIZ_LMrot_link_0" type="NODE">
        <instance_geometry url="#Cube_029-mesh" name="COL_VIZ_LMrot_link_0"/>
      </node>
    </visual_scene>
  </library_visual_scenes>
  <scene>
    <instance_visual_scene url="#Scene"/>
  </scene>
</COLLADA>