<?xml version="1.0" encoding="utf-8"?>
<COLLADA xmlns="http://www.collada.org/2005/11/COLLADASchema" version="1.4.1">
  <asset>
    <contributor>
      <author>Blender User</author>
      <authoring_tool>Blender 2.76.0 commit date:2015-11-03, commit time:10:56, hash:f337fea</authoring_tool>
    </contributor>
    <created>2017-01-25T08:36:10</created>
    <modified>2017-01-25T08:36:10</modified>
    <unit name="meter" meter="1"/>
    <up_axis>Z_UP</up_axis>
  </asset>
  <library_images/>
  <library_geometries>
    <geometry id="Cube_057-mesh" name="Cube.057">
      <mesh>
        <source id="Cube_057-mesh-positions">
          <float_array id="Cube_057-mesh-positions-array" count="294">-39.40937 -136.96 0.1134666 -34.00378 -171.387 24.25207 -16.1019 21.01837 0.04373008 -34.08488 -160.599 -24.02593 -25.3745 -276.087 0.06886172 -25.3745 -276.087 0.06886172 -11.3548 21.01837 11.4167 -11.4167 21.01837 -11.3548 -17.9912 -276.087 -17.89375 0 27.04427 4.4394e-6 0 27.04427 4.4394e-6 10.0179 25.02007 -0.0271995 10.0179 25.02007 -0.0271995 -10.0179 25.02007 0.02721077 -10.0179 25.02007 0.02721077 7.10291 25.02007 7.064464 7.10291 25.02007 7.064464 -7.10291 25.02007 -7.064455 39.40937 -136.96 -0.1135073 34.08488 -160.599 24.02577 25.3745 -276.087 -0.06894779 34.00378 -171.387 -24.25213 16.1019 21.01837 -0.04371994 11.4167 21.01837 11.3548 17.9912 -276.087 17.89366 17.8937 -276.087 -17.99125 11.3548 21.01837 -11.4167 0 -285 -4.63991e-5 0.05171185 -280.4071 19.04615 -19.0462 -280.4071 0.05167627 -0.05173146 -280.4071 -19.04625 19.0462 -280.4071 -0.05176377 19.0462 -280.4071 -0.05176377 -13.4311 -280.4071 13.50425 -13.4311 -280.4071 13.50425 17.6334 -280.393 -7.360206 7.759635 -149.11 -42.03282 -21.9715 -136.96 -34.64272 -0.04373306 21.01837 -16.1019 21.7937 -136.96 -34.76882 -0.06891638 -276.087 -25.37454 -14.1468 -276.087 -21.03415 -11.4167 21.01837 -11.3548 11.3548 21.01837 -11.4167 14.0323 -276.087 -21.11055 0.10979 -149.11 42.87408 21.9715 -136.96 34.64268 0.04372018 21.01837 16.1019 -21.7938 -136.96 34.76878 0.0689007 -276.087 25.37446 14.1467 -276.087 21.03406 11.4167 21.01837 11.3548 -11.3548 21.01837 11.4167 -14.0323 -276.087 21.11046 -7.360157 -280.393 -17.63345 -7.360157 -280.393 -17.63345 -7.360157 -280.393 -17.63345 -14.0323 -276.087 21.11046 -22.3584 -149.11 35.66947 -11.3548 21.01837 11.4167 -8.38101 25.00807 5.603314 -8.38101 25.00807 5.603314 -8.38101 25.00807 5.603314 -11.4167 21.01837 -11.3548 -22.5407 -149.11 -35.54022 -14.1468 -276.087 -21.03415 -8.38101 25.00807 5.603314 -8.38101 25.00807 5.603314 8.41129 25.00807 5.557714 8.41129 25.00807 5.557714 8.41129 25.00807 5.557714 8.41129 25.00807 5.557714 8.38101 25.00807 -5.603306 8.38101 25.00807 -5.603306 -9.38696 24.99597 -3.858386 11.4167 21.01837 11.3548 22.5407 -149.11 35.54018 14.1467 -276.087 21.03406 13.5043 -280.4071 13.43105 13.5043 -280.4071 13.43105 13.5043 -280.4071 13.43105 14.0323 -276.087 -21.11055 22.3584 -149.11 -35.66953 11.3548 21.01837 -11.4167 13.5043 -280.4071 13.43105 13.5043 -280.4071 13.43105 -13.4311 -280.4071 13.50425 -7.360157 -280.393 -17.63345 -7.360157 -280.393 -17.63345 17.6334 -280.393 -7.360206 -7.360157 -280.393 -17.63345 -13.4311 -280.4071 13.50425 -5.603309 25.00807 -8.381011 -8.38101 25.00807 5.603314 17.6334 -280.393 -7.360206 13.5043 -280.4071 13.43105 5.557709 25.00807 -8.411352 5.603309 25.00807 8.381014</float_array>
          <technique_common>
            <accessor source="#Cube_057-mesh-positions-array" count="98" stride="3">
              <param name="X" type="float"/>
              <param name="Y" type="float"/>
              <param name="Z" type="float"/>
            </accessor>
          </technique_common>
        </source>
        <source id="Cube_057-mesh-normals">
          <float_array id="Cube_057-mesh-normals-array" count="339">0 0 1 -0.8660108 -0.1791982 0.4668119 -0.2835883 -0.9573259 -0.05572205 -0.9094653 0.1333295 0.3938228 -0.9164431 0.1350418 -0.3766906 -0.5258815 0.8441196 -0.1044555 -0.9148055 -0.1474474 -0.376019 -0.6329511 -0.1290492 -0.7633605 9.30802e-4 0.9394187 0.3427707 0.003054499 -0.9999946 0.001255452 0 -1 0 0.1775081 0.8843027 -0.431856 -0.003054499 -0.9999946 -0.001255452 -6.15955e-5 -0.9999715 -0.007562339 0.03893232 0.9986199 0.03525215 0.9164431 0.1350417 0.3766909 0.3828571 0.8416811 0.3807799 0.9148055 -0.1474471 0.3760189 0.6329553 -0.1290498 0.7633571 0.3579745 -0.824504 0.4382325 0.9105203 -0.1628273 -0.3800528 0.622049 -0.141761 -0.7700383 0.9035238 0.3890413 0.1796987 0.9094652 0.1333296 -0.3938227 0.3653286 0.918304 -0.1524886 -0.09601473 -0.967582 0.2335944 -7.34619e-4 0.9999998 3.08375e-4 0 1 -6.49914e-6 0.2330681 0.9675822 -0.0972833 -0.002082049 -0.9999976 -8.59544e-4 0.1540794 -0.9604288 -0.2320263 0.003171384 0.9999942 0.001307785 0.001303553 0.9999942 -0.003166913 -0.292949 -0.1065925 -0.9501678 -0.3802502 0.1596964 -0.9109922 -0.1767895 0.8884556 -0.4235472 -0.9647514 0.02585101 0.2618902 0.3752903 0.1597619 -0.9130353 -0.3807847 -0.8416805 0.3828538 0.5315833 -0.1120756 -0.8395584 0.1348646 -0.9349642 -0.3281059 0.2921037 -0.1306647 0.9474188 0.3802499 0.1596962 0.9109924 0.2013343 0.8525269 0.4823512 0.9647505 0.02585095 -0.2618936 -0.3828571 -0.8416811 -0.3807799 -0.3752906 0.1597619 0.9130352 -0.3987399 -0.111605 0.9102478 -0.1451256 -0.8652168 0.4799361 -0.9918088 -0.1000772 0.07937288 -0.5553935 -0.1305839 0.821271 -0.6356619 -0.6917569 0.3426463 -0.9143788 0.1350721 0.3816635 -0.5767396 0.7806533 0.2407322 -0.8121777 0.1334922 0.5679324 -0.9292693 0.1398393 -0.3419119 -0.7653801 0.1393651 -0.6283078 -0.366153 0.9183035 -0.1505019 -0.9877251 -0.09960126 -0.1203284 -0.3679136 -0.9174804 -0.1512261 -0.6274113 -0.1282145 -0.76806 -0.3339862 -0.8492906 -0.4088507 -0.197541 0.978451 0.06009447 0.1976132 0.9769089 0.08122771 0.01741397 0.9998227 0.007158994 -0.1540249 -0.9800078 -0.1259408 -0.01741397 -0.9998227 -0.007158994 0.009143471 0.9999582 -2.45839e-5 -0.1976132 0.976909 -0.08122766 0.001006007 0.9999966 -0.002446532 -0.009692668 -0.9999512 -0.001925528 0.9292687 0.1398391 0.3419133 0.765383 0.1393647 0.6283044 0.5780356 0.7806564 0.2375931 0.987725 -0.09960132 0.120329 0.5496482 -0.8042659 0.2259282 0.627401 -0.1282132 0.7680687 0.9918088 -0.1000772 -0.07937288 0.5553935 -0.1305838 -0.821271 0.2384077 -0.9660533 -0.09951263 0.285758 -0.8906227 -0.3537423 0.9143789 0.1350722 -0.3816632 0.812178 0.1334924 -0.5679321 0.5253103 0.8441172 -0.1073096 0.2288599 -0.946473 0.2276224 0 -1 -1.62478e-6 -0.2330681 -0.9675822 0.09728419 -0.493101 -0.846033 -0.202681 7.34619e-4 -0.9999998 -3.08375e-4 0.2340485 -0.9710828 -0.04711276 -0.2815417 -0.1090831 -0.9533285 0.8573151 -0.002136766 -0.5147877 -0.1868578 -0.7731506 -0.6060712 -0.184672 0.1398043 -0.9728058 -0.03321117 0.9428207 -0.3316417 0.4081581 -0.8475555 0.3392 0.3434538 0.1568897 -0.9259725 0.9660719 0.02585065 0.2569766 0.1987097 0.8525277 -0.4834366 0.2865095 -0.1419681 -0.9475006 0.1192814 -0.9111319 -0.3944752 -0.8599437 -0.002131819 -0.5103845 0.4038639 -0.1115291 0.9079952 -0.8573157 -0.002136588 0.5147867 0.1477243 -0.8652206 0.4791355 0.2745156 0.1495835 0.9498768 9.62822e-4 0.9350326 0.3545606 -0.2690771 0.1496163 0.9514266 -0.9660444 0.02583312 -0.2570815 -0.19871 0.8525276 0.4834368 -0.2869594 -0.1306941 0.9489855 9.26824e-4 -0.9400405 0.3410619 0.8599584 -0.002128243 0.51036</float_array>
          <technique_common>
            <accessor source="#Cube_057-mesh-normals-array" count="113" stride="3">
              <param name="X" type="float"/>
              <param name="Y" type="float"/>
              <param name="Z" type="float"/>
            </accessor>
          </technique_common>
        </source>
        <vertices id="Cube_057-mesh-vertices">
          <input semantic="POSITION" source="#Cube_057-mesh-positions"/>
        </vertices>
        <polylist count="192">
          <input semantic="VERTEX" source="#Cube_057-mesh-vertices" offset="0"/>
          <input semantic="NORMAL" source="#Cube_057-mesh-normals" offset="1"/>
          <vcount>3 3 3 3 3 3 3 3 3 3 3 3 3 3 3 3 3 3 3 3 3 3 3 3 3 3 3 3 3 3 3 3 3 3 3 3 3 3 3 3 3 3 3 3 3 3 3 3 3 3 3 3 3 3 3 3 3 3 3 3 3 3 3 3 3 3 3 3 3 3 3 3 3 3 3 3 3 3 3 3 3 3 3 3 3 3 3 3 3 3 3 3 3 3 3 3 3 3 3 3 3 3 3 3 3 3 3 3 3 3 3 3 3 3 3 3 3 3 3 3 3 3 3 3 3 3 3 3 3 3 3 3 3 3 3 3 3 3 3 3 3 3 3 3 3 3 3 3 3 3 3 3 3 3 3 3 3 3 3 3 3 3 3 3 3 3 3 3 3 3 3 3 3 3 3 3 3 3 3 3 3 3 3 3 3 3 3 3 3 3 3 3 </vcount>
          <p>4 0 5 0 1 0 1 1 5 1 57 1 55 0 56 0 5 0 5 2 56 2 91 2 0 3 1 3 6 3 6 0 60 0 61 0 58 0 59 0 6 0 59 0 93 0 60 0 0 4 2 4 7 4 7 0 63 0 64 0 2 0 61 0 62 0 7 5 62 5 92 5 3 6 8 6 4 6 8 0 54 0 55 0 3 7 64 7 65 7 65 0 90 0 54 0 13 0 14 0 10 0 14 0 66 0 67 0 61 0 60 0 14 0 60 0 93 0 66 0 9 0 10 0 15 0 15 0 69 0 70 0 10 8 67 8 68 8 68 0 97 0 69 0 11 0 16 0 12 0 12 9 16 9 72 9 70 0 71 0 16 0 71 10 96 10 72 10 9 11 12 11 17 11 13 12 17 12 62 12 73 13 74 13 17 13 17 14 74 14 92 14 18 15 22 15 23 15 23 0 75 0 76 0 70 0 69 0 23 0 69 16 97 16 75 16 19 17 24 17 20 17 24 0 78 0 79 0 19 18 76 18 77 18 24 19 77 19 95 19 20 20 25 20 21 20 21 21 25 21 81 21 20 0 79 0 80 0 25 22 80 22 94 22 18 23 21 23 26 23 22 24 26 24 71 24 82 0 83 0 26 0 26 0 83 0 96 0 27 0 31 0 32 0 32 0 84 0 85 0 79 0 78 0 32 0 78 0 95 0 84 0 27 25 28 25 33 25 29 26 33 26 56 26 28 27 85 27 86 27 33 0 86 0 91 0 27 28 29 28 34 28 30 29 34 29 87 29 29 0 55 0 54 0 54 0 90 0 87 0 27 30 30 30 35 30 31 31 35 31 80 31 30 32 88 32 89 32 35 0 89 0 94 0 36 33 40 33 41 33 41 0 65 0 64 0 88 0 87 0 41 0 87 0 90 0 65 0 37 34 42 34 38 34 38 35 42 35 74 35 37 36 64 36 63 36 42 0 63 0 92 0 38 37 43 37 39 37 39 0 43 0 83 0 73 0 72 0 43 0 43 38 72 38 96 38 36 39 39 39 44 39 44 40 89 40 88 40 82 0 81 0 44 0 81 0 94 0 89 0 45 41 49 41 50 41 50 0 77 0 76 0 85 0 84 0 50 0 84 0 95 0 77 0 46 42 51 42 47 42 47 43 51 43 68 43 46 44 76 44 75 44 75 45 97 45 68 45 47 46 52 46 48 46 48 0 52 0 59 0 67 0 66 0 52 0 66 0 93 0 59 0 45 47 48 47 53 47 49 48 53 48 86 48 58 0 57 0 53 0 57 0 91 0 86 0 0 49 4 49 1 49 58 50 1 50 57 50 4 0 55 0 5 0 57 51 5 51 91 51 2 52 0 52 6 52 2 53 6 53 61 53 1 54 58 54 6 54 6 0 59 0 60 0 3 55 0 55 7 55 3 56 7 56 64 56 7 57 2 57 62 57 63 0 7 0 92 0 0 58 3 58 4 58 4 59 8 59 55 59 8 60 3 60 65 60 8 61 65 61 54 61 9 0 13 0 10 0 10 62 14 62 67 62 13 0 61 0 14 0 14 0 60 0 66 0 11 63 9 63 15 63 11 64 15 64 70 64 15 65 10 65 68 65 15 0 68 0 69 0 9 0 11 0 12 0 73 0 12 0 72 0 11 66 70 66 16 66 16 67 71 67 72 67 13 68 9 68 17 68 61 0 13 0 62 0 12 69 73 69 17 69 62 70 17 70 92 70 19 71 18 71 23 71 19 72 23 72 76 72 22 73 70 73 23 73 23 0 69 0 75 0 18 74 19 74 20 74 20 75 24 75 79 75 24 76 19 76 77 76 78 0 24 0 95 0 18 77 20 77 21 77 82 78 21 78 81 78 25 79 20 79 80 79 81 80 25 80 94 80 22 81 18 81 26 81 70 0 22 0 71 0 21 82 82 82 26 82 71 83 26 83 96 83 28 84 27 84 32 84 28 85 32 85 85 85 31 0 79 0 32 0 32 0 78 0 84 0 29 86 27 86 33 86 55 0 29 0 56 0 33 0 28 0 86 0 56 0 33 0 91 0 30 87 27 87 34 87 88 0 30 0 87 0 34 88 29 88 54 88 34 0 54 0 87 0 31 89 27 89 35 89 79 0 31 0 80 0 35 0 30 0 89 0 80 0 35 0 94 0 37 90 36 90 41 90 37 91 41 91 64 91 40 92 88 92 41 92 41 0 87 0 65 0 36 93 37 93 38 93 73 94 38 94 74 94 42 0 37 0 63 0 74 95 42 95 92 95 36 96 38 96 39 96 82 97 39 97 83 97 38 98 73 98 43 98 83 0 43 0 96 0 40 99 36 99 44 99 40 100 44 100 88 100 39 101 82 101 44 101 44 0 81 0 89 0 46 102 45 102 50 102 46 103 50 103 76 103 49 104 85 104 50 104 50 0 84 0 77 0 45 105 46 105 47 105 67 106 47 106 68 106 51 0 46 0 75 0 51 0 75 0 68 0 45 107 47 107 48 107 58 108 48 108 59 108 47 109 67 109 52 109 52 0 66 0 59 0 49 110 45 110 53 110 85 111 49 111 86 111 48 112 58 112 53 112 53 0 57 0 86 0</p>
        </polylist>
      </mesh>
    </geometry>
  </library_geometries>
  <library_controllers/>
  <library_visual_scenes>
    <visual_scene id="Scene" name="Scene">
      <node id="COL_VIZ_RKsegment_link_0" name="COL_VIZ_RKsegment_link_0" type="NODE">
        <instance_geometry url="#Cube_057-mesh" name="COL_VIZ_RKsegment_link_0"/>
      </node>
    </visual_scene>
  </library_visual_scenes>
  <scene>
    <instance_visual_scene url="#Scene"/>
  </scene>
</COLLADA>