<?xml version="1.0" encoding="utf-8"?>
<COLLADA xmlns="http://www.collada.org/2005/11/COLLADASchema" version="1.4.1">
  <asset>
    <contributor>
      <author>Blender User</author>
      <authoring_tool>Blender 2.76.0 commit date:2015-11-03, commit time:10:56, hash:f337fea</authoring_tool>
    </contributor>
    <created>2017-01-25T08:36:06</created>
    <modified>2017-01-25T08:36:06</modified>
    <unit name="meter" meter="1"/>
    <up_axis>Z_UP</up_axis>
  </asset>
  <library_images/>
  <library_geometries>
    <geometry id="Cube_032-mesh" name="Cube.032">
      <mesh>
        <source id="Cube_032-mesh-positions">
          <float_array id="Cube_032-mesh-positions-array" count="294">-14.49909 -76.97361 -4.191883 -14.30076 -90.76022 9.506324 -1.956008 16.20389 -0.001684904 -14.33468 -90.70092 -9.396924 -10.98623 -134.312 -3.688652 -7.85413 -134.312 9.89632 -1.664297 14.66099 5.594612 -0.8728101 14.63739 -6.283517 -7.89407 -134.312 -9.970805 1.943596 16.20989 -0.02367573 1.943596 16.20989 -0.02367573 1.943596 16.20989 -0.02367573 1.943596 16.20989 -0.02367573 1.943596 16.20989 -0.02367573 1.943596 16.20989 -0.02367573 1.943596 16.20989 -0.02367573 1.943596 16.20989 -0.02367573 1.943596 16.20989 -0.02367573 14.43248 -60.3613 0.0378527 14.35376 -101.601 9.479502 11.83455 -135.444 -0.09199082 14.31956 -101.542 -9.547018 1.943596 16.20989 -0.02367573 0.8615927 14.64989 6.260572 9.22198 -134.312 9.85066 9.182042 -134.312 -10.01642 0.8438907 14.64009 -6.293178 -8.235421 -136.086 -0.03968811 -8.235421 -136.086 -0.03968811 -10.98623 -134.312 -3.688652 -10.98623 -134.312 -3.688652 11.83455 -135.444 -0.09199082 11.83455 -135.444 -0.09199082 -10.97153 -134.312 3.630738 -10.97153 -134.312 3.630738 6.654991 -134.312 -12.23162 -0.04538232 -101.94 -19.02658 -0.04538232 -101.94 -17.00002 -0.01482164 14.62309 -6.544228 -0.04538232 -101.94 -17.00002 -2.468087 -134.312 -13.64512 -2.468087 -134.312 -13.64512 -0.8728101 14.63739 -6.283517 -0.8728101 14.63739 -6.283517 3.741336 -134.312 -13.66162 3.618536 -60.67331 15.26229 3.618536 -60.67331 15.26229 0.003581464 14.63339 6.521342 -3.324146 -60.85311 15.28099 -2.413427 -134.312 13.54148 3.796055 -134.312 13.52488 0.8615927 14.64989 6.260572 0.8615927 14.64989 6.260572 -5.327023 -134.312 12.11148 -9.828778 -134.312 -7.090112 -9.828778 -134.312 -7.090112 -9.828778 -134.312 -7.090112 -7.85413 -134.312 9.89632 -11.70526 -76.9195 13.70055 -1.664297 14.66099 5.594612 -4.588586 12.01399 0.01644194 -4.588586 12.01399 0.01644194 -4.588586 12.01399 0.01644194 -0.8728101 14.63739 -6.283517 -11.75188 -76.8379 -13.55547 -2.468087 -134.312 -13.64512 -1.023519 13.46489 7.439023 -1.023519 13.46489 7.439023 -1.023519 13.46489 7.439023 -1.023519 13.46489 7.439023 -1.023519 13.46489 7.439023 -1.023519 13.46489 7.439023 0.8438907 14.64009 -6.293178 0.8438907 14.64009 -6.293178 0.8438907 14.64009 -6.293178 0.8615927 14.64989 6.260572 11.4138 -60.5016 13.18085 9.22198 -134.312 9.85066 9.22198 -134.312 9.85066 9.22198 -134.312 9.85066 9.22198 -134.312 9.85066 9.182042 -134.312 -10.01642 11.36909 -60.4235 -13.08417 0.8438907 14.64009 -6.293178 6.703862 -134.312 12.07938 6.703862 -134.312 12.07938 -10.97153 -134.312 3.630738 -10.98623 -134.312 -3.688652 -10.98623 -134.312 -3.688652 6.654991 -134.312 -12.23162 -9.828778 -134.312 -7.090112 -9.80034 -134.312 7.025998 -0.8728101 14.63739 -6.283517 -1.984437 13.46899 6.679062 6.654991 -134.312 -12.23162 6.703862 -134.312 12.07938 0.8438907 14.64009 -6.293178 1.992887 13.47509 6.656592</float_array>
          <technique_common>
            <accessor source="#Cube_032-mesh-positions-array" count="98" stride="3">
              <param name="X" type="float"/>
              <param name="Y" type="float"/>
              <param name="Z" type="float"/>
            </accessor>
          </technique_common>
        </source>
        <source id="Cube_032-mesh-normals">
          <float_array id="Cube_032-mesh-normals-array" count="273">-0.9647281 -0.1408092 0.2224246 0 0 1 0 1 -4.00392e-7 -0.9827827 0.1229211 0.1379442 0.8313403 -0.5231553 -0.1875684 -0.9693964 0.1395775 -0.2019627 -0.8900893 -0.1256856 -0.4381145 -0.6514666 -0.1040591 -0.7515072 0 -1 0 -0.5401288 0.8411355 0.02742522 0.7327873 -0.6791896 0.0415253 -0.00288999 0.9701694 -0.2424111 0.9658782 0.1577013 0.2054499 0.2168996 0.4929086 0.8426124 0.9525225 -0.1464047 0.2669578 0.4051862 -0.05321073 0.9126843 0.9515772 -0.1453028 -0.2709024 0 -1 -1.21786e-6 0.8594682 0.1136458 -0.4983967 -0.7327873 0.6791896 -0.0415253 -0.5429932 -0.8397364 0.001091301 0 1 0 -0.1584219 -0.9300816 0.3314372 -0.1603692 -0.9298446 -0.331166 0.2875314 0.9571878 -0.03342336 0 -1 6.99545e-6 -0.2883634 0.08562183 -0.9536853 -0.001913249 0.9981325 -0.06105649 0.2883626 -0.08562183 0.9536855 -0.005746483 0.08930122 -0.9959882 -0.002643287 -0.1028876 -0.9946895 0 -1 2.05102e-5 0.4837675 -0.05059528 -0.8737329 0 1 -2.14864e-5 0.002672553 -0.02358061 0.9997184 0.5606085 -0.01818132 0.8278814 0.2863627 0.124021 0.9500607 -0.251537 -0.4513056 -0.8561848 0.2534376 0.1239297 0.9593805 -0.2863627 -0.124021 -0.9500607 -0.252297 0.1285679 0.9590707 0.4636618 -0.6611438 -0.5898361 -0.4404389 -0.02671051 0.8973852 0 -1 -4.77714e-6 -0.656271 -0.09366327 0.7486892 0 -1 2.0743e-5 -0.9969785 -0.06149673 -0.04745811 -0.6779278 -0.0938192 0.7291172 -0.987807 0.129058 0.08707135 -0.9732345 0.1238415 0.1935919 0.8613168 -0.4484987 -0.2387098 -0.9208384 0.1285608 -0.3681424 -0.9762588 0.1298859 -0.1733455 0.8162031 -0.511672 0.2683362 -0.9902647 -0.0595647 0.1258097 -0.5592625 -0.07172554 -0.825882 -0.2054521 0.9421452 0.264862 -0.5400419 0.841041 0.03170067 0.8571487 0.1133934 0.502432 0.9308241 0.09828531 -0.3520037 -0.464221 0.8750152 0.1372858 0.9895339 -0.03399622 -0.1402395 0.9900354 -0.03449207 0.1365291 0.401548 -0.04985344 -0.9144802 -0.3950237 -0.9186706 7.94411e-4 0.9652545 0.1572668 -0.2086887 0.9278696 0.09754109 0.359922 0.03206825 -0.9938543 0.1059495 0.1288008 -0.9809352 0.1455215 0 1 -1.85673e-6 0.03151559 -0.993854 -0.1061183 -0.9972113 0.07463085 1.85554e-6 -0.4057617 -0.06412053 -0.9117271 -1 2.62182e-4 0 -0.09774929 0.09041368 -0.9910957 1 -2.62182e-4 0 0.00845313 0.0915963 -0.9957603 0.001913249 -0.9981325 0.06105649 0.9972113 -0.07463085 -1.85554e-6 0 -1 -2.3732e-6 0.5564915 -0.02056097 -0.8305989 0.2586902 -0.05120289 0.9646024 0 -1 -6.83673e-6 -0.2168999 -0.4929089 -0.8426121 -3.98284e-4 0.1186491 0.9929363 -0.4098383 0.124911 0.9035651 0.251537 0.4513056 0.8561848 0.1477317 -0.8055959 -0.5737514 0.003304362 -0.02363228 0.9997153 0 -1 1.41141e-5 -0.1109204 -0.03982168 0.9930312</float_array>
          <technique_common>
            <accessor source="#Cube_032-mesh-normals-array" count="91" stride="3">
              <param name="X" type="float"/>
              <param name="Y" type="float"/>
              <param name="Z" type="float"/>
            </accessor>
          </technique_common>
        </source>
        <vertices id="Cube_032-mesh-vertices">
          <input semantic="POSITION" source="#Cube_032-mesh-positions"/>
        </vertices>
        <polylist count="192">
          <input semantic="VERTEX" source="#Cube_032-mesh-vertices" offset="0"/>
          <input semantic="NORMAL" source="#Cube_032-mesh-normals" offset="1"/>
          <vcount>3 3 3 3 3 3 3 3 3 3 3 3 3 3 3 3 3 3 3 3 3 3 3 3 3 3 3 3 3 3 3 3 3 3 3 3 3 3 3 3 3 3 3 3 3 3 3 3 3 3 3 3 3 3 3 3 3 3 3 3 3 3 3 3 3 3 3 3 3 3 3 3 3 3 3 3 3 3 3 3 3 3 3 3 3 3 3 3 3 3 3 3 3 3 3 3 3 3 3 3 3 3 3 3 3 3 3 3 3 3 3 3 3 3 3 3 3 3 3 3 3 3 3 3 3 3 3 3 3 3 3 3 3 3 3 3 3 3 3 3 3 3 3 3 3 3 3 3 3 3 3 3 3 3 3 3 3 3 3 3 3 3 3 3 3 3 3 3 3 3 3 3 3 3 3 3 3 3 3 3 3 3 3 3 3 3 3 3 3 3 3 3 </vcount>
          <p>4 0 5 0 1 0 1 1 5 1 57 1 4 1 55 1 56 1 5 2 56 2 91 2 0 3 1 3 6 3 2 4 6 4 60 4 58 1 59 1 6 1 6 1 59 1 93 1 0 5 2 5 7 5 7 1 63 1 64 1 2 1 61 1 62 1 7 1 62 1 92 1 3 6 8 6 4 6 8 1 54 1 55 1 3 7 64 7 65 7 8 8 65 8 90 8 13 1 14 1 10 1 14 1 66 1 67 1 61 1 60 1 14 1 14 9 60 9 93 9 10 1 15 1 11 1 15 1 69 1 70 1 67 1 68 1 15 1 68 1 97 1 69 1 11 1 16 1 12 1 16 1 72 1 73 1 70 1 71 1 16 1 16 10 71 10 96 10 12 1 17 1 13 1 17 1 62 1 61 1 73 1 74 1 17 1 17 11 74 11 92 11 18 12 22 12 23 12 23 1 75 1 76 1 70 1 69 1 23 1 23 13 69 13 97 13 19 14 24 14 20 14 24 1 78 1 79 1 19 15 76 15 77 15 77 1 95 1 78 1 20 16 25 16 21 16 21 1 25 1 81 1 20 1 79 1 80 1 25 17 80 17 94 17 18 18 21 18 26 18 22 19 26 19 71 19 82 1 83 1 26 1 26 1 83 1 96 1 31 1 32 1 28 1 32 1 84 1 85 1 79 1 78 1 32 1 78 1 95 1 84 1 28 20 33 20 29 20 29 21 33 21 56 21 28 22 85 22 86 22 33 1 86 1 91 1 29 1 34 1 30 1 30 1 34 1 87 1 29 1 55 1 54 1 54 1 90 1 87 1 27 23 30 23 35 23 31 24 35 24 80 24 88 1 89 1 35 1 35 1 89 1 94 1 40 1 41 1 37 1 37 1 41 1 65 1 88 1 87 1 41 1 41 25 87 25 90 25 37 26 42 26 38 26 38 27 42 27 74 27 64 1 63 1 42 1 42 1 63 1 92 1 38 28 43 28 39 28 43 29 83 29 82 29 38 1 73 1 72 1 72 1 96 1 83 1 39 30 44 30 40 30 40 31 44 31 89 31 39 32 82 32 81 32 44 33 81 33 94 33 45 34 49 34 50 34 46 35 50 35 77 35 85 1 84 1 50 1 50 1 84 1 95 1 46 36 51 36 47 36 47 37 51 37 68 37 46 38 76 38 75 38 51 1 75 1 97 1 45 39 47 39 52 39 48 40 52 40 59 40 47 1 67 1 66 1 66 41 93 41 59 41 48 42 53 42 49 42 53 43 86 43 85 43 58 44 57 44 53 44 53 45 57 45 91 45 0 46 4 46 1 46 58 47 1 47 57 47 5 8 4 8 56 8 57 1 5 1 91 1 2 48 0 48 6 48 61 1 2 1 60 1 1 49 58 49 6 49 60 50 6 50 93 50 3 51 0 51 7 51 3 52 7 52 64 52 7 53 2 53 62 53 63 1 7 1 92 1 0 54 3 54 4 54 4 21 8 21 55 21 8 55 3 55 65 55 54 1 8 1 90 1 9 1 13 1 10 1 10 1 14 1 67 1 13 1 61 1 14 1 66 56 14 56 93 56 9 1 10 1 11 1 11 1 15 1 70 1 10 1 67 1 15 1 15 1 68 1 69 1 9 1 11 1 12 1 12 1 16 1 73 1 11 1 70 1 16 1 72 1 16 1 96 1 9 1 12 1 13 1 13 1 17 1 61 1 12 1 73 1 17 1 62 57 17 57 92 57 19 58 18 58 23 58 19 59 23 59 76 59 22 60 70 60 23 60 75 1 23 1 97 1 18 61 19 61 20 61 20 1 24 1 79 1 24 1 19 1 77 1 24 1 77 1 78 1 18 62 20 62 21 62 82 63 21 63 81 63 25 64 20 64 80 64 81 1 25 1 94 1 22 65 18 65 26 65 70 1 22 1 71 1 21 66 82 66 26 66 71 1 26 1 96 1 27 1 31 1 28 1 28 67 32 67 85 67 31 1 79 1 32 1 32 68 78 68 84 68 27 1 28 1 29 1 55 1 29 1 56 1 33 1 28 1 86 1 56 69 33 69 91 69 27 1 29 1 30 1 88 1 30 1 87 1 34 8 29 8 54 8 34 21 54 21 87 21 31 70 27 70 35 70 79 1 31 1 80 1 30 1 88 1 35 1 80 1 35 1 94 1 36 71 40 71 37 71 64 72 37 72 65 72 40 1 88 1 41 1 65 1 41 1 90 1 36 73 37 73 38 73 73 1 38 1 74 1 37 74 64 74 42 74 74 1 42 1 92 1 36 75 38 75 39 75 39 76 43 76 82 76 43 77 38 77 72 77 43 1 72 1 83 1 36 78 39 78 40 78 88 79 40 79 89 79 44 80 39 80 81 80 89 1 44 1 94 1 46 1 45 1 50 1 76 81 46 81 77 81 49 82 85 82 50 82 77 21 50 21 95 21 45 1 46 1 47 1 67 1 47 1 68 1 51 1 46 1 75 1 68 83 51 83 97 83 48 84 45 84 52 84 58 85 48 85 59 85 52 86 47 86 66 86 52 87 66 87 59 87 45 88 48 88 49 88 49 89 53 89 85 89 48 90 58 90 53 90 86 8 53 8 91 8</p>
        </polylist>
      </mesh>
    </geometry>
  </library_geometries>
  <library_controllers/>
  <library_visual_scenes>
    <visual_scene id="Scene" name="Scene">
      <node id="COL_VIZ_LWsegment_link_0" name="COL_VIZ_LWsegment_link_0" type="NODE">
        <instance_geometry url="#Cube_032-mesh" name="COL_VIZ_LWsegment_link_0"/>
      </node>
    </visual_scene>
  </library_visual_scenes>
  <scene>
    <instance_visual_scene url="#Scene"/>
  </scene>
</COLLADA>