<?xml version="1.0" encoding="utf-8"?>
<COLLADA xmlns="http://www.collada.org/2005/11/COLLADASchema" version="1.4.1">
  <asset>
    <contributor>
      <author>Blender User</author>
      <authoring_tool>Blender 2.77.0 commit date:2016-04-05, commit time:18:12, hash:abf6f08</authoring_tool>
    </contributor>
    <created>2017-03-06T14:06:43</created>
    <modified>2017-03-06T14:06:43</modified>
    <unit name="meter" meter="1"/>
    <up_axis>Z_UP</up_axis>
  </asset>
  <library_images>
    <image id="PBRFULL_Ground-material_Base_Color_jpg" name="PBRFULL_Ground-material_Base_Color_jpg">
      <init_from>PBRFULL_Ground-material_Base_Color.jpg</init_from>
    </image>
  </library_images>
  <library_effects>
    <effect id="PBRFULL_Ground-effect">
      <profile_COMMON>
        <newparam sid="PBRFULL_Ground-material_Base_Color_jpg-surface">
          <surface type="2D">
            <init_from>PBRFULL_Ground-material_Base_Color_jpg</init_from>
          </surface>
        </newparam>
        <newparam sid="PBRFULL_Ground-material_Base_Color_jpg-sampler">
          <sampler2D>
            <source>PBRFULL_Ground-material_Base_Color_jpg-surface</source>
          </sampler2D>
        </newparam>
        <technique sid="common">
          <phong>
            <emission>
              <color sid="emission">0 0 0 1</color>
            </emission>
            <ambient>
              <color sid="ambient">0 0 0 1</color>
            </ambient>
            <diffuse>
              <texture texture="PBRFULL_Ground-material_Base_Color_jpg-sampler"/>
            </diffuse>
            <specular>
              <color sid="specular">0.01973685 0.01973685 0.01973685 1</color>
            </specular>
            <shininess>
              <float sid="shininess">50</float>
            </shininess>
            <index_of_refraction>
              <float sid="index_of_refraction">1</float>
            </index_of_refraction>
          </phong>
        </technique>
      </profile_COMMON>
    </effect>
  </library_effects>
  <library_materials>
    <material id="PBRFULL_Ground-material" name="PBRFULL_Ground">
      <instance_effect url="#PBRFULL_Ground-effect"/>
    </material>
  </library_materials>
  <library_geometries>
    <geometry id="Cube_001-mesh" name="Cube.001">
      <mesh>
        <source id="Cube_001-mesh-positions">
          <float_array id="Cube_001-mesh-positions-array" count="240">1.011592 0.9999998 -2.38419e-6 1.011592 -1 -2.38419e-6 -1.024932 -1 -2.38419e-6 -1.024931 1 -2.38419e-6 0.7777779 1 -2.38419e-6 0.5555557 1 -2.38419e-6 0.3333334 1 -2.38419e-6 0.1111112 1 -2.38419e-6 -0.1111109 1 -2.38419e-6 -0.3333331 1 -2.38419e-6 -0.5555553 1 -2.38419e-6 -0.7777775 1 -2.38419e-6 0.7777779 -1 -2.38419e-6 0.5555557 -1 -2.38419e-6 0.3333334 -1 -2.38419e-6 0.1111111 -1 -2.38419e-6 -0.1111111 -1 -2.38419e-6 -0.3333333 -1 -2.38419e-6 -0.5555557 -1 -2.38419e-6 -0.7777779 -1 -2.38419e-6 1.011592 0.7142856 -2.38419e-6 1.011592 0.4285712 -2.38419e-6 1.011592 0.1428568 -2.38419e-6 1.011592 -0.1428573 -2.38419e-6 1.011592 -0.4285716 -2.38419e-6 1.011592 -0.7142859 -2.38419e-6 -1.024932 -0.7142856 -2.38419e-6 -1.024932 -0.4285712 -2.38419e-6 -1.024932 -0.1428568 -2.38419e-6 -1.024932 0.1428573 -2.38419e-6 -1.024932 0.4285717 -2.38419e-6 -1.024931 0.714286 -2.38419e-6 0.7777779 -0.7142859 -2.38419e-6 0.7777779 -0.4285716 -2.38419e-6 0.7777779 -0.1428573 -2.38419e-6 0.7777779 0.142857 -2.38419e-6 0.7777779 0.4285714 -2.38419e-6 0.7777779 0.7142857 -2.38419e-6 0.5555557 -0.7142859 -2.38419e-6 0.5555557 -0.4285716 -2.38419e-6 0.5555557 -0.1428573 -2.38419e-6 0.5555557 0.142857 -2.38419e-6 0.5555557 0.4285714 -2.38419e-6 0.5555557 0.7142857 -2.38419e-6 0.3333334 -0.7142859 -2.38419e-6 0.3333334 -0.4285716 -2.38419e-6 0.3333334 -0.1428573 -2.38419e-6 0.3333334 0.142857 -2.38419e-6 0.3333334 0.4285714 -2.38419e-6 0.3333334 0.7142857 -2.38419e-6 0.1111111 -0.7142859 -2.38419e-6 0.1111111 -0.4285716 -2.38419e-6 0.1111111 -0.1428573 -2.38419e-6 0.1111112 0.142857 -2.38419e-6 0.1111112 0.4285714 -2.38419e-6 0.1111112 0.7142857 -2.38419e-6 -0.1111111 -0.7142856 -2.38419e-6 -0.111111 -0.4285715 -2.38419e-6 -0.111111 -0.142857 -2.38419e-6 -0.1111109 0.142857 -2.38419e-6 -0.1111109 0.4285715 -2.38419e-6 -0.1111109 0.7142858 -2.38419e-6 -0.3333333 -0.7142856 -2.38419e-6 -0.3333333 -0.4285715 -2.38419e-6 -0.3333333 -0.142857 -2.38419e-6 -0.3333332 0.1428571 -2.38419e-6 -0.3333332 0.4285716 -2.38419e-6 -0.3333331 0.7142859 -2.38419e-6 -0.5555557 -0.7142856 -2.38419e-6 -0.5555555 -0.4285715 -2.38419e-6 -0.5555554 -0.142857 -2.38419e-6 -0.5555554 0.1428571 -2.38419e-6 -0.5555554 0.4285716 -2.38419e-6 -0.5555553 0.7142859 -2.38419e-6 -0.7777777 -0.7142856 -2.38419e-6 -0.7777777 -0.4285715 -2.38419e-6 -0.7777777 -0.142857 -2.38419e-6 -0.7777776 0.1428571 -2.38419e-6 -0.7777775 0.4285716 -2.38419e-6 -0.7777775 0.7142859 -2.38419e-6</float_array>
          <technique_common>
            <accessor source="#Cube_001-mesh-positions-array" count="80" stride="3">
              <param name="X" type="float"/>
              <param name="Y" type="float"/>
              <param name="Z" type="float"/>
            </accessor>
          </technique_common>
        </source>
        <source id="Cube_001-mesh-normals">
          <float_array id="Cube_001-mesh-normals-array" count="72">0 0 -1 0 0 -1 0 0 -1 0 0 -1 0 0 -1 0 0 -1 0 0 -1 0 0 -1 0 0 -1 0 0 -1 0 0 -1 0 0 -1 0 0 -1 0 0 -1 0 0 -1 0 0 -1 0 0 -1 0 0 -1 0 0 -1 0 0 -1 0 0 -1 0 0 -1 0 0 -1 0 0 -1</float_array>
          <technique_common>
            <accessor source="#Cube_001-mesh-normals-array" count="24" stride="3">
              <param name="X" type="float"/>
              <param name="Y" type="float"/>
              <param name="Z" type="float"/>
            </accessor>
          </technique_common>
        </source>
        <source id="Cube_001-mesh-map-0">
          <float_array id="Cube_001-mesh-map-0-array" count="756">0.1111889 0.9999001 1.00099e-4 0.8570716 0.111189 0.8570715 0.9998999 0.9998995 0.888811 0.8570712 0.9998998 0.8570711 0.8888111 0.9998996 0.7777221 0.8570713 0.888811 0.8570712 0.7777222 0.9998997 0.6666332 0.8570713 0.7777221 0.8570713 0.6666333 0.9998998 0.5555443 0.8570715 0.6666332 0.8570713 0.5555443 0.8570715 0.4444555 0.9998999 0.4444555 0.8570713 0.4444555 0.9998999 0.3333666 0.8570715 0.4444555 0.8570713 0.3333666 0.9999001 0.2222777 0.8570715 0.3333666 0.8570715 0.2222777 0.9999001 0.111189 0.8570715 0.2222777 0.8570715 0.2222775 0.1429291 0.1111886 1.00933e-4 0.2222774 1.00695e-4 0.2222775 0.2857575 0.1111887 0.1429291 0.2222775 0.1429291 0.2222777 0.428586 0.1111888 0.2857576 0.2222775 0.2857575 0.2222777 0.5714145 0.1111889 0.4285861 0.2222777 0.428586 0.2222777 0.7142431 0.1111888 0.5714145 0.2222777 0.5714145 0.2222777 0.8570715 0.1111889 0.7142431 0.2222777 0.7142431 0.3333662 0.142929 0.2222774 1.00695e-4 0.333366 1.00695e-4 0.3333663 0.2857574 0.2222775 0.1429291 0.3333662 0.142929 0.3333664 0.428586 0.2222775 0.2857575 0.3333663 0.2857574 0.3333665 0.5714144 0.2222777 0.428586 0.3333664 0.428586 0.3333665 0.7142429 0.2222777 0.5714145 0.3333665 0.5714144 0.3333666 0.8570715 0.2222777 0.7142431 0.3333665 0.7142429 0.4444549 1.00457e-4 0.3333662 0.142929 0.333366 1.00695e-4 0.444455 0.1429288 0.3333663 0.2857574 0.3333662 0.142929 0.4444552 0.2857574 0.3333664 0.428586 0.3333663 0.2857574 0.4444553 0.5714142 0.3333664 0.428586 0.4444553 0.4285859 0.4444554 0.7142429 0.3333665 0.5714144 0.4444553 0.5714142 0.4444555 0.8570713 0.3333665 0.7142429 0.4444554 0.7142429 0.5555437 1.00457e-4 0.444455 0.1429288 0.4444549 1.00457e-4 0.5555438 0.1429288 0.4444552 0.2857574 0.444455 0.1429288 0.555544 0.2857573 0.4444553 0.4285859 0.4444552 0.2857574 0.5555441 0.4285858 0.4444553 0.5714142 0.4444553 0.4285859 0.5555441 0.5714144 0.4444554 0.7142429 0.4444553 0.5714142 0.5555443 0.7142428 0.4444555 0.8570713 0.4444554 0.7142429 0.6666325 0.1429287 0.5555437 1.00457e-4 0.6666324 1.00218e-4 0.6666327 0.2857571 0.5555438 0.1429288 0.6666325 0.1429287 0.6666328 0.4285857 0.555544 0.2857573 0.6666327 0.2857571 0.666633 0.5714142 0.5555441 0.4285858 0.6666328 0.4285857 0.6666331 0.7142428 0.5555441 0.5714144 0.666633 0.5714142 0.6666332 0.8570713 0.5555443 0.7142428 0.6666331 0.7142428 0.7777215 0.1429286 0.6666324 1.00218e-4 0.7777212 1.00099e-4 0.7777216 0.285757 0.6666325 0.1429287 0.7777215 0.1429286 0.7777217 0.4285856 0.6666327 0.2857571 0.7777216 0.285757 0.7777218 0.5714141 0.6666328 0.4285857 0.7777217 0.4285856 0.777722 0.7142427 0.666633 0.5714142 0.7777218 0.5714141 0.7777221 0.8570713 0.6666331 0.7142428 0.777722 0.7142427 0.8888103 0.1429284 0.7777212 1.00099e-4 0.88881 9.998e-5 0.8888104 0.2857569 0.7777215 0.1429286 0.8888103 0.1429284 0.8888106 0.4285855 0.7777216 0.285757 0.8888104 0.2857569 0.8888107 0.571414 0.7777217 0.4285856 0.8888106 0.4285855 0.8888108 0.7142426 0.7777218 0.5714141 0.8888107 0.571414 0.888811 0.8570712 0.777722 0.7142427 0.8888108 0.7142426 0.9998989 9.998e-5 0.8888103 0.1429284 0.88881 9.998e-5 0.999899 0.1429283 0.8888104 0.2857569 0.8888103 0.1429284 0.9998992 0.2857569 0.8888106 0.4285855 0.8888104 0.2857569 0.9998993 0.4285854 0.8888107 0.571414 0.8888106 0.4285855 0.9998996 0.7142425 0.8888107 0.571414 0.9998995 0.5714139 0.9998998 0.8570711 0.8888108 0.7142426 0.9998996 0.7142425 0.1111886 1.00933e-4 1.0004e-4 0.1429291 9.998e-5 1.00933e-4 0.1111887 0.1429291 1.00099e-4 0.2857576 1.0004e-4 0.1429291 0.1111888 0.2857576 1.00099e-4 0.428586 1.00099e-4 0.2857576 0.1111889 0.4285861 1.00129e-4 0.5714145 1.00099e-4 0.428586 0.1111888 0.5714145 1.00129e-4 0.7142429 1.00129e-4 0.5714145 0.1111889 0.7142431 1.00099e-4 0.8570716 1.00129e-4 0.7142429 0.1111889 0.9999001 1.00099e-4 0.9999001 1.00099e-4 0.8570716 0.9998999 0.9998995 0.8888111 0.9998996 0.888811 0.8570712 0.8888111 0.9998996 0.7777222 0.9998997 0.7777221 0.8570713 0.7777222 0.9998997 0.6666333 0.9998998 0.6666332 0.8570713 0.6666333 0.9998998 0.5555444 0.9998998 0.5555443 0.8570715 0.5555443 0.8570715 0.5555444 0.9998998 0.4444555 0.9998999 0.4444555 0.9998999 0.3333666 0.9999001 0.3333666 0.8570715 0.3333666 0.9999001 0.2222777 0.9999001 0.2222777 0.8570715 0.2222777 0.9999001 0.1111889 0.9999001 0.111189 0.8570715 0.2222775 0.1429291 0.1111887 0.1429291 0.1111886 1.00933e-4 0.2222775 0.2857575 0.1111888 0.2857576 0.1111887 0.1429291 0.2222777 0.428586 0.1111889 0.4285861 0.1111888 0.2857576 0.2222777 0.5714145 0.1111888 0.5714145 0.1111889 0.4285861 0.2222777 0.7142431 0.1111889 0.7142431 0.1111888 0.5714145 0.2222777 0.8570715 0.111189 0.8570715 0.1111889 0.7142431 0.3333662 0.142929 0.2222775 0.1429291 0.2222774 1.00695e-4 0.3333663 0.2857574 0.2222775 0.2857575 0.2222775 0.1429291 0.3333664 0.428586 0.2222777 0.428586 0.2222775 0.2857575 0.3333665 0.5714144 0.2222777 0.5714145 0.2222777 0.428586 0.3333665 0.7142429 0.2222777 0.7142431 0.2222777 0.5714145 0.3333666 0.8570715 0.2222777 0.8570715 0.2222777 0.7142431 0.4444549 1.00457e-4 0.444455 0.1429288 0.3333662 0.142929 0.444455 0.1429288 0.4444552 0.2857574 0.3333663 0.2857574 0.4444552 0.2857574 0.4444553 0.4285859 0.3333664 0.428586 0.4444553 0.5714142 0.3333665 0.5714144 0.3333664 0.428586 0.4444554 0.7142429 0.3333665 0.7142429 0.3333665 0.5714144 0.4444555 0.8570713 0.3333666 0.8570715 0.3333665 0.7142429 0.5555437 1.00457e-4 0.5555438 0.1429288 0.444455 0.1429288 0.5555438 0.1429288 0.555544 0.2857573 0.4444552 0.2857574 0.555544 0.2857573 0.5555441 0.4285858 0.4444553 0.4285859 0.5555441 0.4285858 0.5555441 0.5714144 0.4444553 0.5714142 0.5555441 0.5714144 0.5555443 0.7142428 0.4444554 0.7142429 0.5555443 0.7142428 0.5555443 0.8570715 0.4444555 0.8570713 0.6666325 0.1429287 0.5555438 0.1429288 0.5555437 1.00457e-4 0.6666327 0.2857571 0.555544 0.2857573 0.5555438 0.1429288 0.6666328 0.4285857 0.5555441 0.4285858 0.555544 0.2857573 0.666633 0.5714142 0.5555441 0.5714144 0.5555441 0.4285858 0.6666331 0.7142428 0.5555443 0.7142428 0.5555441 0.5714144 0.6666332 0.8570713 0.5555443 0.8570715 0.5555443 0.7142428 0.7777215 0.1429286 0.6666325 0.1429287 0.6666324 1.00218e-4 0.7777216 0.285757 0.6666327 0.2857571 0.6666325 0.1429287 0.7777217 0.4285856 0.6666328 0.4285857 0.6666327 0.2857571 0.7777218 0.5714141 0.666633 0.5714142 0.6666328 0.4285857 0.777722 0.7142427 0.6666331 0.7142428 0.666633 0.5714142 0.7777221 0.8570713 0.6666332 0.8570713 0.6666331 0.7142428 0.8888103 0.1429284 0.7777215 0.1429286 0.7777212 1.00099e-4 0.8888104 0.2857569 0.7777216 0.285757 0.7777215 0.1429286 0.8888106 0.4285855 0.7777217 0.4285856 0.7777216 0.285757 0.8888107 0.571414 0.7777218 0.5714141 0.7777217 0.4285856 0.8888108 0.7142426 0.777722 0.7142427 0.7777218 0.5714141 0.888811 0.8570712 0.7777221 0.8570713 0.777722 0.7142427 0.9998989 9.998e-5 0.999899 0.1429283 0.8888103 0.1429284 0.999899 0.1429283 0.9998992 0.2857569 0.8888104 0.2857569 0.9998992 0.2857569 0.9998993 0.4285854 0.8888106 0.4285855 0.9998993 0.4285854 0.9998995 0.5714139 0.8888107 0.571414 0.9998996 0.7142425 0.8888108 0.7142426 0.8888107 0.571414 0.9998998 0.8570711 0.888811 0.8570712 0.8888108 0.7142426 0.1111886 1.00933e-4 0.1111887 0.1429291 1.0004e-4 0.1429291 0.1111887 0.1429291 0.1111888 0.2857576 1.00099e-4 0.2857576 0.1111888 0.2857576 0.1111889 0.4285861 1.00099e-4 0.428586 0.1111889 0.4285861 0.1111888 0.5714145 1.00129e-4 0.5714145 0.1111888 0.5714145 0.1111889 0.7142431 1.00129e-4 0.7142429 0.1111889 0.7142431 0.111189 0.8570715 1.00099e-4 0.8570716</float_array>
          <technique_common>
            <accessor source="#Cube_001-mesh-map-0-array" count="378" stride="2">
              <param name="S" type="float"/>
              <param name="T" type="float"/>
            </accessor>
          </technique_common>
        </source>
        <vertices id="Cube_001-mesh-vertices">
          <input semantic="POSITION" source="#Cube_001-mesh-positions"/>
        </vertices>
        <polylist material="PBRFULL_Ground-material" count="126">
          <input semantic="VERTEX" source="#Cube_001-mesh-vertices" offset="0"/>
          <input semantic="NORMAL" source="#Cube_001-mesh-normals" offset="1"/>
          <input semantic="TEXCOORD" source="#Cube_001-mesh-map-0" offset="2" set="0"/>
          <vcount>3 3 3 3 3 3 3 3 3 3 3 3 3 3 3 3 3 3 3 3 3 3 3 3 3 3 3 3 3 3 3 3 3 3 3 3 3 3 3 3 3 3 3 3 3 3 3 3 3 3 3 3 3 3 3 3 3 3 3 3 3 3 3 3 3 3 3 3 3 3 3 3 3 3 3 3 3 3 3 3 3 3 3 3 3 3 3 3 3 3 3 3 3 3 3 3 3 3 3 3 3 3 3 3 3 3 3 3 3 3 3 3 3 3 3 3 3 3 3 3 3 3 3 3 3 3 </vcount>
          <p>19 0 0 26 0 1 74 0 2 1 0 3 32 0 4 25 0 5 12 0 6 38 0 7 32 0 8 13 0 9 44 0 10 38 0 11 14 0 12 50 0 13 44 0 14 50 0 15 16 0 16 56 0 17 16 0 18 62 0 19 56 0 20 17 0 21 68 0 22 62 0 23 18 0 24 74 0 25 68 0 26 73 0 27 11 0 28 10 0 29 72 0 30 79 0 31 73 0 32 71 0 33 78 0 34 72 0 35 70 0 36 77 0 37 71 0 38 69 0 39 76 0 40 70 0 41 68 0 42 75 0 43 69 0 44 67 0 45 10 0 46 9 0 47 66 0 48 73 0 49 67 0 50 65 0 51 72 0 52 66 0 53 64 0 54 71 0 55 65 0 56 63 0 57 70 0 58 64 0 59 62 0 60 69 0 61 63 0 62 8 0 63 67 0 64 9 0 65 61 0 66 66 0 67 67 0 68 60 0 69 65 0 70 66 0 71 58 1 72 65 1 73 59 1 74 57 0 75 64 0 76 58 0 77 56 0 78 63 0 79 57 0 80 7 0 81 61 0 82 8 0 83 55 0 84 60 0 85 61 0 86 54 2 87 59 2 88 60 2 89 53 0 90 58 0 91 59 0 92 52 0 93 57 0 94 58 0 95 51 0 96 56 0 97 57 0 98 49 0 99 7 0 100 6 0 101 48 0 102 55 0 103 49 0 104 47 0 105 54 0 106 48 0 107 46 0 108 53 0 109 47 0 110 45 0 111 52 0 112 46 0 113 44 0 114 51 0 115 45 0 116 43 0 117 6 0 118 5 0 119 42 0 120 49 0 121 43 0 122 41 0 123 48 0 124 42 0 125 40 0 126 47 0 127 41 0 128 39 0 129 46 0 130 40 0 131 38 0 132 45 0 133 39 0 134 37 0 135 5 0 136 4 0 137 36 0 138 43 0 139 37 0 140 35 0 141 42 0 142 36 0 143 34 0 144 41 0 145 35 0 146 33 0 147 40 0 148 34 0 149 32 0 150 39 0 151 33 0 152 0 3 153 37 3 154 4 3 155 20 0 156 36 0 157 37 0 158 21 4 159 35 4 160 36 4 161 22 5 162 34 5 163 35 5 164 24 0 165 34 0 166 23 0 167 25 0 168 33 0 169 24 0 170 11 0 171 31 0 172 3 0 173 79 0 174 30 0 175 31 0 176 78 6 177 29 6 178 30 6 179 77 7 180 28 7 181 29 7 182 76 0 183 27 0 184 28 0 185 75 0 186 26 0 187 27 0 188 19 0 189 2 0 190 26 0 191 1 0 192 12 0 193 32 0 194 12 0 195 13 0 196 38 0 197 13 0 198 14 0 199 44 0 200 14 0 201 15 0 202 50 0 203 50 0 204 15 0 205 16 0 206 16 0 207 17 0 208 62 0 209 17 0 210 18 0 211 68 0 212 18 0 213 19 0 214 74 0 215 73 0 216 79 0 217 11 0 218 72 0 219 78 0 220 79 0 221 71 0 222 77 0 223 78 0 224 70 0 225 76 0 226 77 0 227 69 0 228 75 0 229 76 0 230 68 0 231 74 0 232 75 0 233 67 0 234 73 0 235 10 0 236 66 0 237 72 0 238 73 0 239 65 0 240 71 0 241 72 0 242 64 0 243 70 0 244 71 0 245 63 0 246 69 0 247 70 0 248 62 0 249 68 0 250 69 0 251 8 8 252 61 8 253 67 8 254 61 9 255 60 9 256 66 9 257 60 10 258 59 10 259 65 10 260 58 0 261 64 0 262 65 0 263 57 0 264 63 0 265 64 0 266 56 0 267 62 0 268 63 0 269 7 11 270 55 11 271 61 11 272 55 12 273 54 12 274 60 12 275 54 0 276 53 0 277 59 0 278 53 13 279 52 13 280 58 13 281 52 14 282 51 14 283 57 14 284 51 15 285 50 15 286 56 15 287 49 0 288 55 0 289 7 0 290 48 0 291 54 0 292 55 0 293 47 0 294 53 0 295 54 0 296 46 0 297 52 0 298 53 0 299 45 0 300 51 0 301 52 0 302 44 0 303 50 0 304 51 0 305 43 0 306 49 0 307 6 0 308 42 0 309 48 0 310 49 0 311 41 0 312 47 0 313 48 0 314 40 0 315 46 0 316 47 0 317 39 0 318 45 0 319 46 0 320 38 0 321 44 0 322 45 0 323 37 0 324 43 0 325 5 0 326 36 0 327 42 0 328 43 0 329 35 0 330 41 0 331 42 0 332 34 0 333 40 0 334 41 0 335 33 0 336 39 0 337 40 0 338 32 0 339 38 0 340 39 0 341 0 16 342 20 16 343 37 16 344 20 17 345 21 17 346 36 17 347 21 18 348 22 18 349 35 18 350 22 0 351 23 0 352 34 0 353 24 0 354 33 0 355 34 0 356 25 0 357 32 0 358 33 0 359 11 19 360 79 19 361 31 19 362 79 20 363 78 20 364 30 20 365 78 21 366 77 21 367 29 21 368 77 22 369 76 22 370 28 22 371 76 23 372 75 23 373 27 23 374 75 0 375 74 0 376 26 0 377</p>
        </polylist>
      </mesh>
    </geometry>
  </library_geometries>
  <library_controllers/>
  <library_visual_scenes>
    <visual_scene id="Scene" name="Scene">
      <node id="Boden" name="Boden" type="NODE">
        <matrix sid="transform">2.523746 0 0 0 0 1.966256 0 -2.38419e-7 0 0 1.284947 0 0 0 0 1</matrix>
        <instance_geometry url="#Cube_001-mesh" name="Boden">
          <bind_material>
            <technique_common>
              <instance_material symbol="PBRFULL_Ground-material" target="#PBRFULL_Ground-material"/>
            </technique_common>
          </bind_material>
        </instance_geometry>
      </node>
    </visual_scene>
  </library_visual_scenes>
  <scene>
    <instance_visual_scene url="#Scene"/>
  </scene>
</COLLADA>