<?xml version="1.0" encoding="utf-8" ?>
<COLLADA xmlns="http://www.collada.org/2005/11/COLLADASchema" version="1.4.1">
    <asset>
        <contributor>
            <authoring_tool>ctmconv</authoring_tool>
            <comments></comments>
        </contributor>
        <created>2016-11-03T11:50:39</created>
        <modified>2016-11-03T11:50:39</modified>
    </asset>
    <library_geometries>
        <geometry id="Mesh-1" name="Mesh-1">
            <mesh>
                <source id="Mesh-1-positions" name="position">
                    <float_array id="Mesh-1-positions-array" count="3222">-0.0516728 -0.0224161 -0.0126313 -0.0516728 -0.0224161 -0.00963134 -0.0516728 -0.0184161 -0.0126313 -0.0516728 -0.0184161 -0.00963134 -0.0506728 -0.0224161 -0.0126313 -0.0506728 -0.0224161 -0.00963134 -0.0505053 -0.0217911 -0.0126313 -0.0505053 -0.0217911 -0.00963134 -0.0500478 -0.0213335 -0.0126313 -0.0500478 -0.0213335 -0.00963134 -0.0494228 -0.0211661 -0.0126313 -0.0494228 -0.0211661 -0.00963134 -0.0487978 -0.0213335 -0.0126313 -0.0487978 -0.0213335 -0.00963134 -0.0483403 -0.0217911 -0.0126313 -0.0483403 -0.0217911 -0.00963134 -0.0481728 -0.0224161 -0.0126313 -0.0481728 -0.0224161 -0.00963134 -0.0471728 -0.0224161 -0.0126313 -0.0471728 -0.0224161 -0.00963134 -0.0471728 -0.0209161 -0.0126313 -0.0471728 -0.0209161 -0.00963134 -0.0411728 -0.0224161 -0.0126313 -0.0411728 -0.0224161 -0.00963134 -0.0411728 -0.0209161 -0.0126313 -0.0411728 -0.0209161 -0.00963134 -0.0394228 -0.0206661 -0.0126313 -0.0394228 -0.0206661 -0.00963134 -0.0393223 -0.0210411 -0.0126313 -0.0393223 -0.0210411 -0.00963134 -0.0393223 -0.0202911 -0.0126313 -0.0393223 -0.0202911 -0.00963134 -0.0390478 -0.0213156 -0.0126313 -0.0390478 -0.0213156 -0.00963134 -0.0390478 -0.0200166 -0.0126313 -0.0390478 -0.0200166 -0.00963134 -0.0386728 -0.0214161 -0.0126313 -0.0386728 -0.0214161 -0.00963134 -0.0386728 -0.0199161 -0.0126313 -0.0386728 -0.0199161 -0.00963134 -0.0382978 -0.0213156 -0.0126313 -0.0382978 -0.0213156 -0.00963134 -0.0382978 -0.0200166 -0.0126313 -0.0382978 -0.0200166 -0.00963134 -0.0380233 -0.0210411 -0.0126313 -0.0380233 -0.0210411 -0.00963134 -0.0380233 -0.0202911 -0.0126313 -0.0380233 -0.0202911 -0.00963134 -0.0379228 -0.0206661 -0.0126313 -0.0379228 -0.0206661 -0.00963134 -0.0266728 -0.0289161 -0.0111313 -0.0266728 -0.0288663 -0.0120503 -0.0266728 -0.0288663 -0.0102123 -0.0266728 -0.0284711 -0.0138454 -0.0266728 -0.0284711 -0.00841727 -0.0266728 -0.0276994 -0.0155135 -0.0266728 -0.0276994 -0.00674913 -0.0266728 -0.0266122 -0.00813134 -0.0266728 -0.026587 -0.0169768 -0.0266728 -0.026587 -0.00528589 -0.0266728 -0.0264783 -0.00863134 -0.0266728 -0.0264783 -0.00763134 -0.0266728 -0.0261122 -0.00899736 -0.0266728 -0.0261122 -0.00726531 -0.0266728 -0.0256122 -0.00913134 -0.0266728 -0.0256122 -0.00713134 -0.0266728 -0.0251862 -0.0181667 -0.0266728 -0.0251862 -0.00409598 -0.0266728 -0.0251122 -0.00899736 -0.0266728 -0.0251122 -0.00726531 -0.0266728 -0.0247462 -0.00863134 -0.0266728 -0.0247462 -0.00763134 -0.0266728 -0.0246122 -0.00813134 -0.0266728 -0.0235623 -0.0190276 -0.0266728 -0.0235623 -0.00323503 -0.0266728 -0.0224161 -0.0126313 -0.0266728 -0.0224161 -0.00963134 -0.0266728 -0.0217912 -0.0195194 -0.0266728 -0.0217912 -0.00274331 -0.0266728 -0.0214161 -0.0171313 -0.0266728 -0.0212821 -0.0176313 -0.0266728 -0.0212821 -0.0166313 -0.0266728 -0.0209161 -0.0179974 -0.0266728 -0.0209161 -0.0162653 -0.0266728 -0.0204161 -0.0181313 -0.0266728 -0.0204161 -0.0161313 -0.0266728 -0.0199559 -0.0196189 -0.0266728 -0.0199559 -0.0026438 -0.0266728 -0.0199161 -0.0179974 -0.0266728 -0.0199161 -0.0162653 -0.0266728 -0.0195501 -0.0176313 -0.0266728 -0.0195501 -0.0166313 -0.0266728 -0.0194161 -0.0171313 -0.0266728 -0.0184161 -0.0126313 -0.0266728 -0.0184161 -0.00963134 -0.0266728 -0.0181421 -0.0193215 -0.0266728 -0.0181421 -0.00294116 -0.0266728 -0.0164346 -0.0186412 -0.0266728 -0.0164346 -0.00362148 -0.0266728 -0.0162199 -0.00813134 -0.0266728 -0.016086 -0.00863134 -0.0266728 -0.016086 -0.00763134 -0.0266728 -0.0157199 -0.00899736 -0.0266728 -0.0157199 -0.00726531 -0.0266728 -0.0152199 -0.00913134 -0.0266728 -0.0152199 -0.00713134 -0.0266728 -0.0149133 -0.0176097 -0.0266728 -0.0149133 -0.00465296 -0.0266728 -0.0147199 -0.00899736 -0.0266728 -0.0147199 -0.00726531 -0.0266728 -0.0143539 -0.00863134 -0.0266728 -0.0143539 -0.00763134 -0.0266728 -0.0142199 -0.00813134 -0.0266728 -0.0136493 -0.0162753 -0.0266728 -0.0136493 -0.00598736 -0.0266728 -0.0127017 -0.0147004 -0.0266728 -0.0127017 -0.00756228 -0.0266728 -0.0121148 -0.0129586 -0.0266728 -0.0121148 -0.00930409 -0.0266728 -0.0119161 -0.0111313 -0.0246728 -0.0309161 -0.0111313 -0.0246728 -0.0307143 -0.0131798 -0.0246728 -0.0307143 -0.00908289 -0.0246728 -0.0301168 -0.0151495 -0.0246728 -0.0301168 -0.00711316 -0.0246728 -0.0291465 -0.0169648 -0.0246728 -0.0291465 -0.00529785 -0.0246728 -0.0289161 -0.0111313 -0.0246728 -0.0288663 -0.0120503 -0.0246728 -0.0288663 -0.0102123 -0.0246728 -0.0284711 -0.0138454 -0.0246728 -0.0284711 -0.00841727 -0.0246728 -0.0278407 -0.018556 -0.0246728 -0.0278407 -0.00370672 -0.0246728 -0.0276994 -0.0155135 -0.0246728 -0.0276994 -0.00674913 -0.0246728 -0.026587 -0.0169768 -0.0246728 -0.026587 -0.00528589 -0.0246728 -0.0262496 -0.0198618 -0.0246728 -0.0262496 -0.00240091 -0.0246728 -0.0251862 -0.0181667 -0.0246728 -0.0251862 -0.00409598 -0.0246728 -0.0244343 -0.0208321 -0.0246728 -0.0244343 -0.0014306 -0.0246728 -0.0235623 -0.0190276 -0.0246728 -0.0235623 -0.00323503 -0.0246728 -0.0224645 -0.0214296 -0.0246728 -0.0224645 -0.000833091 -0.0246728 -0.0217912 -0.0195194 -0.0246728 -0.0217912 -0.00274331 -0.0246728 -0.0204161 -0.0216313 -0.0246728 -0.0204161 -0.000631337 -0.0246728 -0.0199559 -0.0196189 -0.0246728 -0.0199559 -0.0026438 -0.0246728 -0.0183676 -0.0214296 -0.0246728 -0.0183676 -0.000833091 -0.0246728 -0.0181421 -0.0193215 -0.0246728 -0.0181421 -0.00294116 -0.0246728 -0.0164346 -0.0186412 -0.0246728 -0.0164346 -0.00362148 -0.0246728 -0.0163979 -0.0208321 -0.0246728 -0.0163979 -0.0014306 -0.0246728 -0.0149133 -0.0176097 -0.0246728 -0.0149133 -0.00465296 -0.0246728 -0.0145826 -0.0198618 -0.0246728 -0.0145826 -0.00240091 -0.0246728 -0.0136493 -0.0162753 -0.0246728 -0.0136493 -0.00598736 -0.0246728 -0.0129915 -0.018556 -0.0246728 -0.0129915 -0.00370672 -0.0246728 -0.0127017 -0.0147004 -0.0246728 -0.0127017 -0.00756228 -0.0246728 -0.0121148 -0.0129586 -0.0246728 -0.0121148 -0.00930409 -0.0246728 -0.0119161 -0.0111313 -0.0246728 -0.0116856 -0.0169648 -0.0246728 -0.0116856 -0.00529785 -0.0246728 -0.0107153 -0.0151495 -0.0246728 -0.0107153 -0.00711316 -0.0246728 -0.0101178 -0.0131798 -0.0246728 -0.0101178 -0.00908289 -0.0246728 -0.00991608 -0.0111313 -0.0221728 -0.0289159 -0.0111916 -0.0221728 -0.0288663 -0.0120503 -0.0221728 -0.0288663 -0.0102123 -0.0221728 -0.0287972 -0.00971467 -0.0221728 -0.0287763 -0.0126666 -0.0221728 -0.0284711 -0.0138454 -0.0221728 -0.0284711 -0.00841727 -0.0221728 -0.0284239 -0.00828083 -0.0221728 -0.0283827 -0.014095 -0.0221728 -0.0278072 -0.0069336 -0.0221728 -0.027747 -0.0154334 -0.0221728 -0.0276994 -0.0155135 -0.0221728 -0.0276994 -0.00674913 -0.0221728 -0.026966 -0.00571391 -0.0221728 -0.0268886 -0.016641 -0.0221728 -0.0266122 -0.00813134 -0.0221728 -0.026587 -0.0169768 -0.0221728 -0.026587 -0.00528589 -0.0221728 -0.0264783 -0.00863134 -0.0221728 -0.0264783 -0.00763134 -0.0221728 -0.0261122 -0.00899736 -0.0221728 -0.0261122 -0.00726531 -0.0221728 -0.0259258 -0.00465883 -0.0221728 -0.0258335 -0.0176813 -0.0221728 -0.0256122 -0.00913134 -0.0221728 -0.0256122 -0.00713134 -0.0221728 -0.0251862 -0.0181667 -0.0221728 -0.0251862 -0.00409598 -0.0221728 -0.0251122 -0.00899736 -0.0221728 -0.0251122 -0.00726531 -0.0221728 -0.0247462 -0.00863134 -0.0221728 -0.0247462 -0.00763134 -0.0221728 -0.0247181 -0.00380042 -0.0221728 -0.0246138 -0.0185225 -0.0221728 -0.0246122 -0.00813134 -0.0221728 -0.0235623 -0.0190276 -0.0221728 -0.0235623 -0.00323503 -0.0221728 -0.0233798 -0.00316475 -0.0221728 -0.0232666 -0.0191391 -0.0221728 -0.0219514 -0.00277114 -0.0221728 -0.0218327 -0.0195125 -0.0221728 -0.0217912 -0.0195194 -0.0221728 -0.0217912 -0.00274331 -0.0221728 -0.0214161 -0.0171313 -0.0221728 -0.0212821 -0.0176313 -0.0221728 -0.0212821 -0.0166313 -0.0221728 -0.0209161 -0.0179974 -0.0221728 -0.0209161 -0.0162653 -0.0221728 -0.0204763 -0.00263155 -0.0221728 -0.0204161 -0.0181313 -0.0221728 -0.0204161 -0.0161313 -0.0221728 -0.0204161 -0.0111313 -0.0221728 -0.0203559 -0.0196311 -0.0221728 -0.0199559 -0.0196189 -0.0221728 -0.0199559 -0.0026438 -0.0221728 -0.0199161 -0.0179974 -0.0221728 -0.0199161 -0.0162653 -0.0221728 -0.0195501 -0.0176313 -0.0221728 -0.0195501 -0.0166313 -0.0221728 -0.0194161 -0.0171313 -0.0221728 -0.0189994 -0.00275022 -0.0221728 -0.0188808 -0.0194915 -0.0221728 -0.0181421 -0.0193215 -0.0221728 -0.0181421 -0.00294116 -0.0221728 -0.0175656 -0.00312355 -0.0221728 -0.0174524 -0.0190979 -0.0221728 -0.0164346 -0.0186412 -0.0221728 -0.0164346 -0.00362148 -0.0221728 -0.0162199 -0.00813134 -0.0221728 -0.0162183 -0.00374019 -0.0221728 -0.016114 -0.0184623 -0.0221728 -0.016086 -0.00863134 -0.0221728 -0.016086 -0.00763134 -0.0221728 -0.0157199 -0.00899736 -0.0221728 -0.0157199 -0.00726531 -0.0221728 -0.0152199 -0.00913134 -0.0221728 -0.0152199 -0.00713134 -0.0221728 -0.0149987 -0.00458141 -0.0221728 -0.0149133 -0.0176097 -0.0221728 -0.0149133 -0.00465296 -0.0221728 -0.0149064 -0.0176038 -0.0221728 -0.0147199 -0.00899736 -0.0221728 -0.0147199 -0.00726531 -0.0221728 -0.0143539 -0.00863134 -0.0221728 -0.0143539 -0.00763134 -0.0221728 -0.0142199 -0.00813134 -0.0221728 -0.0139436 -0.00562165 -0.0221728 -0.0138662 -0.0165488 -0.0221728 -0.0136493 -0.0162753 -0.0221728 -0.0136493 -0.00598736 -0.0221728 -0.0130852 -0.00682929 -0.0221728 -0.0130249 -0.0153291 -0.0221728 -0.0127017 -0.0147004 -0.0221728 -0.0127017 -0.00756228 -0.0221728 -0.0124495 -0.00816765 -0.0221728 -0.0124083 -0.0139818 -0.0221728 -0.0121148 -0.0129586 -0.0221728 -0.0121148 -0.00930409 -0.0221728 -0.0120559 -0.00959606 -0.0221728 -0.012035 -0.012548 -0.0221728 -0.0119163 -0.0110711 -0.0221728 -0.0119161 -0.0111313 -0.0196728 -0.0309161 -0.0111313 -0.0196728 -0.0307143 -0.0131798 -0.0196728 -0.0307143 -0.00908289 -0.0196728 -0.0301168 -0.0151495 -0.0196728 -0.0301168 -0.00711316 -0.0196728 -0.0291465 -0.0169648 -0.0196728 -0.0291465 -0.00529785 -0.0196728 -0.0288663 -0.0120503 -0.0196728 -0.0288663 -0.0102123 -0.0196728 -0.0284711 -0.0138454 -0.0196728 -0.0284711 -0.00841727 -0.0196728 -0.0278407 -0.018556 -0.0196728 -0.0278407 -0.00370672 -0.0196728 -0.0276994 -0.0155135 -0.0196728 -0.0276994 -0.00674913 -0.0196728 -0.026587 -0.0169768 -0.0196728 -0.026587 -0.00528589 -0.0196728 -0.0262496 -0.0198618 -0.0196728 -0.0262496 -0.00240091 -0.0196728 -0.0251862 -0.0181667 -0.0196728 -0.0251862 -0.00409598 -0.0196728 -0.0244343 -0.0208321 -0.0196728 -0.0244343 -0.0014306 -0.0196728 -0.0235623 -0.0190276 -0.0196728 -0.0235623 -0.00323503 -0.0196728 -0.0224645 -0.0214296 -0.0196728 -0.0224645 -0.000833091 -0.0196728 -0.0217912 -0.0195194 -0.0196728 -0.0217912 -0.00274331 -0.0196728 -0.0204161 -0.0216313 -0.0196728 -0.0204161 -0.000631337 -0.0196728 -0.0199559 -0.0196189 -0.0196728 -0.0199559 -0.0026438 -0.0196728 -0.0183676 -0.0214296 -0.0196728 -0.0183676 -0.000833091 -0.0196728 -0.0181421 -0.0193215 -0.0196728 -0.0181421 -0.00294116 -0.0196728 -0.0164346 -0.0186412 -0.0196728 -0.0164346 -0.00362148 -0.0196728 -0.0163979 -0.0208321 -0.0196728 -0.0163979 -0.0014306 -0.0196728 -0.0149133 -0.0176097 -0.0196728 -0.0149133 -0.00465296 -0.0196728 -0.0145826 -0.0198618 -0.0196728 -0.0145826 -0.00240091 -0.0196728 -0.0136493 -0.0162753 -0.0196728 -0.0136493 -0.00598736 -0.0196728 -0.0129915 -0.018556 -0.0196728 -0.0129915 -0.00370672 -0.0196728 -0.0127017 -0.0147004 -0.0196728 -0.0127017 -0.00756228 -0.0196728 -0.0121148 -0.0129586 -0.0196728 -0.0121148 -0.00930409 -0.0196728 -0.0119161 -0.0111313 -0.0196728 -0.0116856 -0.0169648 -0.0196728 -0.0116856 -0.00529785 -0.0196728 -0.0107153 -0.0151495 -0.0196728 -0.0107153 -0.00711316 -0.0196728 -0.0101178 -0.0131798 -0.0196728 -0.0101178 -0.00908289 -0.0196728 -0.00991608 -0.0111313 -0.0139054 -0.0242401 -0.0157548 -0.0139054 -0.0225081 -0.00550786 -0.0139054 -0.0145 -0.0121313 -0.0131728 -0.0415 0.00436866 -0.0131728 -0.0415 0.00836866 -0.0131728 -0.0254488 -0.015915 -0.0131728 -0.0253986 -0.0153747 -0.0131728 -0.0252596 -0.0164235 -0.0131728 -0.0251189 -0.0149097 -0.0131728 -0.0248685 -0.0167996 -0.0131728 -0.0246652 -0.0146121 -0.0131728 -0.0243529 -0.0169688 -0.0131728 -0.0241273 -0.0145408 -0.0131728 -0.023815 -0.0168975 -0.0131728 -0.0237167 -0.00566803 -0.0131728 -0.0236665 -0.00512776 -0.0131728 -0.0236118 -0.01471 -0.0131728 -0.0235275 -0.00617657 -0.0131728 -0.0233869 -0.00466278 -0.0131728 -0.0233614 -0.0165999 -0.0131728 -0.0232207 -0.0150861 -0.0131728 -0.0231364 -0.00655267 -0.0131728 -0.0230817 -0.0161349 -0.0131728 -0.0230315 -0.0155946 -0.0131728 -0.0229332 -0.00436517 -0.0131728 -0.0226209 -0.00672183 -0.0131728 -0.0223953 -0.00429389 -0.0131728 -0.022083 -0.00665055 -0.0131728 -0.0218797 -0.00446305 -0.0131728 -0.0216293 -0.00635295 -0.0131728 -0.0214886 -0.00483915 -0.0131728 -0.0213497 -0.00588796 -0.0131728 -0.0212995 -0.00534769 -0.0131728 -0.0157086 -0.0122915 -0.0131728 -0.0156584 -0.0117512 -0.0131728 -0.0155194 -0.0128 -0.0131728 -0.0153788 -0.0112863 -0.0131728 -0.0151283 -0.0131761 -0.0131728 -0.0149251 -0.0109886 -0.0131728 -0.0146128 -0.0133453 -0.0131728 -0.0143872 -0.0109174 -0.0131728 -0.0140749 -0.013274 -0.0131728 -0.0138717 -0.0110865 -0.0131728 -0.0136212 -0.0129764 -0.0131728 -0.0134806 -0.0114626 -0.0131728 -0.0133416 -0.0125114 -0.0131728 -0.0132914 -0.0119712 -0.0131728 -0.0095 -0.0336313 -0.0131728 -0.0095 0.00436866 -0.0131728 -0.0065 -0.0336313 -0.0131728 -0.0065 0.00836866 -0.0116728 -0.0065 -0.0266313 -0.0116728 -0.0065 0.00336866 -0.0116728 0 -0.0266313 -0.0116728 0 0.00336866 -0.010392 -0.0065 -0.0216313 -0.010392 -0.0065 -0.00163134 -0.010392 -0.0025 -0.0216313 -0.010392 -0.0025 -0.00163134 -0.0102287 -0.0065 -0.0222409 -0.0102287 -0.0065 -0.0210217 -0.0102287 -0.0065 -0.00224094 -0.0102287 -0.0065 -0.00102174 -0.0102287 -0.0025 -0.0222409 -0.0102287 -0.0025 -0.0210217 -0.0102287 -0.0025 -0.00224094 -0.0102287 -0.0025 -0.00102174 -0.0101728 -0.0095 -0.0216313 -0.0101728 -0.0095 -0.00163134 -0.0101728 -0.0065 -0.0216313 -0.0101728 -0.0065 -0.00163134 -0.0100388 -0.0095 -0.0221313 -0.0100388 -0.0095 -0.0211313 -0.0100388 -0.0095 -0.00213134 -0.0100388 -0.0095 -0.00113134 -0.0100388 -0.0065 -0.0221313 -0.0100388 -0.0065 -0.0211313 -0.0100388 -0.0065 -0.00213134 -0.0100388 -0.0065 -0.00113134 -0.00978241 -0.0065 -0.0226872 -0.00978241 -0.0065 -0.0205755 -0.00978241 -0.0065 -0.00268719 -0.00978241 -0.0065 -0.000575478 -0.00978241 -0.0025 -0.0226872 -0.00978241 -0.0025 -0.0205755 -0.00978241 -0.0025 -0.00268719 -0.00978241 -0.0025 -0.000575478 -0.00967281 -0.0095 -0.0224974 -0.00967281 -0.0095 -0.0207653 -0.00967281 -0.0095 -0.00249736 -0.00967281 -0.0095 -0.000765311 -0.00967281 -0.0065 -0.0224974 -0.00967281 -0.0065 -0.0207653 -0.00967281 -0.0065 -0.00249736 -0.00967281 -0.0065 -0.000765311 -0.00917281 -0.0095 -0.0226313 -0.00917281 -0.0095 -0.0206313 -0.00917281 -0.0095 -0.00263134 -0.00917281 -0.0095 -0.000631336 -0.00917281 -0.0065 -0.0228505 -0.00917281 -0.0065 -0.0226313 -0.00917281 -0.0065 -0.0206313 -0.00917281 -0.0065 -0.0204121 -0.00917281 -0.0065 -0.00285054 -0.00917281 -0.0065 -0.00263134 -0.00917281 -0.0065 -0.000631336 -0.00917281 -0.0065 -0.000412136 -0.00917281 -0.0025 -0.0228505 -0.00917281 -0.0025 -0.0204121 -0.00917281 -0.0025 -0.00285054 -0.00917281 -0.0025 -0.000412136 -0.00917281 -0.00176743 -0.0216313 -0.00917281 -0.00176743 -0.00163134 -0.00867281 -0.0095 -0.0224974 -0.00867281 -0.0095 -0.0207653 -0.00867281 -0.0095 -0.00249736 -0.00867281 -0.0095 -0.000765311 -0.00867281 -0.0065 -0.0224974 -0.00867281 -0.0065 -0.0207653 -0.00867281 -0.0065 -0.00249736 -0.00867281 -0.0065 -0.000765311 -0.00856321 -0.0065 -0.0226872 -0.00856321 -0.0065 -0.0205755 -0.00856321 -0.0065 -0.00268719 -0.00856321 -0.0065 -0.000575478 -0.00856321 -0.0025 -0.0226872 -0.00856321 -0.0025 -0.0205755 -0.00856321 -0.0025 -0.00268719 -0.00856321 -0.0025 -0.000575478 -0.00830679 -0.0095 -0.0221313 -0.00830679 -0.0095 -0.0211313 -0.00830679 -0.0095 -0.00213134 -0.00830679 -0.0095 -0.00113134 -0.00830679 -0.0065 -0.0221313 -0.00830679 -0.0065 -0.0211313 -0.00830679 -0.0065 -0.00213134 -0.00830679 -0.0065 -0.00113134 -0.00817281 -0.0095 -0.0216313 -0.00817281 -0.0095 -0.00163134 -0.00817281 -0.0065 -0.0216313 -0.00817281 -0.0065 -0.00163134 -0.00817281 -0.0289159 -0.0111916 -0.00817281 -0.0287972 -0.00971467 -0.00817281 -0.0287763 -0.0126666 -0.00817281 -0.0284239 -0.00828083 -0.00817281 -0.0283827 -0.014095 -0.00817281 -0.0278072 -0.0069336 -0.00817281 -0.027747 -0.0154334 -0.00817281 -0.0275 -0.0266313 -0.00817281 -0.0275 -0.0088196 -0.00817281 -0.0275 0.00236866 -0.00817281 -0.026966 -0.00571391 -0.00817281 -0.0268886 -0.016641 -0.00817281 -0.0259258 -0.00465883 -0.00817281 -0.0258335 -0.0176813 -0.00817281 -0.0257025 -0.0160886 -0.00817281 -0.0257025 -0.015421 -0.00817281 -0.0254488 -0.015915 -0.00817281 -0.0254129 -0.01669 -0.00817281 -0.0254129 -0.0148196 -0.00817281 -0.0253986 -0.0153747 -0.00817281 -0.0253 0.000368664 -0.00817281 -0.0252596 -0.0164235 -0.00817281 -0.0251928 -3.13366e-05 -0.00817281 -0.0251928 0.000768664 -0.00817281 -0.0251189 -0.0149097 -0.00817281 -0.0249 -0.000324157 -0.00817281 -0.0249 0.00106148 -0.00817281 -0.024891 -0.0171063 -0.00817281 -0.024891 -0.0144034 -0.00817281 -0.0248685 -0.0167996 -0.00817281 -0.0247181 -0.00380042 -0.00817281 -0.0246652 -0.0146121 -0.00817281 -0.0246138 -0.0185225 -0.00817281 -0.0245 -0.000431337 -0.00817281 -0.0245 0.00116866 -0.00817281 -0.0243529 -0.0169688 -0.00817281 -0.0242401 -0.0172548 -0.00817281 -0.0242401 -0.0142548 -0.00817281 -0.0241273 -0.0145408 -0.00817281 -0.0241 -0.000324157 -0.00817281 -0.0241 0.00106148 -0.00817281 -0.0239705 -0.00584164 -0.00817281 -0.0239705 -0.00517408 -0.00817281 -0.023815 -0.0168975 -0.00817281 -0.0238072 -3.13366e-05 -0.00817281 -0.0238072 0.000768664 -0.00817281 -0.0238071 -0.00625786 -0.00817281 -0.0237167 -0.00566803 -0.00817281 -0.0237 0.000368664 -0.00817281 -0.0236808 -0.0064431 -0.00817281 -0.0236808 -0.00457263 -0.00817281 -0.0236665 -0.00512776 -0.00817281 -0.0236118 -0.01471 -0.00817281 -0.0235893 -0.0171063 -0.00817281 -0.0235893 -0.0144034 -0.00817281 -0.0235275 -0.00617657 -0.00817281 -0.0233869 -0.00466278 -0.00817281 -0.0233798 -0.00316475 -0.00817281 -0.0233614 -0.0165999 -0.00817281 -0.0232666 -0.0191391 -0.00817281 -0.0232207 -0.0150861 -0.00817281 -0.0231589 -0.00685931 -0.00817281 -0.0231589 -0.00415641 -0.00817281 -0.0231364 -0.00655267 -0.00817281 -0.0230817 -0.0161349 -0.00817281 -0.0230674 -0.01669 -0.00817281 -0.0230674 -0.0148196 -0.00817281 -0.0230315 -0.0155946 -0.00817281 -0.0229411 -0.0165048 -0.00817281 -0.0229332 -0.00436517 -0.00817281 -0.0227778 -0.0160886 -0.00817281 -0.0227778 -0.015421 -0.00817281 -0.0226209 -0.00672183 -0.00817281 -0.0225081 -0.00700786 -0.00817281 -0.0225081 -0.00400786 -0.00817281 -0.0223953 -0.00429389 -0.00817281 -0.022083 -0.00665055 -0.00817281 -0.0219514 -0.00277114 -0.00817281 -0.0218797 -0.00446305 -0.00817281 -0.0218573 -0.00685931 -0.00817281 -0.0218573 -0.00415641 -0.00817281 -0.0218327 -0.0195125 -0.00817281 -0.0216293 -0.00635295 -0.00817281 -0.0214886 -0.00483915 -0.00817281 -0.0213497 -0.00588796 -0.00817281 -0.0213353 -0.0064431 -0.00817281 -0.0213353 -0.00457263 -0.00817281 -0.0212995 -0.00534769 -0.00817281 -0.0210457 -0.00584164 -0.00817281 -0.0210457 -0.00517408 -0.00817281 -0.0204763 -0.00263155 -0.00817281 -0.0203559 -0.0196311 -0.00817281 -0.0189994 -0.00275022 -0.00817281 -0.0188808 -0.0194915 -0.00817281 -0.018504 -0.0266313 -0.00817281 -0.018504 -0.0088196 -0.00817281 -0.018504 0.00236866 -0.00817281 -0.0175656 -0.00312355 -0.00817281 -0.0174524 -0.0190979 -0.00817281 -0.0162183 -0.00374019 -0.00817281 -0.016114 -0.0184623 -0.00817281 -0.0159624 -0.0124651 -0.00817281 -0.0159624 -0.0117976 -0.00817281 -0.0157086 -0.0122915 -0.00817281 -0.0156727 -0.0130666 -0.00817281 -0.0156727 -0.0111961 -0.00817281 -0.0156584 -0.0117512 -0.00817281 -0.0155194 -0.0128 -0.00817281 -0.0153788 -0.0112863 -0.00817281 -0.0151508 -0.0134828 -0.00817281 -0.0151508 -0.0107799 -0.00817281 -0.0151283 -0.0131761 -0.00817281 -0.0149987 -0.00458141 -0.00817281 -0.0149251 -0.0109886 -0.00817281 -0.0149064 -0.0176038 -0.00817281 -0.0148 -0.0211313 -0.00817281 -0.0146928 -0.0215313 -0.00817281 -0.0146928 -0.0207313 -0.00817281 -0.0146128 -0.0133453 -0.00817281 -0.0145 -0.0136313 -0.00817281 -0.0145 -0.0106313 -0.00817281 -0.0144 -0.0218242 -0.00817281 -0.0144 -0.0204385 -0.00817281 -0.0143872 -0.0109174 -0.00817281 -0.0140749 -0.013274 -0.00817281 -0.014 -0.0219313 -0.00817281 -0.014 -0.0203313 -0.00817281 -0.0139436 -0.00562165 -0.00817281 -0.0138717 -0.0110865 -0.00817281 -0.0138662 -0.0165488 -0.00817281 -0.0138492 -0.0134828 -0.00817281 -0.0138492 -0.0107799 -0.00817281 -0.0136212 -0.0129764 -0.00817281 -0.0136 -0.0218242 -0.00817281 -0.0136 -0.0204385 -0.00817281 -0.0134806 -0.0114626 -0.00817281 -0.0133416 -0.0125114 -0.00817281 -0.0133273 -0.0130666 -0.00817281 -0.0133273 -0.0111961 -0.00817281 -0.0133072 -0.0215313 -0.00817281 -0.0133072 -0.0207313 -0.00817281 -0.0132914 -0.0119712 -0.00817281 -0.0132 -0.0211313 -0.00817281 -0.0130852 -0.00682929 -0.00817281 -0.0130376 -0.0124651 -0.00817281 -0.0130376 -0.0117976 -0.00817281 -0.0130249 -0.0153291 -0.00817281 -0.0124495 -0.00816765 -0.00817281 -0.0124083 -0.0139818 -0.00817281 -0.0120559 -0.00959606 -0.00817281 -0.012035 -0.012548 -0.00817281 -0.0119163 -0.0110711 -0.00817281 -0.0105 -0.0266313 -0.00817281 -0.0105 -0.0088196 -0.00817281 -0.0105 0.00236866 -0.00811695 -0.0065 -0.0222409 -0.00811695 -0.0065 -0.0210217 -0.00811695 -0.0065 -0.00224094 -0.00811695 -0.0065 -0.00102174 -0.00811695 -0.0025 -0.0222409 -0.00811695 -0.0025 -0.0210217 -0.00811695 -0.0025 -0.00224094 -0.00811695 -0.0025 -0.00102174 -0.00795361 -0.0065 -0.0216313 -0.00795361 -0.0065 -0.00163134 -0.00795361 -0.0025 -0.0216313 -0.00795361 -0.0025 -0.00163134 -0.00667281 -0.0035 -0.0266313 -0.00667281 -0.0035 0.00336866 -0.00667281 0 -0.0266313 -0.00667281 0 0.00336866 -0.00617281 -0.0262401 -0.0157548 -0.00617281 -0.0260879 -0.0165202 -0.00617281 -0.0260879 -0.0149894 -0.00617281 -0.0257025 -0.0160886 -0.00617281 -0.0257025 -0.015421 -0.00617281 -0.0256544 -0.017169 -0.00617281 -0.0256544 -0.0143406 -0.00617281 -0.0254129 -0.01669 -0.00617281 -0.0254129 -0.0148196 -0.00617281 -0.0250055 -0.0176026 -0.00617281 -0.0250055 -0.0139071 -0.00617281 -0.024891 -0.0171063 -0.00617281 -0.024891 -0.0144034 -0.00617281 -0.0245081 -0.00550786 -0.00617281 -0.0243559 -0.00627323 -0.00617281 -0.0243559 -0.00474249 -0.00617281 -0.0242401 -0.0177548 -0.00617281 -0.0242401 -0.0172548 -0.00617281 -0.0242401 -0.0142548 -0.00617281 -0.0242401 -0.0137548 -0.00617281 -0.0242401 -0.00650786 -0.00617281 -0.0239705 -0.00584164 -0.00617281 -0.0239705 -0.00517408 -0.00617281 -0.0239223 -0.00692207 -0.00617281 -0.0239223 -0.00409365 -0.00617281 -0.0236808 -0.0064431 -0.00617281 -0.0236808 -0.00457263 -0.00617281 -0.0235893 -0.0171063 -0.00617281 -0.0235893 -0.0144034 -0.00617281 -0.0234748 -0.0176026 -0.00617281 -0.0234748 -0.0139071 -0.00617281 -0.0232735 -0.00735562 -0.00617281 -0.0232735 -0.0036601 -0.00617281 -0.0231589 -0.00685931 -0.00617281 -0.0231589 -0.00415641 -0.00617281 -0.0230674 -0.01669 -0.00617281 -0.0230674 -0.0148196 -0.00617281 -0.0228259 -0.017169 -0.00617281 -0.0228259 -0.0143406 -0.00617281 -0.0227778 -0.0160886 -0.00617281 -0.0227778 -0.015421 -0.00617281 -0.0225081 -0.0167548 -0.00617281 -0.0225081 -0.00750786 -0.00617281 -0.0225081 -0.00700786 -0.00617281 -0.0225081 -0.00400786 -0.00617281 -0.0225081 -0.00350786 -0.00617281 -0.0223924 -0.0165202 -0.00617281 -0.0223924 -0.0149894 -0.00617281 -0.0222401 -0.0157548 -0.00617281 -0.0218573 -0.00685931 -0.00617281 -0.0218573 -0.00415641 -0.00617281 -0.0217427 -0.00735562 -0.00617281 -0.0217427 -0.0036601 -0.00617281 -0.0213353 -0.0064431 -0.00617281 -0.0213353 -0.00457263 -0.00617281 -0.0210939 -0.00692207 -0.00617281 -0.0210939 -0.00409365 -0.00617281 -0.0210457 -0.00584164 -0.00617281 -0.0210457 -0.00517408 -0.00617281 -0.0206603 -0.00627323 -0.00617281 -0.0206603 -0.00474249 -0.00617281 -0.0205081 -0.00550786 -0.00617281 -0.0165 -0.0121313 -0.00617281 -0.0163478 -0.0128967 -0.00617281 -0.0163478 -0.011366 -0.00617281 -0.0159624 -0.0124651 -0.00617281 -0.0159624 -0.0117976 -0.00617281 -0.0159142 -0.0135456 -0.00617281 -0.0159142 -0.0107171 -0.00617281 -0.0156727 -0.0130666 -0.00617281 -0.0156727 -0.0111961 -0.00617281 -0.0152654 -0.0139791 -0.00617281 -0.0152654 -0.0102836 -0.00617281 -0.0151508 -0.0134828 -0.00617281 -0.0151508 -0.0107799 -0.00617281 -0.0145 -0.0141313 -0.00617281 -0.0145 -0.0136313 -0.00617281 -0.0145 -0.0106313 -0.00617281 -0.0145 -0.0101313 -0.00617281 -0.0138492 -0.0134828 -0.00617281 -0.0138492 -0.0107799 -0.00617281 -0.0137346 -0.0139791 -0.00617281 -0.0137346 -0.0102836 -0.00617281 -0.0133273 -0.0130666 -0.00617281 -0.0133273 -0.0111961 -0.00617281 -0.0130858 -0.0135456 -0.00617281 -0.0130858 -0.0107171 -0.00617281 -0.0130376 -0.0124651 -0.00617281 -0.0130376 -0.0117976 -0.00617281 -0.0126522 -0.0128967 -0.00617281 -0.0126522 -0.011366 -0.00617281 -0.0125 -0.0121313 -0.00417281 -0.0275 -0.0266313 -0.00417281 -0.0275 -0.0088196 -0.00417281 -0.0275 0.00236866 -0.00417281 -0.0262401 -0.0157548 -0.00417281 -0.0260879 -0.0165202 -0.00417281 -0.0260879 -0.0149894 -0.00417281 -0.0256544 -0.017169 -0.00417281 -0.0256544 -0.0143406 -0.00417281 -0.0253 0.000368664 -0.00417281 -0.0251928 -3.13366e-05 -0.00417281 -0.0251928 0.000768664 -0.00417281 -0.0250055 -0.0176026 -0.00417281 -0.0250055 -0.0139071 -0.00417281 -0.0249 -0.000324157 -0.00417281 -0.0249 0.00106148 -0.00417281 -0.0245081 -0.00550786 -0.00417281 -0.0245 -0.000431337 -0.00417281 -0.0245 0.00116866 -0.00417281 -0.0243559 -0.00627323 -0.00417281 -0.0243559 -0.00474249 -0.00417281 -0.0242401 -0.0177548 -0.00417281 -0.0242401 -0.0137548 -0.00417281 -0.0242401 -0.00650786 -0.00417281 -0.0241 -0.000324157 -0.00417281 -0.0241 0.00106148 -0.00417281 -0.0239223 -0.00692207 -0.00417281 -0.0239223 -0.00409365 -0.00417281 -0.0238072 -3.13366e-05 -0.00417281 -0.0238072 0.000768664 -0.00417281 -0.0237 0.000368664 -0.00417281 -0.0234748 -0.0176026 -0.00417281 -0.0234748 -0.0139071 -0.00417281 -0.0232735 -0.00735562 -0.00417281 -0.0232735 -0.0036601 -0.00417281 -0.0228259 -0.017169 -0.00417281 -0.0228259 -0.0143406 -0.00417281 -0.0225081 -0.0167548 -0.00417281 -0.0225081 -0.00750786 -0.00417281 -0.0225081 -0.00350786 -0.00417281 -0.0223924 -0.0165202 -0.00417281 -0.0223924 -0.0149894 -0.00417281 -0.0222401 -0.0157548 -0.00417281 -0.0217427 -0.00735562 -0.00417281 -0.0217427 -0.0036601 -0.00417281 -0.0210939 -0.00692207 -0.00417281 -0.0210939 -0.00409365 -0.00417281 -0.0206603 -0.00627323 -0.00417281 -0.0206603 -0.00474249 -0.00417281 -0.0205081 -0.00550786 -0.00417281 -0.018504 -0.0266313 -0.00417281 -0.018504 -0.0088196 -0.00417281 -0.018504 0.00236866 -0.00417281 -0.0165 -0.0121313 -0.00417281 -0.0163478 -0.0128967 -0.00417281 -0.0163478 -0.011366 -0.00417281 -0.0159142 -0.0135456 -0.00417281 -0.0159142 -0.0107171 -0.00417281 -0.0152654 -0.0139791 -0.00417281 -0.0152654 -0.0102836 -0.00417281 -0.0148 -0.0211313 -0.00417281 -0.0146928 -0.0215313 -0.00417281 -0.0146928 -0.0207313 -0.00417281 -0.0145 -0.0141313 -0.00417281 -0.0145 -0.0101313 -0.00417281 -0.0144 -0.0218242 -0.00417281 -0.0144 -0.0204385 -0.00417281 -0.014 -0.0219313 -0.00417281 -0.014 -0.0203313 -0.00417281 -0.0137346 -0.0139791 -0.00417281 -0.0137346 -0.0102836 -0.00417281 -0.0136 -0.0218242 -0.00417281 -0.0136 -0.0204385 -0.00417281 -0.0133072 -0.0215313 -0.00417281 -0.0133072 -0.0207313 -0.00417281 -0.0132 -0.0211313 -0.00417281 -0.0130858 -0.0135456 -0.00417281 -0.0130858 -0.0107171 -0.00417281 -0.0126522 -0.0128967 -0.00417281 -0.0126522 -0.011366 -0.00417281 -0.0125 -0.0121313 -0.00417281 -0.0105 -0.0266313 -0.00417281 -0.0105 -0.0088196 -0.00417281 -0.0105 0.00236866 -0.00417281 -0.0275 -0.0336313 -0.00417281 -0.0275 0.00436866 -0.00417281 -0.0255 0.000368664 -0.00417281 -0.025366 -0.000131336 -0.00417281 -0.025366 0.000868664 -0.00417281 -0.025 -0.000497362 -0.00417281 -0.025 0.00123469 -0.00417281 -0.0245 -0.000631336 -0.00417281 -0.0245 0.00136866 -0.00417281 -0.024 -0.000497362 -0.00417281 -0.024 0.00123469 -0.00417281 -0.023634 -0.000131336 -0.00417281 -0.023634 0.000868664 -0.00417281 -0.0235 0.000368664 -0.00417281 -0.015 -0.0211313 -0.00417281 -0.014866 -0.0216313 -0.00417281 -0.014866 -0.0206313 -0.00417281 -0.0145 -0.0219974 -0.00417281 -0.0145 -0.0202653 -0.00417281 -0.014 -0.0221313 -0.00417281 -0.014 -0.0201313 -0.00417281 -0.0135 -0.0219974 -0.00417281 -0.0135 -0.0202653 -0.00417281 -0.013134 -0.0216313 -0.00417281 -0.013134 -0.0206313 -0.00417281 -0.013 -0.0211313 -0.00417281 -0.0095 -0.0336313 -0.00417281 -0.0095 0.00436866 -0.00117281 -0.0275 -0.0336313 -0.00117281 -0.0275 0.00436866 -0.00117281 -0.0255 0.000368664 -0.00117281 -0.025366 -0.000131336 -0.00117281 -0.025366 0.000868664 -0.00117281 -0.025 -0.000497362 -0.00117281 -0.025 0.00123469 -0.00117281 -0.0245 -0.000631336 -0.00117281 -0.0245 0.00136866 -0.00117281 -0.024 -0.000497362 -0.00117281 -0.024 0.00123469 -0.00117281 -0.023634 -0.000131336 -0.00117281 -0.023634 0.000868664 -0.00117281 -0.0235 0.000368664 -0.00117281 -0.015 -0.0211313 -0.00117281 -0.014866 -0.0216313 -0.00117281 -0.014866 -0.0206313 -0.00117281 -0.0145 -0.0219974 -0.00117281 -0.0145 -0.0202653 -0.00117281 -0.014 -0.0221313 -0.00117281 -0.014 -0.0201313 -0.00117281 -0.0135 -0.0219974 -0.00117281 -0.0135 -0.0202653 -0.00117281 -0.013134 -0.0216313 -0.00117281 -0.013134 -0.0206313 -0.00117281 -0.013 -0.0211313 -0.00117281 -0.0095 -0.0336313 -0.00117281 -0.0095 0.00436866 0.000327189 -0.0035 -0.0266313 0.000327189 -0.0035 0.00336866 0.000327189 0 -0.0266313 0.000327189 0 0.00336866 0.00160799 -0.0065 -0.0216313 0.00160799 -0.0065 -0.00163134 0.00160799 -0.0025 -0.0216313 0.00160799 -0.0025 -0.00163134 0.00177133 -0.0065 -0.0222409 0.00177133 -0.0065 -0.0210217 0.00177133 -0.0065 -0.00224094 0.00177133 -0.0065 -0.00102174 0.00177133 -0.0025 -0.0222409 0.00177133 -0.0025 -0.0210217 0.00177133 -0.0025 -0.00224094 0.00177133 -0.0025 -0.00102174 0.00182719 -0.0095 -0.0216313 0.00182719 -0.0095 -0.00163134 0.00182719 -0.0065 -0.0216313 0.00182719 -0.0065 -0.00163134 0.00196116 -0.0095 -0.0221313 0.00196116 -0.0095 -0.0211313 0.00196116 -0.0095 -0.00213134 0.00196116 -0.0095 -0.00113134 0.00196116 -0.0065 -0.0221313 0.00196116 -0.0065 -0.0211313 0.00196116 -0.0065 -0.00213134 0.00196116 -0.0065 -0.00113134 0.00221759 -0.0065 -0.0226872 0.00221759 -0.0065 -0.0205755 0.00221759 -0.0065 -0.00268719 0.00221759 -0.0065 -0.000575478 0.00221759 -0.0025 -0.0226872 0.00221759 -0.0025 -0.0205755 0.00221759 -0.0025 -0.00268719 0.00221759 -0.0025 -0.000575478 0.00232719 -0.0095 -0.0224974 0.00232719 -0.0095 -0.0207653 0.00232719 -0.0095 -0.00249736 0.00232719 -0.0095 -0.000765311 0.00232719 -0.0065 -0.0224974 0.00232719 -0.0065 -0.0207653 0.00232719 -0.0065 -0.00249736 0.00232719 -0.0065 -0.000765311 0.00282719 -0.0095 -0.0226313 0.00282719 -0.0095 -0.0206313 0.00282719 -0.0095 -0.00263134 0.00282719 -0.0095 -0.000631336 0.00282719 -0.0065 -0.0228505 0.00282719 -0.0065 -0.0226313 0.00282719 -0.0065 -0.0206313 0.00282719 -0.0065 -0.0204121 0.00282719 -0.0065 -0.00285054 0.00282719 -0.0065 -0.00263134 0.00282719 -0.0065 -0.000631336 0.00282719 -0.0065 -0.000412136 0.00282719 -0.0025 -0.0228505 0.00282719 -0.0025 -0.0204121 0.00282719 -0.0025 -0.00285054 0.00282719 -0.0025 -0.000412136 0.00282719 -0.00176743 -0.0216313 0.00282719 -0.00176743 -0.00163134 0.00332719 -0.0095 -0.0224974 0.00332719 -0.0095 -0.0207653 0.00332719 -0.0095 -0.00249736 0.00332719 -0.0095 -0.000765311 0.00332719 -0.0065 -0.0224974 0.00332719 -0.0065 -0.0207653 0.00332719 -0.0065 -0.00249736 0.00332719 -0.0065 -0.000765311 0.00343679 -0.0065 -0.0226872 0.00343679 -0.0065 -0.0205755 0.00343679 -0.0065 -0.00268719 0.00343679 -0.0065 -0.000575478 0.00343679 -0.0025 -0.0226872 0.00343679 -0.0025 -0.0205755 0.00343679 -0.0025 -0.00268719 0.00343679 -0.0025 -0.000575478 0.00369321 -0.0095 -0.0221313 0.00369321 -0.0095 -0.0211313 0.00369321 -0.0095 -0.00213134 0.00369321 -0.0095 -0.00113134 0.00369321 -0.0065 -0.0221313 0.00369321 -0.0065 -0.0211313 0.00369321 -0.0065 -0.00213134 0.00369321 -0.0065 -0.00113134 0.00382719 -0.0095 -0.0216313 0.00382719 -0.0095 -0.00163134 0.00382719 -0.0065 -0.0216313 0.00382719 -0.0065 -0.00163134 0.00388305 -0.0065 -0.0222409 0.00388305 -0.0065 -0.0210217 0.00388305 -0.0065 -0.00224094 0.00388305 -0.0065 -0.00102174 0.00388305 -0.0025 -0.0222409 0.00388305 -0.0025 -0.0210217 0.00388305 -0.0025 -0.00224094 0.00388305 -0.0025 -0.00102174 0.00404639 -0.0065 -0.0216313 0.00404639 -0.0065 -0.00163134 0.00404639 -0.0025 -0.0216313 0.00404639 -0.0025 -0.00163134 0.00482719 -0.0415 -0.0336313 0.00482719 -0.0415 0.00436866 0.00482719 -0.0265 0.000368664 0.00482719 -0.0262321 -0.000631336 0.00482719 -0.0262321 0.00136866 0.00482719 -0.0255 -0.00136339 0.00482719 -0.0255 0.00210071 0.00482719 -0.0245 -0.00163134 0.00482719 -0.0245 0.00236866 0.00482719 -0.0235 -0.00136339 0.00482719 -0.0235 0.00210071 0.00482719 -0.0227679 -0.000631336 0.00482719 -0.0227679 0.00136866 0.00482719 -0.0225 0.000368664 0.00482719 -0.02 0.00236866 0.00482719 -0.019799 0.00161866 0.00482719 -0.019799 0.00311866 0.00482719 -0.01925 0.00106963 0.00482719 -0.01925 0.0036677 0.00482719 -0.0185 0.000868664 0.00482719 -0.0185 0.00386866 0.00482719 -0.01775 0.00106963 0.00482719 -0.01775 0.0036677 0.00482719 -0.017201 0.00161866 0.00482719 -0.017201 0.00311866 0.00482719 -0.017 0.00236866 0.00482719 -0.016 -0.0211313 0.00482719 -0.015732 -0.0221313 0.00482719 -0.015732 -0.0201313 0.00482719 -0.015 -0.0228634 0.00482719 -0.015 -0.0193993 0.00482719 -0.014 -0.0231313 0.00482719 -0.014 -0.0191313 0.00482719 -0.013 -0.0228634 0.00482719 -0.013 -0.0193993 0.00482719 -0.0122679 -0.0221313 0.00482719 -0.0122679 -0.0201313 0.00482719 -0.012 -0.0211313 0.00482719 -0.0095 -0.0336313 0.00482719 -0.0095 0.00436866 0.00532719 -0.0065 -0.0266313 0.00532719 -0.0065 0.00336866 0.00532719 0 -0.0266313 0.00532719 0 0.00336866 0.00782719 -0.0415 -0.0336313 0.00782719 -0.0415 0.00836866 0.00782719 -0.0265 0.000368664 0.00782719 -0.0262321 -0.000631336 0.00782719 -0.0262321 0.00136866 0.00782719 -0.0255 -0.00136339 0.00782719 -0.0255 0.00210071 0.00782719 -0.0245 -0.00163134 0.00782719 -0.0245 0.00236866 0.00782719 -0.0235 -0.00136339 0.00782719 -0.0235 0.00210071 0.00782719 -0.0227679 -0.000631336 0.00782719 -0.0227679 0.00136866 0.00782719 -0.0225 0.000368664 0.00782719 -0.02 0.00236866 0.00782719 -0.019799 0.00161866 0.00782719 -0.019799 0.00311866 0.00782719 -0.01925 0.00106963 0.00782719 -0.01925 0.0036677 0.00782719 -0.0185 0.000868664 0.00782719 -0.0185 0.00386866 0.00782719 -0.01775 0.00106963 0.00782719 -0.01775 0.0036677 0.00782719 -0.017201 0.00161866 0.00782719 -0.017201 0.00311866 0.00782719 -0.017 0.00236866 0.00782719 -0.016 -0.0211313 0.00782719 -0.015732 -0.0221313 0.00782719 -0.015732 -0.0201313 0.00782719 -0.015 -0.0228634 0.00782719 -0.015 -0.0193993 0.00782719 -0.014 -0.0231313 0.00782719 -0.014 -0.0191313 0.00782719 -0.013 -0.0228634 0.00782719 -0.013 -0.0193993 0.00782719 -0.0122679 -0.0221313 0.00782719 -0.0122679 -0.0201313 0.00782719 -0.012 -0.0211313 0.00782719 -0.0065 -0.0336313 0.00782719 -0.0065 0.00836866 </float_array>
                    <technique_common>
                        <accessor count="1074" offset="0" source="#Mesh-1-positions-array" stride="3">
                            <param name="X" type="float" />
                            <param name="Y" type="float" />
                            <param name="Z" type="float" />
                        </accessor>
                    </technique_common>
                </source>
                <vertices id="Mesh-1-vertices">
                    <input semantic="POSITION" source="#Mesh-1-positions" />
                </vertices>
                <triangles count="2200">
                    <input offset="0" semantic="VERTEX" source="#Mesh-1-vertices" />
                    <p>247 579 243 243 579 577 243 577 234 234 577 567 234 567 222 222 567 545 222 545 220 220 545 518 220 518 215 215 518 499 215 499 205 205 499 497 205 497 196 196 497 492 196 492 192 192 492 490 192 490 190 190 490 488 190 488 186 186 488 486 186 486 182 182 486 487 182 487 185 185 487 489 185 489 189 189 489 491 189 491 191 191 491 496 191 496 195 195 496 498 195 498 204 204 498 516 204 516 214 214 516 543 214 543 219 219 543 563 219 563 221 221 563 576 221 576 230 230 576 578 230 578 242 242 578 583 242 583 246 246 583 585 246 585 251 251 585 598 251 598 259 259 598 613 259 613 268 268 613 629 268 629 272 272 629 633 272 633 276 276 633 635 276 635 280 280 635 637 280 637 282 282 637 636 282 636 281 281 636 634 281 634 277 277 634 632 277 632 273 273 632 615 273 615 269 269 615 600 269 600 262 262 600 586 262 586 252 252 586 584 252 584 247 247 584 579 517 489 487 609 613 599 599 613 598 517 487 510 579 550 577 577 550 544 577 544 567 567 544 529 567 529 545 545 529 518 518 529 521 518 521 499 499 521 515 499 515 497 515 507 497 497 507 502 497 502 492 492 502 505 487 486 510 510 486 488 510 488 505 505 488 490 505 490 492 637 635 614 614 635 633 614 633 609 609 633 629 609 629 613 598 585 599 599 585 583 599 583 594 594 583 578 593 589 568 568 589 592 568 592 570 570 592 594 570 594 573 573 594 569 569 594 578 569 578 564 564 578 576 564 576 561 561 576 563 561 563 555 555 563 543 555 543 542 542 543 516 542 516 537 537 516 498 537 498 533 533 498 496 533 496 541 541 496 491 541 491 549 568 562 538 538 562 558 538 558 524 524 558 549 524 549 517 517 549 491 517 491 489 568 538 593 593 538 546 593 546 597 597 546 553 597 553 604 579 584 550 550 584 586 550 586 553 553 586 600 553 600 604 604 600 615 604 615 610 610 615 632 610 632 618 618 632 634 618 634 622 622 634 636 622 636 627 627 636 637 627 637 621 621 637 614 204 214 233 233 214 219 233 219 221 189 191 233 233 191 195 233 195 204 186 182 233 233 182 185 233 185 189 196 192 233 233 192 190 233 190 186 220 215 233 233 215 205 233 205 196 243 234 233 233 234 222 233 222 220 262 252 233 233 252 247 233 247 243 277 273 233 233 273 269 233 269 262 280 282 233 233 282 281 233 281 277 268 272 233 233 272 276 233 276 280 246 251 233 233 251 259 233 259 268 221 230 233 233 230 242 233 242 246 346 369 363 346 359 362 360 359 346 363 360 346 346 370 372 366 370 346 362 366 346 346 376 377 374 376 346 372 374 346 346 373 371 375 373 346 377 375 346 371 369 346 369 555 363 363 555 542 363 542 360 360 542 537 360 537 359 359 537 533 359 533 362 362 533 541 362 541 366 366 541 549 366 549 370 370 549 558 370 558 372 372 558 562 372 562 374 374 562 568 374 568 376 376 568 570 376 570 377 377 570 573 377 573 375 375 573 569 375 569 373 373 569 564 373 564 371 371 564 561 371 561 369 369 561 555 345 355 353 345 350 352 351 350 345 353 351 345 345 356 358 354 356 345 352 354 345 345 367 368 364 367 345 358 364 345 345 361 357 365 361 345 368 365 345 357 355 345 355 517 353 353 517 510 353 510 351 351 510 505 351 505 350 350 505 502 350 502 352 352 502 507 352 507 354 354 507 515 354 515 356 356 515 521 356 521 358 358 521 529 358 529 364 364 529 544 364 544 367 367 544 550 367 550 368 368 550 553 368 553 365 365 553 546 365 546 361 361 546 538 361 538 357 357 538 524 357 524 355 355 524 517 347 383 381 347 378 380 379 378 347 381 379 347 347 384 386 382 384 347 380 382 347 347 390 391 388 390 347 386 388 347 347 387 385 389 387 347 391 389 347 385 383 347 383 599 381 381 599 594 381 594 379 379 594 592 379 592 378 378 592 589 378 589 380 380 589 593 380 593 382 382 593 597 382 597 384 384 597 604 384 604 386 386 604 610 386 610 388 388 610 618 388 618 390 390 618 622 390 622 391 391 622 627 391 627 389 389 627 621 389 621 387 387 621 614 387 614 385 385 614 609 385 609 383 383 609 599 858 859 482 482 859 475 482 474 858 858 474 458 858 458 392 392 458 440 392 440 432 413 419 393 432 416 392 392 416 412 392 412 393 460 442 441 441 442 433 433 442 434 433 434 418 412 417 393 393 417 433 393 433 413 413 433 418 419 435 393 393 435 443 393 443 859 859 443 461 859 461 477 477 483 859 859 483 476 859 476 475 475 476 460 475 460 459 459 460 441 926 910 886 886 910 905 886 905 887 966 1028 974 974 1028 952 974 952 967 953 969 1029 1029 969 975 1029 975 1028 1028 975 968 1028 968 952 924 886 932 932 886 1028 932 1028 950 950 1028 966 905 911 887 887 911 927 887 927 1029 1029 927 935 1029 935 953 926 925 934 934 925 933 934 933 952 952 933 951 952 951 967 924 908 886 886 908 904 886 904 926 926 904 909 926 909 925 887 1029 861 861 1029 991 861 991 833 833 991 348 833 348 859 859 348 393 348 349 393 393 349 395 393 395 392 392 395 394 1072 1034 990 860 832 886 886 832 858 990 1028 1072 1072 1028 886 1072 886 394 394 886 858 394 858 392 1035 1054 1073 1073 1054 1056 1048 1050 1035 1035 1050 1052 1035 1052 1054 1059 1057 1066 1066 1057 1055 1066 1055 1064 1064 1055 1053 1064 1053 1051 1035 1036 1038 1066 1068 1059 1059 1068 1073 1059 1073 1058 1058 1073 1056 1068 1070 1073 1073 1070 1071 1073 1071 1072 1072 1071 1069 1069 1067 1072 1072 1067 1065 1072 1065 1034 1034 1065 1063 1063 1061 1034 1034 1061 1060 1034 1060 1051 1051 1060 1062 1051 1062 1064 1038 1040 1035 1035 1040 1042 1035 1042 1048 1042 1044 1048 1048 1044 1046 1048 1046 1049 1049 1046 1047 1049 1047 1051 1036 1035 1037 1037 1035 1034 1037 1034 1039 1047 1045 1051 1051 1045 1043 1051 1043 1034 1034 1043 1041 1034 1041 1039 349 1035 395 395 1035 1073 957 942 1073 439 423 395 395 423 415 481 465 915 414 394 395 915 465 931 422 446 415 415 446 437 415 437 395 395 437 421 395 421 414 414 420 394 394 420 436 394 436 445 422 438 446 446 438 449 446 449 463 463 449 464 463 464 479 942 931 1073 1073 931 465 1073 465 395 395 465 450 395 450 439 481 915 485 485 915 907 485 907 480 480 907 914 480 914 464 464 914 938 464 938 479 462 478 928 445 462 394 394 462 928 394 928 1072 1072 928 937 1072 937 954 956 972 1072 1072 972 977 1072 977 1073 1073 977 973 1073 973 957 954 970 1072 1072 970 976 1072 976 956 938 929 479 479 929 913 479 913 484 484 913 906 484 906 478 478 906 912 478 912 928 914 930 938 938 930 941 938 941 955 955 941 956 955 956 971 971 956 976 990 1034 991 991 1034 1035 991 1035 348 348 1035 349 1018 1016 1009 1008 991 1010 1010 991 1029 1010 1029 1012 1008 1006 991 991 1006 998 991 998 996 996 994 991 991 994 992 991 992 990 999 1001 1007 1007 1001 1003 1007 1003 1005 992 993 990 990 993 995 990 995 997 1011 1027 1026 1007 1009 999 999 1009 1016 999 1016 997 997 1016 1017 997 1017 990 990 1017 1019 990 1019 1028 1028 1019 1021 1028 1021 1023 1026 1024 1011 1011 1024 1022 1011 1022 1009 1009 1022 1020 1009 1020 1018 1023 1025 1028 1028 1025 1027 1028 1027 1029 1005 1003 1004 1004 1003 1002 1004 1002 1006 1006 1002 1000 1006 1000 998 1011 1013 1027 1027 1013 1015 1027 1015 1029 1029 1015 1014 1029 1014 1012 837 839 832 858 851 853 854 852 859 833 840 838 840 833 842 842 833 859 842 859 844 838 836 833 833 836 834 833 834 832 832 834 835 832 835 837 853 855 858 858 855 857 858 857 859 859 857 856 859 856 854 839 841 852 852 841 843 852 843 859 859 843 845 859 845 844 851 858 849 849 858 832 849 832 847 852 850 839 839 850 848 839 848 832 832 848 846 832 846 847 887 880 882 864 866 861 861 866 868 861 868 887 887 868 870 882 884 887 887 884 885 887 885 886 886 885 883 870 872 887 887 872 873 887 873 874 874 876 887 887 876 878 887 878 880 883 881 886 886 881 879 886 879 860 860 879 877 860 877 875 864 861 862 862 861 860 862 860 863 873 871 874 874 871 869 874 869 875 875 869 867 875 867 860 860 867 865 860 865 863 860 861 832 832 861 833 1022 1066 1020 1020 1066 1064 1020 1064 1018 1018 1064 1062 1018 1062 1016 1016 1062 1060 1016 1060 1017 1017 1060 1061 1017 1061 1019 1019 1061 1063 1019 1063 1021 1021 1063 1065 1021 1065 1023 1023 1065 1067 1023 1067 1025 1025 1067 1069 1025 1069 1027 1027 1069 1071 1027 1071 1026 1026 1071 1070 1026 1070 1024 1024 1070 1068 1024 1068 1022 1022 1068 1066 852 880 850 850 880 878 850 878 848 848 878 876 848 876 846 846 876 874 846 874 847 847 874 875 847 875 849 849 875 877 849 877 851 851 877 879 851 879 853 853 879 881 853 881 855 855 881 883 855 883 857 857 883 885 857 885 856 856 885 884 856 884 854 854 884 882 854 882 852 852 882 880 840 868 838 838 868 866 838 866 836 836 866 864 836 864 834 834 864 862 834 862 835 835 862 863 835 863 837 837 863 865 837 865 839 839 865 867 839 867 841 841 867 869 841 869 843 843 869 871 843 871 845 845 871 873 845 873 844 844 873 872 844 872 842 842 872 870 842 870 840 840 870 868 445 440 462 462 440 458 462 458 478 478 458 474 478 474 484 484 474 482 484 482 479 479 482 475 479 475 463 463 475 459 463 459 446 446 459 441 446 441 437 437 441 433 437 433 421 421 433 417 421 417 414 414 417 412 414 412 420 420 412 416 420 416 436 436 416 432 436 432 445 445 432 440 937 932 954 954 932 950 954 950 970 970 950 966 970 966 976 976 966 974 976 974 971 971 974 967 971 967 955 955 967 951 955 951 938 938 951 933 938 933 929 929 933 925 929 925 913 913 925 909 913 909 906 906 909 904 906 904 912 912 904 908 912 908 928 928 908 924 928 924 937 937 924 932 935 942 953 953 942 957 953 957 969 969 957 973 969 973 975 975 973 977 975 977 968 968 977 972 968 972 952 952 972 956 952 956 934 934 956 941 934 941 926 926 941 930 926 930 910 910 930 914 910 914 905 905 914 907 905 907 911 911 907 915 911 915 927 927 915 931 927 931 935 935 931 942 443 450 461 461 450 465 461 465 477 477 465 481 477 481 483 483 481 485 483 485 476 476 485 480 476 480 460 460 480 464 460 464 442 442 464 449 442 449 434 434 449 438 434 438 418 418 438 422 418 422 413 413 422 415 413 415 419 419 415 423 419 423 435 435 423 439 435 439 443 443 439 450 998 1042 996 996 1042 1040 996 1040 994 994 1040 1038 994 1038 992 992 1038 1036 992 1036 993 993 1036 1037 993 1037 995 995 1037 1039 995 1039 997 997 1039 1041 997 1041 999 999 1041 1043 999 1043 1001 1001 1043 1045 1001 1045 1003 1003 1045 1047 1003 1047 1002 1002 1047 1046 1002 1046 1000 1000 1046 1044 1000 1044 998 998 1044 1042 1010 1054 1008 1008 1054 1052 1008 1052 1006 1006 1052 1050 1006 1050 1004 1004 1050 1048 1004 1048 1005 1005 1048 1049 1005 1049 1007 1007 1049 1051 1007 1051 1009 1009 1051 1053 1009 1053 1011 1011 1053 1055 1011 1055 1013 1013 1055 1057 1013 1057 1015 1015 1057 1059 1015 1059 1014 1014 1059 1058 1014 1058 1012 1012 1058 1056 1012 1056 1010 1010 1056 1054 19 17 18 18 17 16 22 75 23 23 75 76 75 91 89 76 75 64 64 75 53 64 53 62 81 79 58 75 93 91 91 93 113 91 113 92 92 113 106 92 106 90 90 106 97 90 97 88 88 97 95 88 95 84 84 95 86 84 86 82 82 86 77 82 77 80 80 77 73 80 73 79 79 73 66 79 66 58 89 85 75 75 85 83 75 83 53 53 83 81 53 81 55 55 81 58 116 118 110 110 118 119 110 119 108 108 119 117 108 117 104 76 99 94 94 99 100 94 100 93 93 100 102 93 102 113 113 102 104 113 104 115 115 104 117 71 69 78 110 112 116 116 112 111 116 111 114 114 111 109 114 109 107 107 109 105 107 105 98 98 105 103 76 64 99 99 64 68 99 68 70 53 51 62 62 51 50 62 50 60 60 50 52 60 52 57 57 52 54 57 54 61 61 54 56 61 56 63 63 56 59 63 59 65 65 59 67 65 67 69 69 67 74 69 74 78 101 87 103 103 87 96 103 96 98 70 72 99 99 72 71 99 71 101 101 71 78 101 78 87 162 164 158 158 164 160 158 160 156 156 160 154 156 154 152 152 154 150 152 150 148 148 150 146 148 146 144 144 146 142 144 142 140 140 142 138 140 138 136 136 138 132 136 132 134 134 132 125 134 125 130 130 125 123 130 123 128 128 123 121 128 121 127 127 121 120 127 120 129 129 120 122 129 122 131 131 122 124 131 124 135 135 124 126 135 126 137 137 126 133 137 133 141 141 133 139 141 139 145 145 139 143 145 143 149 149 143 147 149 147 153 153 147 151 153 151 157 157 151 155 157 155 159 155 161 159 159 161 165 159 165 163 163 165 169 163 169 167 167 169 176 167 176 171 171 176 178 171 178 173 173 178 180 173 180 174 174 180 181 174 181 172 172 181 179 172 179 170 170 179 177 170 177 166 166 177 175 166 175 162 162 175 168 162 168 164 344 180 343 343 180 178 343 178 341 341 178 176 341 176 339 339 176 169 339 169 332 332 169 165 332 165 328 328 165 161 328 161 324 324 161 155 324 155 318 318 155 151 318 151 314 314 151 147 314 147 310 310 147 143 310 143 306 306 143 139 306 139 302 302 139 133 302 133 296 296 133 126 296 126 290 290 126 124 290 124 288 288 124 122 288 122 286 286 122 120 286 120 284 284 120 121 284 121 285 285 121 123 285 123 287 287 123 125 287 125 289 289 125 132 289 132 295 295 132 138 295 138 301 301 138 142 301 142 305 305 142 146 305 146 309 309 146 150 309 150 313 313 150 154 313 154 317 317 154 160 317 160 323 323 160 164 323 164 327 327 164 168 327 168 331 331 168 175 331 175 338 338 175 177 338 177 340 340 177 179 340 179 342 342 179 181 342 181 344 344 181 180 326 328 322 322 328 324 322 324 320 320 324 318 320 318 316 316 318 314 316 314 312 312 314 310 312 310 308 308 310 306 308 306 304 304 306 302 304 302 300 300 302 296 300 296 298 298 296 290 298 290 294 294 290 288 294 288 292 321 327 325 325 327 331 325 331 329 329 331 338 329 338 333 333 338 340 333 340 335 335 340 342 335 342 337 337 342 344 337 344 336 336 344 343 336 343 334 334 343 341 334 341 330 330 341 339 330 339 326 326 339 332 326 332 328 288 286 292 292 286 284 292 284 291 291 284 285 291 285 293 293 285 287 293 287 297 297 287 289 297 289 299 299 289 295 299 295 303 303 295 301 303 301 307 307 301 305 307 305 311 311 305 309 311 309 315 315 309 313 315 313 319 319 313 317 319 317 321 321 317 323 321 323 327 52 50 127 127 50 128 50 51 128 128 51 53 128 53 130 130 53 55 130 55 134 134 55 58 134 58 136 136 58 66 136 66 140 140 66 73 140 73 144 144 73 77 144 77 148 148 77 86 148 86 152 152 86 95 152 95 156 156 95 97 156 97 158 158 97 106 158 106 162 162 106 113 162 113 166 166 113 115 166 115 170 170 115 117 170 117 172 172 117 119 172 119 174 174 119 118 174 118 173 173 118 116 173 116 171 171 116 114 171 114 167 167 114 107 167 107 163 163 107 98 163 98 159 159 98 96 159 96 157 157 96 87 157 87 153 153 87 78 153 78 149 149 78 74 149 74 145 145 74 67 145 67 141 141 67 59 141 59 137 137 59 56 137 56 135 135 56 54 135 54 131 131 54 52 131 52 129 129 52 127 5 1 4 4 1 0 37 33 25 25 33 29 25 29 27 17 19 15 15 19 21 1 5 3 3 5 7 31 3 27 27 3 21 27 21 25 45 41 76 76 41 37 76 37 23 23 37 25 7 9 3 3 9 11 3 11 21 21 11 13 21 13 15 31 35 3 3 35 39 3 39 94 39 43 94 94 43 47 94 47 76 76 47 49 76 49 45 2 3 93 93 3 94 20 18 16 46 93 48 48 93 75 48 75 44 10 2 12 12 2 20 12 20 14 14 20 16 4 0 6 6 0 2 6 2 8 8 2 10 34 30 24 24 30 26 24 26 22 22 26 28 24 20 34 34 20 2 34 2 38 38 2 93 38 93 42 42 93 46 28 32 22 22 32 36 22 36 75 75 36 40 75 40 44 3 2 1 1 2 0 283 337 279 279 337 336 279 336 275 275 336 334 275 334 271 271 334 330 271 330 261 261 330 326 261 326 249 249 326 322 249 322 245 245 322 320 245 320 236 236 320 316 236 316 224 224 316 312 224 312 218 218 312 308 218 308 209 209 308 304 209 304 199 199 304 300 199 300 194 194 300 298 194 298 188 188 298 294 188 294 184 184 294 292 184 292 183 183 292 291 183 291 187 187 291 293 187 293 193 193 293 297 193 297 198 198 297 299 198 299 208 208 299 303 208 303 217 217 303 307 217 307 223 223 307 311 223 311 235 235 311 315 235 315 244 244 315 319 244 319 248 248 319 321 248 321 260 260 321 325 260 325 270 270 325 329 270 329 274 274 329 333 274 333 278 278 333 335 278 335 283 283 335 337 258 264 271 257 255 216 216 255 253 216 253 213 213 253 250 213 250 211 271 264 275 278 240 274 274 240 270 236 254 245 245 254 256 245 256 249 249 256 258 249 258 261 261 258 271 232 238 257 236 224 254 254 224 218 254 218 250 250 218 209 270 240 260 260 240 241 260 241 248 248 241 239 248 239 244 244 239 237 244 237 235 235 237 231 235 231 223 223 231 228 223 228 217 217 228 226 217 226 208 257 216 232 232 216 212 232 212 229 229 212 210 229 210 227 227 210 206 227 206 225 202 187 206 206 187 193 226 225 208 208 225 206 208 206 198 198 206 193 238 240 257 257 240 278 257 278 263 263 278 283 263 283 265 265 283 279 265 279 267 267 279 275 267 275 266 266 275 264 211 250 207 207 250 209 207 209 203 203 209 199 203 199 201 201 199 194 201 194 197 197 194 188 197 188 200 200 188 184 200 184 202 202 184 183 202 183 187 5 4 7 7 4 6 7 6 9 9 6 8 9 8 11 11 8 10 11 10 13 13 10 12 13 12 15 15 12 14 15 14 17 17 14 16 24 25 20 20 25 21 21 19 20 20 19 18 24 22 25 25 22 23 49 48 45 45 48 44 45 44 41 41 44 40 41 40 37 37 40 36 37 36 33 33 36 32 33 32 29 29 32 28 29 28 27 27 28 26 27 26 31 31 26 30 31 30 35 35 30 34 35 34 39 39 34 38 39 38 43 43 38 42 43 42 47 47 42 46 47 46 49 49 46 48 225 79 227 227 79 81 227 81 229 229 81 83 229 83 232 232 83 85 232 85 238 238 85 89 238 89 240 240 89 91 240 91 241 241 91 92 241 92 239 239 92 90 239 90 237 237 90 88 237 88 231 231 88 84 231 84 228 228 84 82 228 82 226 226 82 80 226 80 225 225 80 79 197 57 201 201 57 61 201 61 203 203 61 63 203 63 207 207 63 65 207 65 211 211 65 69 211 69 213 213 69 71 213 71 216 216 71 72 216 72 212 212 72 70 212 70 210 210 70 68 210 68 206 206 68 64 206 64 202 202 64 62 202 62 200 200 62 60 200 60 197 197 60 57 250 99 254 254 99 101 254 101 256 256 101 103 256 103 258 258 103 105 258 105 264 264 105 109 264 109 266 266 109 111 266 111 267 267 111 112 267 112 265 265 112 110 265 110 263 263 110 108 263 108 257 257 108 104 257 104 255 255 104 102 255 102 253 253 102 100 253 100 250 250 100 99 557 556 696 696 556 554 696 554 692 692 554 551 692 551 684 684 551 539 684 539 674 674 539 522 674 522 668 668 522 513 668 513 664 664 513 503 664 503 660 660 503 500 660 500 661 661 500 501 661 501 665 665 501 504 665 504 669 669 504 514 669 514 675 675 514 523 675 523 685 685 523 540 685 540 693 693 540 552 693 552 697 697 552 557 697 557 696 547 535 682 682 535 532 682 532 678 678 532 527 678 527 679 679 527 528 679 528 683 683 528 536 683 536 691 691 536 548 691 548 701 701 548 560 701 560 707 707 560 566 707 566 711 711 566 572 711 572 715 715 572 575 715 575 714 714 575 574 714 574 710 710 574 571 710 571 706 706 571 565 706 565 700 700 565 559 700 559 690 690 559 547 690 547 682 606 734 596 596 734 731 596 731 591 591 731 727 591 727 588 588 727 723 588 723 587 587 723 722 587 722 590 590 722 726 590 726 595 595 726 730 595 730 605 605 730 733 605 733 616 616 733 736 616 736 623 623 736 740 623 740 630 630 740 744 630 744 631 631 744 745 631 745 624 624 745 741 624 741 617 617 741 737 617 737 606 606 737 734 831 640 800 800 640 582 800 582 751 751 582 495 829 638 830 830 638 639 830 639 831 831 639 640 749 493 798 798 493 580 798 580 829 829 580 638 751 495 750 750 495 494 750 494 749 749 494 493 513 522 493 504 494 514 514 494 523 493 522 580 580 522 539 580 539 551 523 494 540 540 494 581 540 581 552 551 554 580 580 554 556 580 556 581 581 556 557 581 557 552 504 501 494 494 501 500 494 500 493 493 500 503 493 503 513 530 534 582 582 534 531 495 509 506 495 506 494 506 508 494 494 508 511 494 511 519 525 560 519 519 560 548 519 548 536 535 547 494 494 547 559 494 559 581 581 559 565 581 565 571 536 528 519 519 528 527 519 527 494 494 527 532 494 532 535 531 526 582 582 526 520 582 520 495 495 520 512 495 512 509 571 574 581 581 574 575 581 575 572 595 605 580 601 580 603 603 580 605 603 605 608 601 602 580 580 602 607 580 607 638 638 607 611 638 611 619 619 625 638 638 625 628 638 628 639 639 628 626 639 626 620 616 620 605 605 620 612 605 612 608 616 623 620 620 623 630 620 630 639 639 630 631 639 631 624 624 617 639 639 617 606 639 606 581 581 606 596 581 596 591 591 588 581 581 588 587 581 587 580 580 587 590 580 590 595 640 639 582 582 639 581 582 581 530 530 581 572 530 572 525 525 572 566 525 566 560 830 812 818 803 805 799 799 805 807 809 808 798 816 824 817 821 829 823 823 829 830 823 830 822 818 825 830 830 825 827 830 827 828 798 808 799 799 808 810 799 810 814 816 817 814 814 817 811 814 811 806 806 804 814 814 804 802 814 802 799 799 802 801 799 801 803 822 830 820 820 830 828 820 828 816 816 828 826 816 826 824 821 819 829 829 819 815 829 815 798 798 815 813 798 813 809 831 800 830 830 800 799 830 799 812 812 799 807 760 755 749 756 761 750 750 761 770 750 770 799 799 770 780 799 780 784 785 783 798 798 783 779 798 779 749 749 779 769 749 769 760 755 753 749 749 753 752 749 752 750 750 752 754 750 754 756 784 789 799 799 789 790 799 790 798 798 790 788 798 788 785 768 778 764 764 778 776 764 776 772 768 775 778 778 775 782 778 782 787 759 763 751 751 763 766 751 766 800 800 766 773 800 773 777 795 793 799 792 800 787 787 800 777 787 777 778 793 791 799 799 791 786 799 786 750 750 786 781 750 781 774 792 794 800 800 794 796 800 796 799 799 796 797 799 797 795 774 771 750 750 771 767 750 767 764 772 765 764 764 765 762 764 762 750 750 762 758 750 758 751 751 758 757 751 757 759 520 766 512 512 766 763 512 763 509 509 763 759 509 759 506 506 759 757 506 757 508 508 757 758 508 758 511 511 758 762 511 762 519 519 762 765 519 765 525 525 765 772 525 772 530 530 772 776 530 776 534 534 776 778 534 778 531 531 778 777 531 777 526 526 777 773 526 773 520 520 773 766 612 816 608 608 816 814 608 814 603 603 814 810 603 810 601 601 810 808 601 808 602 602 808 809 602 809 607 607 809 813 607 813 611 611 813 815 611 815 619 619 815 819 619 819 625 625 819 821 625 821 628 628 821 823 628 823 626 626 823 822 626 822 620 620 822 820 620 820 612 612 820 816 722 720 726 726 720 724 726 724 730 730 724 728 730 728 733 733 728 732 733 732 736 736 732 738 736 738 740 740 738 742 740 742 744 742 746 744 744 746 748 744 748 745 745 748 747 745 747 741 741 747 743 741 743 737 737 743 739 737 739 734 734 739 735 734 735 731 731 735 729 731 729 727 727 729 725 727 725 723 723 725 721 723 721 722 722 721 719 722 719 720 735 812 729 729 812 807 729 807 725 725 807 805 725 805 721 721 805 803 721 803 719 719 803 801 719 801 720 720 801 802 720 802 724 724 802 804 724 804 728 728 804 806 728 806 732 732 806 811 732 811 738 738 811 817 738 817 742 742 817 824 742 824 746 746 824 826 746 826 748 748 826 828 748 828 747 747 828 827 747 827 743 743 827 825 743 825 739 739 825 818 739 818 735 735 818 812 715 717 711 711 717 713 711 713 707 707 713 709 707 709 701 701 709 702 701 702 691 691 702 689 691 689 683 683 689 681 683 681 679 678 677 682 682 677 680 682 680 690 690 680 688 690 688 700 700 688 699 700 699 706 706 699 708 706 708 710 710 708 712 710 712 714 714 712 716 714 716 715 715 716 718 715 718 717 681 672 679 679 672 670 679 670 678 678 670 671 678 671 677 702 787 689 689 787 782 689 782 681 681 782 775 681 775 672 672 775 768 672 768 670 670 768 764 670 764 671 671 764 767 671 767 677 677 767 771 677 771 680 680 771 774 680 774 688 688 774 781 688 781 699 699 781 786 699 786 708 708 786 791 708 791 712 712 791 793 712 793 716 716 793 795 716 795 718 718 795 797 718 797 717 717 797 796 717 796 713 713 796 794 713 794 709 709 794 792 709 792 702 702 792 787 692 698 696 696 698 703 696 703 697 660 658 664 664 658 662 664 662 668 668 662 666 668 666 674 674 666 673 674 673 684 684 673 686 684 686 692 692 686 694 692 694 698 703 705 697 697 705 704 697 704 693 693 704 695 693 695 685 685 695 687 685 687 675 675 687 676 675 676 669 669 676 667 669 667 665 665 667 663 665 663 661 661 663 659 661 659 660 660 659 657 660 657 658 676 770 667 667 770 761 667 761 663 663 761 756 663 756 659 659 756 754 659 754 657 657 754 752 657 752 658 658 752 753 658 753 662 662 753 755 662 755 666 666 755 760 666 760 673 673 760 769 673 769 686 686 769 779 686 779 694 694 779 783 694 783 698 698 783 785 698 785 703 703 785 788 703 788 705 705 788 790 705 790 704 704 790 789 704 789 695 695 789 784 695 784 687 687 784 780 687 780 676 676 780 770 444 424 396 396 424 404 396 404 400 407 397 401 401 397 396 650 643 447 447 643 468 447 468 425 425 468 448 425 448 405 405 448 400 400 448 426 400 426 396 396 426 406 396 406 401 987 980 939 939 980 960 939 960 917 917 960 940 917 940 897 897 940 892 469 1031 451 451 1031 397 451 397 427 427 397 407 447 467 898 898 467 642 898 642 918 919 469 644 444 396 466 466 396 1030 466 1030 641 447 898 650 650 898 893 650 893 644 644 893 899 644 899 919 469 919 1031 1031 919 943 1031 943 961 958 936 1030 1030 936 916 1030 916 641 641 916 896 641 896 649 649 896 892 649 892 642 642 892 940 642 940 918 939 959 987 987 959 1031 987 1031 981 981 1031 961 959 979 1031 1031 979 986 1031 986 1030 1030 986 978 1030 978 958 655 398 656 656 398 399 396 397 398 398 397 399 890 1032 888 888 1032 1030 888 1030 653 653 1030 396 653 396 655 655 396 398 1031 1030 1033 1033 1030 1032 656 399 654 654 399 397 654 397 889 889 397 1031 889 1031 891 891 1031 1033 891 1033 890 890 1033 1032 656 654 655 655 654 653 654 889 653 653 889 888 889 891 888 888 891 890 948 962 982 944 962 948 948 983 963 988 983 948 982 988 948 948 921 901 945 921 948 963 945 948 948 900 920 894 900 948 901 894 948 920 944 948 944 936 962 962 936 958 962 958 982 982 958 978 982 978 988 988 978 986 988 986 983 983 986 979 983 979 963 963 979 959 963 959 945 945 959 939 945 939 921 921 939 917 921 917 901 901 917 897 901 897 894 894 897 892 894 892 900 900 892 896 900 896 920 920 896 916 920 916 944 944 916 936 949 964 984 946 964 949 949 985 965 989 985 949 984 989 949 949 923 903 947 923 949 965 947 949 949 902 922 895 902 949 903 895 949 922 946 949 946 940 964 964 940 960 964 960 984 984 960 980 984 980 989 989 980 987 989 987 985 985 987 981 985 981 965 965 981 961 965 961 947 947 961 943 947 943 923 923 943 919 923 919 903 903 919 899 903 899 895 895 899 893 895 893 902 902 893 898 902 898 922 922 898 918 922 918 946 946 918 940 457 472 647 454 472 457 457 648 473 652 648 457 647 652 457 457 431 411 455 431 457 473 455 457 457 410 430 403 410 457 411 403 457 430 454 457 454 448 472 472 448 468 472 468 647 647 468 643 647 643 652 652 643 650 652 650 648 648 650 644 648 644 473 473 644 469 473 469 455 455 469 451 455 451 431 431 451 427 431 427 411 411 427 407 411 407 403 403 407 401 403 401 410 410 401 406 410 406 430 430 406 426 430 426 454 454 426 448 456 470 645 452 470 456 456 646 471 651 646 456 645 651 456 456 429 409 453 429 456 471 453 456 456 408 428 402 408 456 409 402 456 428 452 456 452 444 470 470 444 466 470 466 645 645 466 641 645 641 651 651 641 649 651 649 646 646 649 642 646 642 471 471 642 467 471 467 453 453 467 447 453 447 429 429 447 425 429 425 409 409 425 405 409 405 402 402 405 400 402 400 408 408 400 404 408 404 428 428 404 424 428 424 452 452 424 444 </p>
                </triangles>
            </mesh>
        </geometry>
    </library_geometries>
    <library_visual_scenes>
        <visual_scene id="Scene-1" name="Scene-1">
            <node id="Object-1" name="Object-1">
                <instance_geometry url="#Mesh-1" />
            </node>
        </visual_scene>
    </library_visual_scenes>
    <scene>
        <instance_visual_scene url="#Scene-1" />
    </scene>
</COLLADA>
