<?xml version="1.0" encoding="utf-8"?>
<COLLADA xmlns="http://www.collada.org/2005/11/COLLADASchema" version="1.4.1">
  <asset>
    <contributor>
      <author>Blender User</author>
      <authoring_tool>Blender 2.78.0 commit date:2017-02-24, commit time:14:33, hash:e92f2352830</authoring_tool>
    </contributor>
    <created>2017-07-14T10:06:19</created>
    <modified>2017-07-14T10:06:19</modified>
    <unit name="meter" meter="1"/>
    <up_axis>Z_UP</up_axis>
  </asset>
  <library_images/>
  <library_effects>
    <effect id="Metall_Alu_009_001-effect">
      <profile_COMMON>
        <technique sid="common">
          <phong>
            <emission>
              <color sid="emission">0 0 0 1</color>
            </emission>
            <ambient>
              <color sid="ambient">0 0 0 1</color>
            </ambient>
            <diffuse>
              <color sid="diffuse">0.45 0.45 0.45 1</color>
            </diffuse>
            <specular>
              <color sid="specular">0.325 0.325 0.325 1</color>
            </specular>
            <shininess>
              <float sid="shininess">70</float>
            </shininess>
            <index_of_refraction>
              <float sid="index_of_refraction">1</float>
            </index_of_refraction>
          </phong>
        </technique>
      </profile_COMMON>
    </effect>
    <effect id="Gummi_009_001-effect">
      <profile_COMMON>
        <technique sid="common">
          <phong>
            <emission>
              <color sid="emission">0 0 0 1</color>
            </emission>
            <ambient>
              <color sid="ambient">0 0 0 1</color>
            </ambient>
            <diffuse>
              <color sid="diffuse">0.1 0.1 0.1 1</color>
            </diffuse>
            <specular>
              <color sid="specular">0.025 0.025 0.025 1</color>
            </specular>
            <shininess>
              <float sid="shininess">50</float>
            </shininess>
            <index_of_refraction>
              <float sid="index_of_refraction">1</float>
            </index_of_refraction>
          </phong>
        </technique>
      </profile_COMMON>
    </effect>
  </library_effects>
  <library_materials>
    <material id="Metall_Alu_009_001-material" name="Metall_Alu_009_001">
      <instance_effect url="#Metall_Alu_009_001-effect"/>
    </material>
    <material id="Gummi_009_001-material" name="Gummi_009_001">
      <instance_effect url="#Gummi_009_001-effect"/>
    </material>
  </library_materials>
  <library_geometries>
    <geometry id="Circle_011-mesh" name="Circle.011">
      <mesh>
        <source id="Circle_011-mesh-positions">
          <float_array id="Circle_011-mesh-positions-array" count="1314">0.002739608 1.86001e-5 0.009046614 0.002489566 0.001223027 0.008999943 0.001693844 0.002162218 0.009043872 6.02982e-4 0.004517316 0.007040798 -8.23675e-4 0.004424273 0.007041096 -0.002955019 0.003396272 0.007042646 -0.004129171 0.001784801 0.007044911 -0.00448966 -1.73071e-4 0.007047593 -0.00397104 -0.002079069 0.007050037 -0.002686321 -0.003574788 0.007051944 -8.84623e-4 -0.004374504 0.007052838 0.001085817 -0.004322886 0.00705254 0.002841413 -0.003431439 0.007051229 0.003990769 -0.002053439 0.007049262 0.002764105 1.65574e-5 0.009799957 0.002489328 0.001220285 0.009799957 0.001719474 0.002185642 0.009799957 6.07044e-4 0.002721369 0.009799957 -6.27714e-4 0.002721369 0.009799957 -0.001740157 0.002185642 0.009799957 -0.002510011 0.001220285 0.009799957 -0.002784788 1.65574e-5 0.009799957 -0.002510011 -0.001187205 0.009799957 -0.001740157 -0.002152562 0.009799957 -6.27712e-4 -0.002688288 0.009799957 6.07047e-4 -0.002688288 0.009799957 0.001719474 -0.002152562 0.009799957 0.002489328 -0.001187205 0.009799957 0.004425823 1.65574e-5 0.009799957 0.004425823 0.001930832 0.009799957 0.004421055 0.003456294 0.009799957 0.001098871 0.004888057 0.00979495 -0.001119792 0.004885613 0.009791135 -0.003124594 0.003920912 0.009787917 -0.004513025 0.002182364 0.009791374 -0.005010187 1.44269e-5 0.009797871 -0.004511892 -0.002148628 0.009791851 -0.003124654 -0.003887772 0.009787917 -0.001119971 -0.00485295 0.009790837 0.001098871 -0.004855096 0.009795069 0.004419863 -0.003421425 0.009799957 0.004425823 -0.001897692 0.009799957 0.005347669 1.65669e-5 0.009736835 0.005347609 0.001930832 0.009736716 0.005343914 0.003193259 0.009720027 0.005342721 -0.003178238 0.009712934 0.005347669 -0.001897692 0.009737014 0.01738309 1.71143e-5 0.007623732 0.01738315 0.001514375 0.007623672 0.01738309 0.002717196 0.007623612 0.01738315 -0.002683162 0.00762391 0.01738315 -0.001481592 0.007623851 0.02103096 0.002717971 0.007599949 0.02103495 -0.002683222 0.007599949 0.001326858 0.005885004 0.009206414 -0.001340448 0.005844175 0.009224712 -0.003749251 0.004692494 0.00922513 -0.005384325 0.002602338 0.009226799 -0.005992233 1.81252e-5 0.009230375 -0.005399346 -0.002574563 0.009219527 -0.003738164 -0.004649162 0.009233891 -0.001336336 -0.005808115 0.009234249 0.001324415 -0.005825579 0.009221553 0.001330018 0.005891978 0.007038891 -0.001341342 0.005836784 0.007039368 -0.003741145 0.004685223 0.007041096 -0.005417048 0.002612531 0.007044017 -0.005989968 2.08088e-5 0.007047474 -0.005390286 -0.002572298 0.007050812 -0.003736376 -0.004657506 0.007053434 -0.001343071 -0.00583285 0.007054805 0.001329898 -0.005858361 0.007054567 0.007494688 0.005068421 0.008452653 0.007500648 0.005082309 0.007060229 0.009068548 0.00514394 0.008080661 0.009088277 0.005186259 0.007040083 0.01054453 0.005862176 0.007240116 0.01053041 0.005909502 0.004962861 0.01276415 0.008199453 0.003531277 0.01286292 0.008501946 0.002698481 0.01172333 0.007172226 0.003809094 0.01170223 0.007147669 0.005661725 0.003405809 -0.005612969 0.008942067 0.003432452 -0.005642652 0.00705415 0.004958689 -0.005975604 0.008368015 0.00496912 -0.00601536 0.00511378 0.006903409 -0.007910966 0.006001949 0.006895661 -0.007930994 0.002110421 0.006021976 -0.006714403 0.007532715 0.006140708 -0.006823539 0.002124905 0.01736211 -0.00447458 0.006742537 0.02108401 -0.004482388 0.006729125 0.01735818 -0.006363809 0.004986584 0.02110499 -0.006370425 0.004967391 0.0173695 -0.007598876 0.002738475 0.02103465 -0.00760287 0.002717316 0.01734989 -0.007816016 0.002054989 0.02103489 -0.007974147 0.001185774 0.009802997 -0.007318258 0.005918443 0.01358848 -0.007601857 0.004331111 0.01039755 -0.007947742 0.004851996 0.01389729 -0.00797373 0.003460764 0.004541933 -0.004518926 0.009317159 0.005454719 -0.004485368 0.009153246 0.006812572 -9.09065e-6 0.006999969 0.008219063 -3.5471e-4 0.004988789 0.009445726 -0.001189887 0.001999974 0.01735037 -0.006525754 0.001999974 0.01108747 -0.001831471 0.001999974 0.01795148 -3.02889e-5 0.001999974 0.01759755 0.007714092 0.002538144 0.0175215 0.004498183 0.006750524 0.01743906 0.00543487 0.006020784 0.01736646 0.007524073 0.002992272 0.0173642 0.006737232 0.004524827 0.02109527 0.004686355 0.006621599 0.01862078 0.005427062 0.00602895 0.02105116 -0.005552589 0.001999974 0.02707523 -0.001963078 0.00604999 0.0265907 1.5983e-4 0.00604999 0.02816385 -0.004567503 0.005211353 0.02456384 0.002023041 0.004499971 0.02367669 0.004626452 0.004499971 0.02697187 0.004728555 0.006088554 0.02223497 0.005934655 0.00293231 0.022839 0.002428114 0.002934098 0.0222882 0.005836784 9.73787e-4 0.0236389 0.004665911 0.006621718 0.02708131 0.004709124 0.006646573 0.02196943 0.006413996 0.004978239 0.02161538 0.007297873 0.003520548 0.02169847 0.007896363 0.001907885 0.02282977 0.002324104 0.002139985 0.02384132 1.27235e-4 0.002045035 0.02698516 0.002718925 0.007600069 0.02541857 -0.003761708 0.001999974 0.02701163 -0.002683222 0.007600307 0.03622317 6.22917e-5 0.008499979 0.03576767 0.001962006 0.008494436 0.03454357 0.003474712 0.00846666 0.03279304 0.004274129 0.008453607 0.03085124 0.004256665 0.008420169 0.02998048 0.005260348 0.007671952 0.03267353 0.005481302 0.007745921 0.03516882 0.004463315 0.007758498 0.03687244 0.002501428 0.007745921 0.03745162 6.81835e-5 0.007767617 0.03085219 -0.004173874 0.008437871 0.03278911 -0.004185259 0.008463978 0.03455334 -0.003360509 0.008493065 0.03578388 -0.001846849 0.008499979 0.02996391 -0.00529319 0.007567703 0.03267949 -0.005296766 0.007741093 0.03518003 -0.004328012 0.007791638 0.0368663 -0.002342998 0.007766187 0.02707672 -0.004495024 0.006748557 0.02709275 -0.006396412 0.004987001 0.02701073 -0.007596909 0.00271511 0.02701097 -0.007971584 0.001185774 0.0283153 0.004941105 0.007235467 0.02821642 0.003917813 0.007794678 0.02997493 0.005259394 0.006108045 0.03267014 0.005463957 0.006180047 0.03519034 0.004492998 0.006187319 0.03687554 0.002503037 0.006183028 0.03748571 7.2086e-5 0.006186246 0.03183013 -0.006063163 0.00609833 0.03267949 -0.005292057 0.00604999 0.03524076 -0.004397571 0.006204485 0.03691297 -0.002368211 0.006189465 0.02821159 0.004947662 0.006088137 0.02809202 -0.004063665 0.007612466 0.02814972 -0.005792081 0.006433546 0.03099238 -0.006411731 0.004998505 0.03097558 -0.007584631 0.002710402 0.03099304 -0.007950186 0.001185774 0.03184914 -0.005615353 0.006025314 0.03109943 -0.005957603 0.005485534 0.03097689 -0.007287085 0.002779543 0.03099286 -0.007535755 0.001185774 0.02888226 0.001609981 0.004592597 0.02855598 1.12804e-4 0.00454998 0.02889645 -0.001378715 0.00454998 0.02985036 -0.002574861 0.00454998 0.03122878 -0.003238677 0.00454998 0.03275877 -0.003238677 0.00454998 0.03413718 -0.002574861 0.00454998 0.0350911 -0.001378715 0.00454998 0.03543156 1.12808e-4 0.00454998 0.02986729 0.002779722 0.004590928 0.03123629 0.003422498 0.004589915 0.03275012 0.003438889 0.004589736 0.03412508 0.002782046 0.004590511 0.03508549 0.001601397 0.004592001 0.02885246 0.001621723 0.00604999 0.0284751 1.22854e-4 0.00604999 0.02882045 -0.001418828 0.00604999 0.02978497 -0.002674698 0.00604999 0.03118622 -0.003364086 0.00604999 0.03277969 -0.003355503 0.00604999 0.03419762 -0.002649128 0.00604999 0.03515434 -0.001404166 0.00604999 0.03548747 1.14126e-4 0.00604999 0.0298447 0.002807199 0.00604999 0.03122878 0.003464162 0.00604999 0.03275877 0.003464162 0.00604999 0.03413718 0.002800345 0.00604999 0.0350911 0.001604199 0.00604999 0.02709722 0.002282679 0.00604999 0.02714872 -0.005819797 0.002052664 0.002739608 1.86001e-5 -0.009046614 0.002489566 0.001223027 -0.008999943 0.001693844 0.002162218 -0.009043872 6.02982e-4 0.004517316 -0.007040798 -8.23675e-4 0.004424273 -0.007041096 -0.002955019 0.003396272 -0.007042646 -0.004129171 0.001784801 -0.007044911 -0.00448966 -1.73071e-4 -0.007047593 -0.00397104 -0.002079069 -0.007050037 -0.002686321 -0.003574788 -0.007051944 -8.84623e-4 -0.004374504 -0.007052838 0.001085817 -0.004322886 -0.00705254 0.002841413 -0.003431439 -0.007051229 0.003990769 -0.002053439 -0.007049262 0.002764105 1.65574e-5 -0.009799957 0.002489328 0.001220285 -0.009799957 0.001719474 0.002185642 -0.009799957 6.07044e-4 0.002721369 -0.009799957 -6.27714e-4 0.002721369 -0.009799957 -0.001740157 0.002185642 -0.009799957 -0.002510011 0.001220285 -0.009799957 -0.002784788 1.65574e-5 -0.009799957 -0.002510011 -0.001187205 -0.009799957 -0.001740157 -0.002152562 -0.009799957 -6.27712e-4 -0.002688288 -0.009799957 6.07047e-4 -0.002688288 -0.009799957 0.001719474 -0.002152562 -0.009799957 0.002489328 -0.001187205 -0.009799957 0.004425823 1.65574e-5 -0.009799957 0.004425823 0.001930832 -0.009799957 0.004421055 0.003456294 -0.009799957 0.001098871 0.004888057 -0.00979495 -0.001119792 0.004885613 -0.009791135 -0.003124594 0.003920912 -0.009787917 -0.004513025 0.002182364 -0.009791374 -0.005010187 1.44269e-5 -0.009797871 -0.004511892 -0.002148628 -0.009791851 -0.003124654 -0.003887772 -0.009787917 -0.001119971 -0.00485295 -0.009790837 0.001098871 -0.004855096 -0.009795069 0.004419863 -0.003421425 -0.009799957 0.004425823 -0.001897692 -0.009799957 0.005347669 1.65669e-5 -0.009736835 0.005347609 0.001930832 -0.009736716 0.005343914 0.003193259 -0.009720027 0.005342721 -0.003178238 -0.009712934 0.005347669 -0.001897692 -0.009737014 0.01738309 1.71143e-5 -0.007623732 0.01738315 0.001514375 -0.007623672 0.01738309 0.002717196 -0.007623612 0.01738315 -0.002683162 -0.00762391 0.01738315 -0.001481592 -0.007623851 0.02103096 0.002717971 -0.007599949 0.02103495 -0.002683222 -0.007599949 0.001326858 0.005885004 -0.009206414 -0.001340448 0.005844175 -0.009224712 -0.003749251 0.004692494 -0.00922513 -0.005384325 0.002602338 -0.009226799 -0.005992233 1.81252e-5 -0.009230375 -0.005399346 -0.002574563 -0.009219527 -0.003738164 -0.004649162 -0.009233891 -0.001336336 -0.005808115 -0.009234249 0.001324415 -0.005825579 -0.009221553 0.001330018 0.005891978 -0.007038891 -0.001341342 0.005836784 -0.007039368 -0.003741145 0.004685223 -0.007041096 -0.005417048 0.002612531 -0.007044017 -0.005989968 2.08088e-5 -0.007047474 -0.005390286 -0.002572298 -0.007050812 -0.003736376 -0.004657506 -0.007053434 -0.001343071 -0.00583285 -0.007054805 0.001329898 -0.005858361 -0.007054567 0.007494688 0.005068421 -0.008452653 0.007500648 0.005082309 -0.007060229 0.009068548 0.00514394 -0.008080661 0.009088277 0.005186259 -0.007040083 0.01054453 0.005862176 -0.007240116 0.01053041 0.005909502 -0.004962861 0.01276415 0.008199453 -0.003531277 0.01286292 0.008501946 -0.002698481 0.01172333 0.007172226 -0.003809094 0.01170223 0.007147669 -0.005661725 0.003405809 -0.005612969 -0.008942067 0.003432452 -0.005642652 -0.00705415 0.004958689 -0.005975604 -0.008368015 0.00496912 -0.00601536 -0.00511378 0.006903409 -0.007910966 -0.006001949 0.006895661 -0.007930994 -0.002110421 0.006021976 -0.006714403 -0.007532715 0.006140708 -0.006823539 -0.002124905 0.01736211 -0.00447458 -0.006742537 0.02108401 -0.004482388 -0.006729125 0.01735818 -0.006363809 -0.004986584 0.02110499 -0.006370425 -0.004967391 0.0173695 -0.007598876 -0.002738475 0.02103465 -0.00760287 -0.002717316 0.01734989 -0.007816016 -0.002054989 0.02103489 -0.007974147 -0.001185774 0.01849955 -0.0079571 0 0.02103471 -0.007956802 0 0.009802997 -0.007318258 -0.005918443 0.01358848 -0.007601857 -0.004331111 0.01039755 -0.007947742 -0.004851996 0.01389729 -0.00797373 -0.003460764 0.004541933 -0.004518926 -0.009317159 0.005454719 -0.004485368 -0.009153246 0.006812572 -9.09065e-6 -0.006999969 0.008219063 -3.5471e-4 -0.004988789 0.009445726 -0.001189887 -0.001999974 0.01735037 -0.006525754 -0.001999974 0.01849997 -0.006668329 0 0.009446918 -9.79324e-4 0 0.01108747 -0.001831471 -0.001999974 0.01107537 -9.7862e-4 0 0.01795148 -3.02889e-5 -0.001999974 0.01767146 1.9095e-4 0 0.01300603 0.008895814 0 0.01759755 0.007714092 -0.002538144 0.01761114 0.008123934 0 0.0175215 0.004498183 -0.006750524 0.01743906 0.00543487 -0.006020784 0.01736646 0.007524073 -0.002992272 0.0173642 0.006737232 -0.004524827 0.02109527 0.004686355 -0.006621599 0.01862078 0.005427062 -0.00602895 0.02558231 -0.004047572 0 0.02105116 -0.005552589 -0.001999974 0.02120506 -0.006041467 0 0.02707523 -0.001963078 -0.00604999 0.0265907 1.5983e-4 -0.00604999 0.02816385 -0.004567503 -0.005211353 0.02713692 -0.006040275 0 0.02456384 0.002023041 -0.004499971 0.02227073 0.005870997 0 0.02367669 0.004626452 -0.004499971 0.02697187 0.004728555 -0.006088554 0.02223497 0.005934655 -0.00293231 0.022839 0.002428114 -0.002934098 0.0222882 0.005836784 -9.73787e-4 0.0236389 0.004665911 -0.006621718 0.02708131 0.004709124 -0.006646573 0.02196943 0.006413996 -0.004978239 0.02161538 0.007297873 -0.003520548 0.02167749 0.008099615 0 0.02169847 0.007896363 -0.001907885 0.02283883 0.002376973 0 0.02282977 0.002324104 -0.002139985 0.02284181 0.001751959 0 0.02384132 1.27235e-4 -0.002045035 0.02698516 0.002718925 -0.007600069 0.02541857 -0.003761708 -0.001999974 0.02701163 -0.002683222 -0.007600307 0.03622317 6.22917e-5 -0.008499979 0.03576767 0.001962006 -0.008494436 0.03454357 0.003474712 -0.00846666 0.03279304 0.004274129 -0.008453607 0.03085124 0.004256665 -0.008420169 0.02998048 0.005260348 -0.007671952 0.03267353 0.005481302 -0.007745921 0.03516882 0.004463315 -0.007758498 0.03687244 0.002501428 -0.007745921 0.03745162 6.81835e-5 -0.007767617 0.03085219 -0.004173874 -0.008437871 0.03278911 -0.004185259 -0.008463978 0.03455334 -0.003360509 -0.008493065 0.03578388 -0.001846849 -0.008499979 0.02996391 -0.00529319 -0.007567703 0.03267949 -0.005296766 -0.007741093 0.03518003 -0.004328012 -0.007791638 0.0368663 -0.002342998 -0.007766187 0.02707672 -0.004495024 -0.006748557 0.02709275 -0.006396412 -0.004987001 0.02701073 -0.007596909 -0.00271511 0.02701097 -0.007971584 -0.001185774 0.02701097 -0.007956802 0 0.0283153 0.004941105 -0.007235467 0.02821642 0.003917813 -0.007794678 0.02997493 0.005259394 -0.006108045 0.03267014 0.005463957 -0.006180047 0.03519034 0.004492998 -0.006187319 0.03687554 0.002503037 -0.006183028 0.03748571 7.2086e-5 -0.006186246 0.03183013 -0.006063163 -0.00609833 0.03267949 -0.005292057 -0.00604999 0.03524076 -0.004397571 -0.006204485 0.03691297 -0.002368211 -0.006189465 0.02821159 0.004947662 -0.006088137 0.02809202 -0.004063665 -0.007612466 0.02814972 -0.005792081 -0.006433546 0.03099238 -0.006411731 -0.004998505 0.03097558 -0.007584631 -0.002710402 0.03099304 -0.007950186 -0.001185774 0.03097575 -0.007951796 0 0.03184914 -0.005615353 -0.006025314 0.03109943 -0.005957603 -0.005485534 0.03097689 -0.007287085 -0.002779543 0.03099286 -0.007535755 -0.001185774 0.03097528 -0.007537364 0 0.02888226 0.001609981 -0.004592597 0.02855598 1.12804e-4 -0.00454998 0.02889645 -0.001378715 -0.00454998 0.02985036 -0.002574861 -0.00454998 0.03122878 -0.003238677 -0.00454998 0.03275877 -0.003238677 -0.00454998 0.03413718 -0.002574861 -0.00454998 0.0350911 -0.001378715 -0.00454998 0.03543156 1.12808e-4 -0.00454998 0.02986729 0.002779722 -0.004590928 0.03123629 0.003422498 -0.004589915 0.03275012 0.003438889 -0.004589736 0.03412508 0.002782046 -0.004590511 0.03508549 0.001601397 -0.004592001 0.02885246 0.001621723 -0.00604999 0.0284751 1.22854e-4 -0.00604999 0.02882045 -0.001418828 -0.00604999 0.02978497 -0.002674698 -0.00604999 0.03118622 -0.003364086 -0.00604999 0.03277969 -0.003355503 -0.00604999 0.03419762 -0.002649128 -0.00604999 0.03515434 -0.001404166 -0.00604999 0.03548747 1.14126e-4 -0.00604999 0.0298447 0.002807199 -0.00604999 0.03122878 0.003464162 -0.00604999 0.03275877 0.003464162 -0.00604999 0.03413718 0.002800345 -0.00604999 0.0350911 0.001604199 -0.00604999 0.02709722 0.002282679 -0.00604999 0.02714872 -0.005819797 -0.002052664</float_array>
          <technique_common>
            <accessor source="#Circle_011-mesh-positions-array" count="438" stride="3">
              <param name="X" type="float"/>
              <param name="Y" type="float"/>
              <param name="Z" type="float"/>
            </accessor>
          </technique_common>
        </source>
        <source id="Circle_011-mesh-normals">
          <float_array id="Circle_011-mesh-normals-array" count="1314">-0.3683656 0.0995838 -0.9243322 -0.7577284 0.3589962 0.5449492 -0.6974112 -0.1184732 0.706811 -0.2716215 0.3390997 -0.9006849 -0.5170224 0.6587526 0.5465647 -0.1055048 0.415488 -0.9034592 -0.1855847 0.8138443 0.5506503 0.08353161 0.4199166 -0.9037104 0.1858013 0.8130029 0.551819 0.2559962 0.3429458 -0.9037998 0.5205959 0.6508211 0.552641 0.3783425 0.1993798 -0.9039385 0.7520551 0.3598218 0.5522151 0.4269318 0.01675498 -0.9041286 0.8341005 -0.001281797 0.5516111 0.3926007 -0.16984 -0.9038911 0.7504752 -0.3617479 0.5531054 0.2734831 -0.324786 -0.9053845 0.5181871 -0.6514953 0.5541083 0.1042226 -0.4238793 -0.8997022 0.1927897 -0.8123902 0.550322 0.1140799 -0.4079166 -0.9058641 -0.1952303 -0.8130884 0.5484272 -0.8273433 -0.5534034 -0.09616577 -0.5176059 -0.4711556 0.7142106 -0.92976 -0.3679976 -0.01113939 -0.5854233 -0.2816331 0.7602385 -0.9289657 -0.364457 -0.06476116 0.03415113 -3.05193e-5 0.9994167 0.1025136 -0.1859833 0.9771906 0.04657256 -0.2816023 0.9584003 -0.0654937 -0.2835823 0.9567089 -0.1823501 -0.2272433 0.9566133 -0.265303 -0.1305915 0.9552801 -0.293717 -2.44154e-4 0.9558925 -0.2659409 0.1293692 0.9552691 -0.180794 0.2275794 0.9568288 -0.06598156 0.2857472 0.9560309 0.04803699 0.2815994 0.958329 0.1052001 0.2008172 0.9739638 0.03427302 3.05192e-5 0.9994125 0.03418159 0 0.9994158 0.1207624 6.10374e-5 0.9926815 0.12354 -0.006561517 0.992318 0.1228388 0.004669368 0.9924157 0.09000188 3.05195e-5 0.9959416 0.1591592 -0.1883664 0.9691164 0.0895726 -2.74669e-4 0.9959803 0.1581505 0.1946515 0.9680389 0.0896964 2.44155e-4 0.9959692 0.0802347 -0.8529785 0.5157424 -0.5505014 -0.6853037 0.4767675 -0.7956042 -0.3847551 0.4679504 -0.8814929 -7.93505e-4 0.4721968 -0.5493158 0.6890329 0.472743 0.08554601 0.8582375 0.5060735 -0.1976395 -0.854373 0.4806096 0.03412079 -0.7238919 -0.6890692 -0.172708 -0.7345357 -0.6562235 -0.6751501 -0.326527 -0.6614775 -0.7919374 0.380755 0.4773476 -0.6805863 0.3260711 -0.6561097 -0.2006614 0.8578848 0.4730421 -0.1734091 0.7271771 -0.6641858 0.04504638 0.6898569 -0.722543 0.01754856 0.6905596 -0.7230626 0.1475926 0.8073647 0.5712957 -0.4952628 0.8030472 -0.3314061 0.02038681 0.8028087 0.5958882 -0.7906888 0.5383569 -0.2915184 -0.8091634 0.5390353 -0.2338709 -0.307943 0.8620878 0.4024623 -0.2377147 0.9080402 0.3448984 -0.1557384 0.8443689 0.5126274 -0.2839202 -0.7224813 -0.6304048 0.09299206 -0.8257589 0.5563046 -0.8706676 -0.326012 -0.3683124 -0.1959327 -0.8293874 0.5231892 -0.7179678 -0.1444786 -0.6809173 -0.3723958 -0.6980667 -0.6115752 -0.04855608 -0.8382105 0.5431811 -0.4646842 0.5869438 -0.6629974 -0.7503538 -0.004211664 -0.6610231 -0.4711511 -0.5857803 -0.6594529 0.002411007 -0.2230039 0.9748146 0.09149551 -0.2254428 0.9699506 -7.32461e-4 -0.5656735 0.824629 0.08249419 -0.5689446 0.8182279 -0.001922667 -0.7896087 0.6136077 0.09100788 -0.7800372 0.6190797 0.08359259 -0.9224184 0.3770366 -2.13635e-4 -0.9329147 0.3600975 -0.01226878 -0.994507 0.1039493 -0.2586517 -0.9142384 -0.3118775 -0.01544237 -0.9998808 0 0.1068776 -0.974045 0.1995333 0.1575103 -0.8622937 0.4812902 -0.3022601 -0.8968616 0.3229214 0.1066631 -0.9416878 0.319135 0.1514956 -0.7631853 0.6281698 0.1896467 -0.4452762 0.875079 0.170907 -0.4268098 0.8880452 -0.7787622 0.3627834 -0.5117789 -0.4466853 0.2219387 -0.8667269 -0.435908 0.8910433 0.1265943 -0.8151623 0.02996963 -0.578457 -0.5328983 -0.8461794 0 -0.2801337 0.1627882 -0.9460577 -0.8896092 -0.4567224 0 0.1243352 -0.9922404 0 0.004547297 -0.5028598 -0.8643561 0.1346801 -0.9908891 0 0.07049888 -0.6755993 -0.7338907 -0.4676171 0.8839312 0 0.08511847 0.8283869 0.5536516 0.08392918 0.6896232 0.7192884 0.09494411 0.2220246 0.9704076 0.08435434 0.5270314 0.8456491 -0.001342833 0.6850585 0.7284869 0.8855094 -0.4646216 0 0.6321686 0.07510697 -0.7711822 0.002929747 0.2288597 0.973455 0.01049864 0.5679656 0.8229855 -0.1997491 0.5961039 -0.7776635 -0.3177289 0.9481817 0 0.7403254 0.3166327 -0.5930112 0.6947386 0.5986642 -0.398672 0.4354439 0.1155446 -0.8927699 0.4278153 0.2782722 -0.8599644 0.9230716 0.3633263 -0.1262257 0.4669427 0.6478295 -0.6018983 0.283919 0.9588484 0 0.5202224 0.7893366 0.3260622 0.4174121 0.8101646 0.4115829 0.9158461 0.3912847 -0.09012269 0.5923436 0.7829959 0.1898588 0.9752342 0.220988 0.009094655 0.9802932 0.1975479 0 0.9771806 0.2124106 0 0.7694127 0.5379877 -0.344345 0.1197279 0.7796508 0.6146624 -0.2195274 0.8418524 0.493044 0.002899289 -0.9935409 0.1134385 -0.06363302 -0.8296403 0.5546602 -0.2506853 -0.5443114 0.8005512 0.0506311 0.7650828 -0.6419384 -0.1274163 0.7066033 -0.6960437 -0.02377396 0.01001006 -0.9996673 -0.3296393 -0.325336 0.8862813 -0.3544769 0.2797057 0.8922504 -0.1213451 0.1679481 0.978299 -0.6254892 0.008118033 -0.7801906 -0.5695187 0.2890473 -0.7694804 0.2702773 -0.1369698 0.9529898 0.7865403 -0.3971461 0.4728947 0.8807505 0.003875911 0.4735648 0.1764944 -0.2495276 0.952148 0.5012544 -0.7185237 0.4821491 0.06583052 -0.3281762 0.9423199 0.141974 -0.8764728 0.4600421 -0.1349877 -0.2953677 0.9457992 -0.1929113 -0.6622037 0.724066 0.05838221 0.3054615 0.950413 0.1195428 0.8756503 0.4679169 -0.2045685 0.8251104 0.5266351 0.1800312 0.2479969 0.9518857 0.5141168 0.7160891 0.4721232 0.2619728 0.1405998 0.9547785 0.7898099 0.405724 0.4599874 0.2984182 0.002685666 0.9544315 -0.3299138 0.8000944 0.501005 -0.1178947 0.2856267 0.9510617 0.6973391 -0.3535374 -0.6234819 0.6875028 0.3531055 -0.6345522 0.4562082 0.6329477 -0.6255009 -0.0841425 0.7242911 -0.6843409 0.2473568 -0.6950101 -0.6751117 -0.2582584 -0.7548457 0.6029183 -0.06537187 -0.1572038 0.9854001 0.002288937 -0.9999974 0 0.6859211 -0.72288 0.08340919 0.001281797 -0.9352694 0.3539344 0.5447618 -0.7963289 0.262859 0.6321418 -0.7674635 0.1067557 0.3416656 0.002990901 -0.9398169 0.7043241 -0.7098786 0 0.8450629 0.5323988 -0.04919612 0.6775615 -0.6886096 0.2583163 0.8613428 0.4831491 -0.1570212 -0.6571988 -0.3104711 -0.6868024 -0.5677847 -0.1775929 -0.8037919 -0.1640701 0.7242161 -0.6697702 -0.138588 0.6366626 -0.7585871 0.1545493 0.6512494 -0.7429596 -0.1595253 -0.7017042 -0.6943795 -0.06073236 -0.5413118 -0.8386258 -0.4518108 -0.5620167 -0.6928234 -0.6846662 0.3452324 -0.6419088 -0.4529419 0.5904939 -0.6679527 0.4551953 -0.5666518 -0.6868063 0.4253813 -0.4994521 -0.7547175 0.1433793 -0.6013811 -0.7859919 0.6626945 -0.3136156 -0.6800599 0.6021792 -0.281664 -0.7470245 0.7382521 0.01089519 -0.6744371 0.6605633 0.01306229 -0.7506568 0.4619128 0.5919564 -0.6604727 0.4191251 0.5285683 -0.7382072 0.6891602 0.3437408 -0.6378875 -0.7273075 0.005554497 -0.6862894 0.1621168 -0.7039813 -0.6914685 -0.3970617 0.5130367 -0.7610095 0.1612924 0.7278456 -0.6665025 0.6080065 0.3010734 -0.7346312 -0.2789183 -0.383051 -0.8806114 0.1198798 0.7594116 -0.6394708 0.7789383 0.005615472 -0.6270754 0.4710686 -0.6505844 -0.5956798 0.3634225 0.5671686 -0.7390832 0.4786978 0.523775 -0.7046334 0.5920841 0.7590579 -0.2706801 0.5878015 0.8090053 0 0.8237952 0.5668875 0 -0.3683656 0.0995838 0.9243322 -0.9289657 -0.364457 0.06476116 -0.6974112 -0.1184732 -0.706811 -0.2716215 0.3390997 0.9006849 -0.5170224 0.6587526 -0.5465647 -0.1055048 0.415488 0.9034592 -0.1855847 0.8138443 -0.5506503 0.08353161 0.4199166 0.9037104 0.1858013 0.8130029 -0.551819 0.2559962 0.3429458 0.9037998 0.5205959 0.6508211 -0.552641 0.3783425 0.1993798 0.9039385 0.7520551 0.3598218 -0.5522151 0.4269318 0.01675498 0.9041286 0.8341005 -0.001281797 -0.5516111 0.3926007 -0.16984 0.9038911 0.7504752 -0.3617479 -0.5531054 0.2734831 -0.324786 0.9053845 0.5181871 -0.6514953 -0.5541083 0.1042226 -0.4238793 0.8997022 0.1927897 -0.8123902 -0.550322 0.1140799 -0.4079166 0.9058641 -0.1952303 -0.8130884 -0.5484272 -0.8273433 -0.5534034 0.09616577 -0.5176059 -0.4711556 -0.7142106 -0.92976 -0.3679976 0.01113939 -0.7577284 0.3589962 -0.5449492 0.03415113 -3.05193e-5 -0.9994167 0.1025136 -0.1859833 -0.9771906 0.04657256 -0.2816023 -0.9584003 -0.0654937 -0.2835823 -0.9567089 -0.265303 -0.1305915 -0.9552801 -0.293717 -2.44154e-4 -0.9558925 -0.2659409 0.1293692 -0.9552691 -0.06598156 0.2857472 -0.9560309 0.04803699 0.2815994 -0.958329 0.1052001 0.2008172 -0.9739638 -0.5854233 -0.2816331 -0.7602385 0.03427302 3.05192e-5 -0.9994125 0.03418159 0 -0.9994158 0.1207624 6.10374e-5 -0.9926815 0.12354 -0.006561517 -0.992318 0.1581505 0.1946515 -0.9680389 0.1228388 0.004669368 -0.9924157 0.09000188 3.05195e-5 -0.9959416 0.0895726 -2.74669e-4 -0.9959803 0.1591592 -0.1883664 -0.9691164 0.09494411 0.2220246 -0.9704076 0.0896964 2.44155e-4 -0.9959692 0.0802347 -0.8529785 -0.5157424 -0.1976395 -0.854373 -0.4806096 -0.5505014 -0.6853037 -0.4767675 -0.1823501 -0.2272433 -0.9566133 -0.7956042 -0.3847551 -0.4679504 -0.8814929 -7.93505e-4 -0.4721968 -0.7919374 0.380755 -0.4773476 -0.5493158 0.6890329 -0.472743 -0.180794 0.2275794 -0.9568288 -0.2006614 0.8578848 -0.4730421 0.08554601 0.8582375 -0.5060735 0.03412079 -0.7238919 0.6890692 -0.172708 -0.7345357 0.6562235 -0.4711511 -0.5857803 0.6594529 -0.6751501 -0.326527 0.6614775 -0.7503538 -0.004211664 0.6610231 -0.6805863 0.3260711 0.6561097 -0.4646842 0.5869438 0.6629974 -0.1734091 0.7271771 0.6641858 0.04504638 0.6898569 0.722543 0.01754856 0.6905596 0.7230626 -0.4952628 0.8030472 0.3314061 0.1475926 0.8073647 -0.5712957 -0.7906888 0.5383569 0.2915184 0.02038681 0.8028087 -0.5958882 -0.8091634 0.5390353 0.2338709 -0.435908 0.8910433 -0.1265943 -0.2377147 0.9080402 -0.3448984 -0.1557384 0.8443689 -0.5126274 0.09299206 -0.8257589 -0.5563046 -0.2839202 -0.7224813 0.6304048 -0.04855608 -0.8382105 -0.5431811 -0.8706676 -0.326012 0.3683124 -0.1959327 -0.8293874 -0.5231892 -0.3022601 -0.8968616 -0.3229214 -0.3723958 -0.6980667 0.6115752 -0.7179678 -0.1444786 0.6809173 0.002411007 -0.2230039 -0.9748146 -7.32461e-4 -0.5656735 -0.824629 0.09149551 -0.2254428 -0.9699506 -0.001922667 -0.7896087 -0.6136077 0.08249419 -0.5689446 -0.8182279 -2.13635e-4 -0.9329147 -0.3600975 0.08359259 -0.9224184 -0.3770366 -0.01226878 -0.994507 -0.1039493 -0.2586517 -0.9142384 0.3118775 0.1068776 -0.974045 -0.1995333 0.1575103 -0.8622937 -0.4812902 0.1066631 -0.9416878 -0.319135 0.1514956 -0.7631853 -0.6281698 0.1896467 -0.4452762 -0.875079 0.170907 -0.4268098 -0.8880452 0.09100788 -0.7800372 -0.6190797 -0.8151623 0.02996963 0.578457 -0.7787622 0.3627834 0.5117789 -0.4466853 0.2219387 0.8667269 -0.6888714 0.7248836 0 -0.2801337 0.1627882 0.9460577 0.004547297 -0.5028598 0.8643561 0.07049888 -0.6755993 0.7338907 -0.307943 0.8620878 -0.4024623 0.08511847 0.8283869 -0.5536516 0.08392918 0.6896232 -0.7192884 0.08435434 0.5270314 -0.8456491 -0.001342833 0.6850585 -0.7284869 0.6321686 0.07510697 0.7711822 0.002929747 0.2288597 -0.973455 0.01049864 0.5679656 -0.8229855 -0.1997491 0.5961039 0.7776635 0.7403254 0.3166327 0.5930112 0.4354439 0.1155446 0.8927699 0.6947386 0.5986642 0.398672 0.4278153 0.2782722 0.8599644 0.9230716 0.3633263 0.1262257 0.4669427 0.6478295 0.6018983 0.5202224 0.7893366 -0.3260622 0.9752342 0.220988 -0.009094655 0.9158461 0.3912847 0.09012269 0.5923436 0.7829959 -0.1898588 0.5813075 0.813684 0 0.7694127 0.5379877 0.344345 0.1197279 0.7796508 -0.6146624 -0.2195274 0.8418524 -0.493044 0.4174121 0.8101646 -0.4115829 0.002899289 -0.9935409 -0.1134385 0.001281797 -0.9352694 -0.3539344 -0.2506853 -0.5443114 -0.8005512 -0.06363302 -0.8296403 -0.5546602 -0.06537187 -0.1572038 -0.9854001 0.0506311 0.7650828 0.6419384 -0.02377396 0.01001006 0.9996673 -0.1274163 0.7066033 0.6960437 -0.3296393 -0.325336 -0.8862813 -0.1213451 0.1679481 -0.978299 -0.6254892 0.008118033 0.7801906 -0.5695187 0.2890473 0.7694804 0.2702773 -0.1369698 -0.9529898 0.2984182 0.002685666 -0.9544315 0.8807505 0.003875911 -0.4735648 0.1764944 -0.2495276 -0.952148 0.5012544 -0.7185237 -0.4821491 0.06583052 -0.3281762 -0.9423199 0.141974 -0.8764728 -0.4600421 -0.1349877 -0.2953677 -0.9457992 -0.1929113 -0.6622037 -0.724066 0.05838221 0.3054615 -0.950413 -0.1178947 0.2856267 -0.9510617 -0.2045685 0.8251104 -0.5266351 0.1800312 0.2479969 -0.9518857 0.1195428 0.8756503 -0.4679169 0.2619728 0.1405998 -0.9547785 0.5141168 0.7160891 -0.4721232 -0.3299138 0.8000944 -0.501005 0.7789383 0.005615472 0.6270754 0.6973391 -0.3535374 0.6234819 0.7865403 -0.3971461 -0.4728947 0.7898099 0.405724 -0.4599874 0.6875028 0.3531055 0.6345522 0.4562082 0.6329477 0.6255009 0.1198798 0.7594116 0.6394708 -0.0841425 0.7242911 0.6843409 0.2473568 -0.6950101 0.6751117 0.4710686 -0.6505844 0.5956798 -0.2582584 -0.7548457 -0.6029183 -0.3544769 0.2797057 -0.8922504 0.6859211 -0.72288 -0.08340919 0.6775615 -0.6886096 -0.2583163 0.5447618 -0.7963289 -0.262859 0.6321418 -0.7674635 -0.1067557 0.3416656 0.002990901 0.9398169 0.8450629 0.5323988 0.04919612 0.8613428 0.4831491 0.1570212 0.3634225 0.5671686 0.7390832 -0.6571988 -0.3104711 0.6868024 -0.7273075 0.005554497 0.6862894 -0.1640701 0.7242161 0.6697702 0.1612924 0.7278456 0.6665025 0.1545493 0.6512494 0.7429596 -0.1595253 -0.7017042 0.6943795 -0.4518108 -0.5620167 0.6928234 -0.06073236 -0.5413118 0.8386258 -0.6846662 0.3452324 0.6419088 -0.4529419 0.5904939 0.6679527 0.4551953 -0.5666518 0.6868063 0.1621168 -0.7039813 0.6914685 0.1433793 -0.6013811 0.7859919 0.6626945 -0.3136156 0.6800599 0.4253813 -0.4994521 0.7547175 0.7382521 0.01089519 0.6744371 0.6605633 0.01306229 0.7506568 0.4619128 0.5919564 0.6604727 0.6891602 0.3437408 0.6378875 0.4191251 0.5285683 0.7382072 -0.138588 0.6366626 0.7585871 0.6080065 0.3010734 0.7346312 -0.2789183 -0.383051 0.8806114 0.6021792 -0.281664 0.7470245 -0.3970617 0.5130367 0.7610095 -0.5677847 -0.1775929 0.8037919 0.4786978 0.523775 0.7046334 0.5920841 0.7590579 0.2706801 0.08191359 0.9529017 0.2920079 0.08777266 0.9961405 0 0.1041927 0.8875911 0.4486939 0.1041927 0.8875911 -0.4486939 0.08191359 0.9529017 -0.2920079</float_array>
          <technique_common>
            <accessor source="#Circle_011-mesh-normals-array" count="438" stride="3">
              <param name="X" type="float"/>
              <param name="Y" type="float"/>
              <param name="Z" type="float"/>
            </accessor>
          </technique_common>
        </source>
        <vertices id="Circle_011-mesh-vertices">
          <input semantic="POSITION" source="#Circle_011-mesh-positions"/>
        </vertices>
        <polylist material="Metall_Alu_009_001-material" count="860">
          <input semantic="VERTEX" source="#Circle_011-mesh-vertices" offset="0"/>
          <input semantic="NORMAL" source="#Circle_011-mesh-normals" offset="1"/>
          <vcount>3 3 3 3 3 3 3 3 3 3 3 3 3 3 3 3 3 3 3 3 3 3 3 3 3 3 3 3 3 3 3 3 3 3 3 3 3 3 3 3 3 3 3 3 3 3 3 3 3 3 3 3 3 3 3 3 3 3 3 3 3 3 3 3 3 3 3 3 3 3 3 3 3 3 3 3 3 3 3 3 3 3 3 3 3 3 3 3 3 3 3 3 3 3 3 3 3 3 3 3 3 3 3 3 3 3 3 3 3 3 3 3 3 3 3 3 3 3 3 3 3 3 3 3 3 3 3 3 3 3 3 3 3 3 3 3 3 3 3 3 3 3 3 3 3 3 3 3 3 3 3 3 3 3 3 3 3 3 3 3 3 3 3 3 3 3 3 3 3 3 3 3 3 3 3 3 3 3 3 3 3 3 3 3 3 3 3 3 3 3 3 3 3 3 3 3 3 3 3 3 3 3 3 3 3 3 3 3 3 3 3 3 3 3 3 3 3 3 3 3 3 3 3 3 3 3 3 3 3 3 3 3 3 3 3 3 3 3 3 3 3 3 3 3 3 3 3 3 3 3 3 3 3 3 3 3 3 3 3 3 3 3 3 3 3 3 3 3 3 3 3 3 3 3 3 3 3 3 3 3 3 3 3 3 3 3 3 3 3 3 3 3 3 3 3 3 3 3 3 3 3 3 3 3 3 3 3 3 3 3 3 3 3 3 3 3 3 3 3 3 3 3 3 3 3 3 3 3 3 3 3 3 3 3 3 3 3 3 3 3 3 3 3 3 3 3 3 3 3 3 3 3 3 3 3 3 3 3 3 3 3 3 3 3 3 3 3 3 3 3 3 3 3 3 3 3 3 3 3 3 3 3 3 3 3 3 3 3 3 3 3 3 3 3 3 3 3 3 3 3 3 3 3 3 3 3 3 3 3 3 3 3 3 3 3 3 3 3 3 3 3 3 3 3 3 3 3 3 3 3 3 3 3 3 3 3 3 3 3 3 3 3 3 3 3 3 3 3 3 3 3 3 3 3 3 3 3 3 3 3 3 3 3 3 3 3 3 3 3 3 3 3 3 3 3 3 3 3 3 3 3 3 3 3 3 3 3 3 3 3 3 3 3 3 3 3 3 3 3 3 3 3 3 3 3 3 3 3 3 3 3 3 3 3 3 3 3 3 3 3 3 3 3 3 3 3 3 3 3 3 3 3 3 3 3 3 3 3 3 3 3 3 3 3 3 3 3 3 3 3 3 3 3 3 3 3 3 3 3 3 3 3 3 3 3 3 3 3 3 3 3 3 3 3 3 3 3 3 3 3 3 3 3 3 3 3 3 3 3 3 3 3 3 3 3 3 3 3 3 3 3 3 3 3 3 3 3 3 3 3 3 3 3 3 3 3 3 3 3 3 3 3 3 3 3 3 3 3 3 3 3 3 3 3 3 3 3 3 3 3 3 3 3 3 3 3 3 3 3 3 3 3 3 3 3 3 3 3 3 3 3 3 3 3 3 3 3 3 3 3 3 3 3 3 3 3 3 3 3 3 3 3 3 3 3 3 3 3 3 3 3 3 3 3 3 3 3 3 3 3 3 3 3 3 3 3 3 3 3 3 3 3 3 3 3 3 3 3 3 3 3 3 3 3 3 3 3 3 3 3 3 3 3 3 3 3 3 3 3 3 3 3 3 3 3 3 3 3 3 3 3 3 3 3 3 3 3 3 3 3 3 3 3 3 3 3 3 3 3 3 3 3 3 3 3 3 3 3 3 3 3 3 3 3 3 3 3 3 3 3 3 3 3 3 3 3 3 3 3 3 3 3 3 3 3 3 3 3 3 3 3 3 3 3 3 3 3 3 3 3 3 3 3 3 3 3 3 3 3 3 3 3 3 3 3 3 3 3 3 3 3 3 3 3 3 3 3 3 3 3 3 3 3 3 3 3 3 3 3 3 </vcount>
          <p>13 0 27 1 14 2 12 3 26 4 13 0 11 5 25 6 12 3 10 7 24 8 11 5 9 9 23 10 10 7 8 11 22 12 9 9 7 13 21 14 8 11 6 15 20 16 7 13 5 17 19 18 6 15 4 19 18 20 5 17 3 21 17 22 4 19 2 23 16 24 3 21 1 25 15 26 16 24 0 27 14 2 1 25 27 1 41 28 14 2 26 4 40 29 27 1 25 6 39 30 40 29 24 8 38 31 39 30 23 10 37 32 38 31 22 12 36 33 23 10 21 14 35 34 22 12 20 16 34 35 35 34 19 18 33 36 34 35 18 20 32 37 19 18 17 22 31 38 18 20 16 24 30 39 17 22 15 26 29 40 30 39 14 2 28 41 29 40 28 41 41 28 42 42 41 28 40 29 46 43 30 39 29 40 43 44 29 40 28 41 43 44 42 42 46 43 47 45 46 43 45 46 51 47 44 48 43 44 48 49 43 44 42 42 47 45 39 30 38 31 62 50 38 31 37 32 60 51 37 32 36 33 59 52 36 33 35 34 58 53 35 34 34 35 58 53 34 35 33 36 56 54 33 36 32 37 56 54 32 37 31 38 54 55 62 50 61 56 71 57 61 56 60 51 70 58 60 51 59 52 68 59 59 52 58 53 68 59 58 53 57 60 66 61 57 60 56 54 66 61 56 54 55 62 64 63 55 62 54 55 63 64 63 64 54 55 73 65 73 65 72 66 75 67 75 67 74 68 77 69 80 70 81 71 78 72 77 69 76 73 80 70 62 50 71 57 83 74 82 75 83 74 85 76 88 77 89 78 87 79 84 80 85 76 89 78 3 21 4 19 63 64 4 19 5 17 65 81 5 17 6 15 65 81 6 15 7 13 66 61 7 13 8 11 67 82 8 11 9 9 68 59 9 9 10 7 69 83 10 7 11 5 70 58 12 3 83 74 71 57 53 84 50 85 91 86 91 86 90 87 93 88 93 88 92 89 94 90 95 91 94 90 97 92 97 92 96 93 309 94 101 95 96 93 99 96 86 97 100 98 88 77 100 98 101 95 98 99 45 46 40 29 103 100 84 80 103 100 82 75 39 30 62 50 102 101 39 30 102 101 40 29 45 46 103 100 90 87 90 87 103 100 92 89 94 90 92 89 99 96 98 99 99 96 92 89 88 77 98 99 84 80 96 93 101 95 87 79 100 98 87 79 101 95 87 79 100 98 86 97 89 78 85 76 105 102 85 76 83 74 105 102 77 69 105 102 104 103 80 70 79 104 106 105 77 69 80 70 105 102 13 0 104 103 83 74 75 67 104 103 13 0 0 27 63 64 13 0 1 25 2 23 3 21 0 27 1 25 63 64 308 106 96 93 107 107 321 108 323 109 108 110 323 109 325 111 109 112 87 79 89 78 106 105 107 107 108 110 109 112 96 93 87 79 107 107 106 105 79 104 326 113 81 71 76 73 114 114 76 73 74 68 112 115 49 116 111 117 44 48 44 48 74 68 30 39 30 39 72 66 31 38 114 114 112 115 116 118 112 115 111 117 116 118 325 111 357 119 133 120 49 116 48 49 52 121 48 49 47 45 52 121 111 117 49 116 115 122 47 45 51 47 52 121 51 47 50 85 53 84 109 112 117 123 107 107 117 123 337 124 107 107 121 125 122 126 119 127 133 120 121 125 119 127 118 128 133 120 119 127 133 120 132 129 121 125 135 130 335 131 337 124 130 132 129 133 124 134 131 135 130 132 126 136 355 137 343 138 132 129 131 135 126 136 343 138 124 134 122 126 121 125 124 134 125 139 126 136 127 140 128 141 122 126 129 133 127 140 124 134 357 119 355 137 133 120 97 92 309 94 158 142 95 91 97 92 158 142 91 86 93 88 156 143 53 84 91 86 155 144 123 145 170 146 208 147 171 148 160 149 134 150 195 151 119 127 194 152 150 153 154 154 146 155 149 156 153 157 150 153 148 158 152 159 149 156 147 160 151 161 148 158 140 162 143 163 142 164 139 165 144 166 143 163 138 167 145 168 144 166 137 169 146 155 138 167 142 164 159 170 141 171 159 170 142 164 170 146 128 141 134 150 159 170 146 155 154 154 169 172 154 154 153 157 169 172 145 168 146 155 164 173 144 166 145 168 164 173 143 163 144 166 163 174 142 164 143 163 161 175 152 159 151 161 167 176 153 157 152 159 167 176 151 161 147 160 172 177 155 144 171 148 136 178 172 177 155 144 156 143 172 177 171 148 155 144 160 149 171 148 141 171 53 84 136 178 52 121 141 171 147 160 140 162 140 162 148 158 139 165 139 165 149 156 150 153 137 169 138 167 150 153 158 142 384 179 175 180 157 181 158 142 175 180 156 143 157 181 173 182 166 183 151 161 172 177 156 143 173 182 172 177 166 183 173 182 176 184 175 180 402 185 179 186 174 187 175 180 178 188 173 182 174 187 178 188 182 189 196 190 195 151 190 191 204 192 205 193 184 194 198 195 183 196 180 197 194 152 189 198 186 199 200 200 199 201 187 202 201 203 200 200 188 204 202 205 187 202 192 206 206 207 193 208 181 209 195 151 194 152 185 210 199 201 198 195 189 198 203 211 204 192 191 212 205 193 206 207 193 208 207 213 188 204 183 196 197 214 182 189 163 174 164 173 207 213 162 215 163 174 206 207 161 175 162 215 205 193 164 173 165 216 207 213 165 216 169 172 202 205 169 172 168 217 201 203 168 217 167 176 200 200 166 183 176 184 167 176 170 146 161 175 204 192 198 195 199 201 176 184 176 184 177 218 198 195 196 190 118 128 119 127 198 195 177 218 197 214 194 152 208 147 170 146 197 214 120 219 196 190 208 147 119 127 123 145 128 141 159 170 123 145 181 209 180 197 189 198 209 220 178 188 341 221 209 220 341 221 135 130 115 122 52 121 127 140 134 150 128 141 52 121 179 186 407 222 341 221 109 112 133 120 135 130 115 122 127 140 129 133 116 118 129 133 114 114 93 88 95 91 156 143 178 188 209 220 177 218 135 130 133 120 118 128 223 223 210 224 224 225 222 226 223 223 236 227 221 228 222 226 235 229 220 230 221 228 234 231 219 232 220 230 233 233 218 234 219 232 232 235 217 236 218 234 231 237 216 238 217 236 230 239 215 240 216 238 229 241 214 242 215 240 228 243 213 244 214 242 227 245 212 246 213 244 226 247 211 248 212 246 226 247 210 224 211 248 224 225 237 249 224 225 251 250 236 227 237 249 250 251 235 229 236 227 250 251 234 231 235 229 249 252 233 233 234 231 248 253 232 235 233 233 246 254 231 237 232 235 245 255 230 239 231 237 245 255 229 241 230 239 244 256 228 243 229 241 242 257 227 245 228 243 241 258 226 247 227 245 240 259 225 260 226 247 240 259 224 225 225 260 239 261 238 262 252 263 251 250 251 250 256 264 250 251 240 259 254 265 253 266 239 261 253 266 238 262 252 263 257 267 256 264 256 264 261 268 255 269 254 265 259 270 258 271 253 266 258 271 257 267 249 252 272 272 248 253 248 253 271 273 270 274 247 275 270 274 269 276 246 254 269 276 268 277 245 255 268 277 244 256 244 256 267 278 266 279 243 280 266 279 242 257 242 257 265 281 264 282 272 272 281 283 271 273 271 273 280 284 270 274 270 274 279 285 278 286 269 276 278 286 268 277 268 277 277 287 276 288 267 278 276 288 266 279 266 279 275 289 274 290 265 281 274 290 273 291 273 291 283 292 264 282 283 292 285 293 282 294 285 293 287 295 284 296 290 297 289 298 288 299 287 295 290 297 286 300 272 272 292 301 293 302 292 301 294 303 295 304 298 305 296 306 297 307 294 303 298 305 299 308 213 244 273 291 214 242 214 242 274 290 275 289 215 240 275 289 216 238 216 238 276 288 217 236 217 236 277 287 218 234 218 234 278 286 219 232 219 232 279 285 220 230 220 230 280 284 221 228 222 226 221 228 281 283 263 309 301 310 260 311 301 310 303 312 300 313 303 312 305 314 304 315 305 314 307 316 304 315 307 316 309 94 306 317 313 318 311 319 306 317 296 306 298 305 312 320 312 320 310 321 313 318 255 269 315 322 250 251 294 303 292 301 315 322 249 252 314 323 272 272 249 252 250 251 314 323 255 269 260 311 300 313 300 313 302 324 315 322 304 315 311 319 302 324 310 321 294 303 302 324 298 305 294 303 310 321 306 317 297 307 313 318 312 320 313 318 297 307 297 307 296 306 312 320 299 308 318 325 317 326 295 304 317 326 293 302 287 295 285 293 316 327 290 297 318 325 289 298 287 295 317 326 290 297 223 223 222 226 293 302 285 293 283 292 223 223 210 224 223 223 273 291 211 248 273 291 213 244 210 224 273 291 211 248 308 106 320 328 319 329 321 108 318 325 322 330 323 109 322 330 324 331 297 307 322 330 318 325 319 329 324 331 322 330 306 317 319 329 297 307 318 325 321 108 326 113 291 332 332 333 286 300 286 300 330 334 284 296 259 270 254 265 329 335 254 265 240 259 284 296 240 259 241 258 282 294 332 333 334 336 330 334 330 334 334 336 329 335 325 111 324 331 358 337 259 270 262 338 258 271 258 271 262 338 257 267 329 335 333 339 259 270 257 267 262 338 261 268 261 268 263 309 260 311 324 331 319 329 336 340 336 340 319 329 337 124 342 341 339 342 344 343 358 337 339 342 342 341 338 344 339 342 358 337 358 337 342 341 356 345 360 346 336 340 337 124 352 347 348 348 346 349 354 350 348 348 352 347 355 137 356 345 343 138 354 350 353 351 343 138 346 349 347 352 342 341 346 349 348 348 347 352 349 353 344 343 350 354 351 355 346 349 349 353 357 119 358 337 355 137 307 316 383 356 309 94 305 314 382 357 383 356 301 310 380 358 381 359 263 309 361 360 380 358 345 361 436 362 396 363 397 364 361 360 359 365 423 366 422 367 339 342 375 368 362 369 371 370 374 371 375 368 378 372 373 373 374 371 377 374 372 375 373 373 376 376 365 377 366 378 367 379 364 380 365 377 368 381 363 382 364 380 369 383 362 369 363 382 371 370 367 379 366 378 385 384 385 384 396 363 367 379 350 354 385 384 359 365 371 370 391 385 395 386 379 387 395 386 378 372 370 388 390 389 371 370 369 383 389 390 390 389 368 381 388 391 389 390 367 379 387 392 368 381 377 374 393 393 376 376 378 372 394 394 393 393 376 376 398 395 372 375 380 358 361 360 397 364 398 395 381 359 380 358 398 395 380 358 397 364 386 396 366 378 397 364 263 309 262 338 361 360 366 378 365 377 372 375 365 377 364 380 373 373 364 380 363 382 375 368 362 369 375 368 363 382 383 356 401 397 384 179 382 357 400 398 401 397 381 359 399 399 382 357 392 400 399 399 398 395 381 359 398 395 399 399 392 400 403 401 399 399 401 397 406 402 402 185 400 398 405 403 401 397 399 399 404 404 405 403 410 405 409 406 423 366 418 407 419 408 433 409 412 410 411 411 426 412 408 413 417 414 422 367 414 415 413 416 427 417 415 418 414 415 428 419 416 420 415 418 430 421 420 422 421 423 434 424 409 406 408 413 422 367 413 416 412 410 426 412 417 414 418 407 432 425 419 408 420 422 434 424 421 423 416 420 435 426 411 411 410 405 425 427 389 390 434 424 435 426 388 391 433 409 434 424 387 392 432 425 433 409 390 389 435 426 391 385 391 385 430 421 395 386 395 386 429 428 394 394 394 394 428 419 393 393 392 400 393 393 403 401 396 363 431 429 432 425 426 412 403 401 427 417 403 401 426 412 404 404 424 430 423 366 339 342 426 412 425 427 404 404 422 367 431 429 396 363 425 427 424 430 340 431 436 362 345 361 339 342 350 354 345 361 385 384 409 406 417 414 408 413 437 432 341 221 405 403 437 432 360 346 341 221 333 339 349 353 262 338 359 365 262 338 350 354 406 402 341 221 407 222 324 331 336 340 360 346 333 339 334 336 351 355 334 336 332 333 351 355 303 312 381 359 305 314 405 403 404 404 437 432 360 346 338 344 358 337 0 27 13 0 14 2 26 4 27 1 13 0 25 6 26 4 12 3 24 8 25 6 11 5 23 10 24 8 10 7 22 12 23 10 9 9 21 14 22 12 8 11 20 16 21 14 7 13 19 18 20 16 6 15 18 20 19 18 5 17 17 22 18 20 4 19 16 24 17 22 3 21 2 23 1 25 16 24 14 2 15 26 1 25 41 28 28 41 14 2 40 29 41 28 27 1 26 4 25 6 40 29 25 6 24 8 39 30 24 8 23 10 38 31 36 33 37 32 23 10 35 34 36 33 22 12 21 14 20 16 35 34 20 16 19 18 34 35 32 37 33 36 19 18 31 38 32 37 18 20 30 39 31 38 17 22 16 24 15 26 30 39 15 26 14 2 29 40 41 28 46 43 42 42 40 29 45 46 46 43 44 48 30 39 43 44 28 41 42 42 43 44 46 43 51 47 47 45 45 46 50 85 51 47 49 116 44 48 48 49 48 49 43 44 47 45 38 31 61 56 62 50 61 56 38 31 60 51 60 51 37 32 59 52 59 52 36 33 58 53 34 35 57 60 58 53 57 60 34 35 56 54 32 37 55 62 56 54 55 62 32 37 54 55 61 56 70 58 71 57 60 51 69 83 70 58 69 83 60 51 68 59 58 53 67 82 68 59 67 82 58 53 66 61 56 54 65 81 66 61 65 81 56 54 64 63 64 63 55 62 63 64 54 55 72 66 73 65 72 66 74 68 75 67 74 68 76 73 77 69 79 104 80 70 78 72 76 73 81 71 80 70 82 75 62 50 83 74 84 80 82 75 85 76 86 97 88 77 87 79 88 77 84 80 89 78 4 19 64 63 63 64 64 63 4 19 65 81 6 15 66 61 65 81 7 13 67 82 66 61 8 11 68 59 67 82 9 9 69 83 68 59 10 7 70 58 69 83 11 5 71 57 70 58 11 5 12 3 71 57 50 85 90 87 91 86 90 87 92 89 93 88 95 91 93 88 94 90 94 90 96 93 97 92 96 93 308 106 309 94 96 93 94 90 99 96 100 98 98 99 88 77 101 95 99 96 98 99 40 29 102 101 103 100 103 100 102 101 82 75 62 50 82 75 102 101 50 85 45 46 90 87 103 100 84 80 92 89 84 80 98 99 92 89 106 105 89 78 105 102 83 74 104 103 105 102 75 67 77 69 104 103 80 70 106 105 105 102 12 3 13 0 83 74 73 65 75 67 13 0 63 64 73 65 13 0 63 64 1 25 3 21 320 328 308 106 107 107 106 105 321 108 108 110 108 110 323 109 109 112 108 110 87 79 106 105 87 79 108 110 107 107 321 108 106 105 326 113 76 73 112 115 114 114 74 68 111 117 112 115 111 117 74 68 44 48 74 68 72 66 30 39 72 66 54 55 31 38 111 117 115 122 116 118 109 112 325 111 133 120 49 116 52 121 115 122 51 47 53 84 52 121 337 124 320 328 107 107 122 126 123 145 119 127 132 129 125 139 121 125 117 123 135 130 337 124 126 136 130 132 124 134 343 138 126 136 132 129 353 351 131 135 343 138 125 139 124 134 121 125 125 139 132 129 126 136 128 141 123 145 122 126 127 140 122 126 124 134 355 137 132 129 133 120 309 94 384 179 158 142 157 181 95 91 158 142 155 144 91 86 156 143 136 178 53 84 155 144 136 178 171 148 134 150 119 127 208 147 194 152 137 169 150 153 146 155 153 157 154 154 150 153 152 159 153 157 149 156 151 161 152 159 148 158 141 171 140 162 142 164 140 162 139 165 143 163 139 165 138 167 144 166 146 155 145 168 138 167 159 170 160 149 141 171 142 164 161 175 170 146 134 150 160 149 159 170 165 216 146 155 169 172 153 157 168 217 169 172 146 155 165 216 164 173 163 174 144 166 164 173 162 215 143 163 163 174 143 163 162 215 161 175 151 161 166 183 167 176 168 217 153 157 167 176 147 160 171 148 172 177 171 148 147 160 141 171 136 178 134 150 52 121 147 160 148 158 140 162 148 158 149 156 139 165 138 167 139 165 150 153 384 179 402 185 175 180 174 187 157 181 175 180 157 181 174 187 173 182 173 182 166 183 172 177 173 182 177 218 176 184 402 185 407 222 179 186 175 180 179 186 178 188 177 218 173 182 178 188 181 209 182 189 195 151 191 212 190 191 205 193 198 195 197 214 183 196 194 152 203 211 189 198 185 210 186 199 199 201 186 199 187 202 200 200 202 205 201 203 187 202 206 207 207 213 193 208 180 197 181 209 194 152 184 194 185 210 198 195 190 191 189 198 204 192 192 206 191 212 206 207 207 213 202 205 188 204 197 214 196 190 182 189 206 207 163 174 207 213 205 193 162 215 206 207 204 192 161 175 205 193 165 216 202 205 207 213 169 172 201 203 202 205 168 217 200 200 201 203 167 176 199 201 200 200 203 211 170 146 204 192 199 201 167 176 176 184 195 151 196 190 119 127 177 218 120 219 197 214 203 211 194 152 170 146 120 219 118 128 196 190 159 170 170 146 123 145 182 189 181 209 189 198 192 206 190 191 191 212 188 204 192 206 193 208 188 204 190 191 192 206 187 202 190 191 188 204 183 196 182 189 189 198 186 199 190 191 187 202 185 210 190 191 186 199 185 210 184 194 190 191 184 194 183 196 189 198 190 191 184 194 189 198 178 188 179 186 341 221 341 221 335 131 135 130 128 141 127 140 52 121 117 123 109 112 135 130 116 118 115 122 129 133 95 91 157 181 156 143 209 220 120 219 177 218 209 220 135 130 118 128 120 219 209 220 118 128 237 249 223 223 224 225 223 223 237 249 236 227 222 226 236 227 235 229 221 228 235 229 234 231 220 230 234 231 233 233 219 232 233 233 232 235 218 234 232 235 231 237 217 236 231 237 230 239 216 238 230 239 229 241 215 240 229 241 228 243 214 242 228 243 227 245 213 244 227 245 226 247 225 260 211 248 226 247 211 248 225 260 224 225 224 225 238 262 251 250 237 249 251 250 250 251 249 252 235 229 250 251 248 253 234 231 249 252 247 275 233 233 248 253 233 233 247 275 246 254 232 235 246 254 245 255 244 256 230 239 245 255 243 280 229 241 244 256 229 241 243 280 242 257 228 243 242 257 241 258 227 245 241 258 240 259 239 261 225 260 240 259 238 262 224 225 239 261 252 263 256 264 251 250 256 264 255 269 250 251 239 261 240 259 253 266 253 266 252 263 238 262 257 267 261 268 256 264 261 268 260 311 255 269 253 266 254 265 258 271 252 263 253 266 257 267 272 272 271 273 248 253 247 275 248 253 270 274 246 254 247 275 269 276 245 255 246 254 268 277 268 277 267 278 244 256 243 280 244 256 266 279 266 279 265 281 242 257 241 258 242 257 264 282 281 283 280 284 271 273 280 284 279 285 270 274 269 276 270 274 278 286 278 286 277 287 268 277 267 278 268 277 276 288 276 288 275 289 266 279 265 281 266 279 274 290 264 282 265 281 273 291 283 292 282 294 264 282 285 293 284 296 282 294 287 295 286 300 284 296 291 332 290 297 288 299 290 297 291 332 286 300 281 283 272 272 293 302 293 302 292 301 295 304 299 308 298 305 297 307 295 304 294 303 299 308 273 291 274 290 214 242 215 240 214 242 275 289 275 289 276 288 216 238 276 288 277 287 217 236 277 287 278 286 218 234 278 286 279 285 219 232 279 285 280 284 220 230 280 284 281 283 221 228 293 302 222 226 281 283 301 310 300 313 260 311 303 312 302 324 300 313 302 324 303 312 304 315 307 316 306 317 304 315 309 94 308 106 306 317 311 319 304 315 306 317 298 305 310 321 312 320 310 321 311 319 313 318 315 322 314 323 250 251 292 301 314 323 315 322 314 323 292 301 272 272 315 322 255 269 300 313 302 324 294 303 315 322 311 319 310 321 302 324 295 304 299 308 317 326 317 326 316 327 293 302 317 326 287 295 316 327 317 326 318 325 290 297 316 327 223 223 293 302 316 327 285 293 223 223 223 223 283 292 273 291 212 246 211 248 213 244 306 317 308 106 319 329 323 109 321 108 322 330 325 111 323 109 324 331 299 308 297 307 318 325 319 329 322 330 297 307 289 298 318 325 326 113 332 333 330 334 286 300 330 334 329 335 284 296 254 265 284 296 329 335 240 259 282 294 284 296 241 258 264 282 282 294 334 336 333 339 329 335 357 119 325 111 358 337 333 339 262 338 259 270 262 338 263 309 261 268 319 329 320 328 337 124 339 342 345 361 344 343 342 341 347 352 356 345 335 131 360 346 337 124 351 355 352 347 346 349 356 345 348 348 343 138 348 348 354 350 343 138 344 343 346 349 342 341 348 348 356 345 347 352 344 343 345 361 350 354 346 349 344 343 349 353 358 337 356 345 355 137 383 356 384 179 309 94 307 316 305 314 383 356 303 312 301 310 381 359 301 310 263 309 380 358 386 396 397 364 359 365 422 367 436 362 339 342 379 387 375 368 371 370 375 368 379 387 378 372 374 371 378 372 377 374 373 373 377 374 376 376 368 381 365 377 367 379 369 383 364 380 368 381 370 388 363 382 369 383 363 382 370 388 371 370 366 378 386 396 385 384 396 363 387 392 367 379 385 384 386 396 359 365 379 387 371 370 395 386 395 386 394 394 378 372 390 389 391 385 371 370 370 388 369 383 390 389 369 383 368 381 389 390 387 392 388 391 368 381 393 393 392 400 376 376 377 374 378 372 393 393 398 395 397 364 372 375 366 378 372 375 397 364 262 338 359 365 361 360 365 377 373 373 372 375 364 380 374 371 373 373 374 371 364 380 375 368 401 397 402 185 384 179 383 356 382 357 401 397 399 399 400 398 382 357 376 376 392 400 398 395 403 401 404 404 399 399 406 402 407 222 402 185 405 403 406 402 401 397 400 398 399 399 405 403 424 430 410 405 423 366 432 425 418 407 433 409 411 411 425 427 426 412 417 414 431 429 422 367 428 419 414 415 427 417 429 428 415 418 428 419 415 418 429 428 430 421 421 423 435 426 434 424 423 366 409 406 422 367 427 417 413 416 426 412 431 429 417 414 432 425 433 409 419 408 434 424 416 420 430 421 435 426 410 405 424 430 425 427 390 389 389 390 435 426 389 390 388 391 434 424 388 391 387 392 433 409 435 426 430 421 391 385 430 421 429 428 395 386 429 428 428 419 394 394 428 419 427 417 393 393 387 392 396 363 432 425 403 401 393 393 427 417 338 344 424 430 339 342 425 427 340 431 404 404 436 362 422 367 396 363 424 430 338 344 340 431 345 361 396 363 385 384 409 406 410 405 417 414 418 407 420 422 419 408 420 422 416 420 421 423 418 407 416 420 420 422 418 407 415 418 416 420 410 405 411 411 417 414 418 407 414 415 415 418 418 407 413 416 414 415 412 410 413 416 418 407 411 411 412 410 417 414 412 410 418 407 417 414 341 221 406 402 405 403 360 346 335 131 341 221 262 338 349 353 350 354 358 337 324 331 360 346 349 353 333 339 351 355 381 359 382 357 305 314 404 404 340 431 437 432 437 432 340 431 338 344 360 346 437 432 338 344</p>
        </polylist>
        <polylist material="Gummi_009_001-material" count="24">
          <input semantic="VERTEX" source="#Circle_011-mesh-vertices" offset="0"/>
          <input semantic="NORMAL" source="#Circle_011-mesh-normals" offset="1"/>
          <vcount>3 3 3 3 3 3 3 3 3 3 3 3 3 3 3 3 3 3 3 3 3 3 3 3 </vcount>
          <p>79 104 110 433 328 434 78 72 81 71 113 435 78 72 113 435 110 433 328 434 110 433 353 351 113 435 130 132 131 135 113 435 114 114 129 133 289 298 326 113 328 434 288 299 331 436 291 332 288 299 289 298 327 437 328 434 353 351 327 437 331 436 327 437 354 350 331 436 352 347 351 355 326 113 79 104 328 434 81 71 114 114 113 435 79 104 78 72 110 433 110 433 131 135 353 351 110 433 113 435 131 135 130 132 113 435 129 133 327 437 289 298 328 434 331 436 332 333 291 332 331 436 288 299 327 437 353 351 354 350 327 437 352 347 331 436 354 350 332 333 331 436 351 355</p>
        </polylist>
      </mesh>
    </geometry>
  </library_geometries>
  <library_controllers/>
  <library_visual_scenes>
    <visual_scene id="Scene" name="Scene">
      <node id="COL_hollie_left_hand_o" name="COL_hollie_left_hand_o" type="NODE">
        <instance_geometry url="#Circle_011-mesh" name="COL_hollie_left_hand_o">
          <bind_material>
            <technique_common>
              <instance_material symbol="Metall_Alu_009_001-material" target="#Metall_Alu_009_001-material"/>
              <instance_material symbol="Gummi_009_001-material" target="#Gummi_009_001-material"/>
            </technique_common>
          </bind_material>
        </instance_geometry>
      </node>
    </visual_scene>
  </library_visual_scenes>
  <scene>
    <instance_visual_scene url="#Scene"/>
  </scene>
</COLLADA>